ISO-10303-21;
HEADER;
FILE_DESCRIPTION(('Open CASCADE Model'),'2;1');
FILE_NAME('Open CASCADE Shape Model','2023-07-03T19:59:34',(
    'Analysis Situs'),('Analysis Situs'),
  'Open CASCADE STEP processor 7.6','Analysis Situs 1.2.0dev','Unknown'
  );
FILE_SCHEMA(('AUTOMOTIVE_DESIGN { 1 0 10303 214 1 1 1 1 }'));
ENDSEC;
DATA;
#1 = APPLICATION_PROTOCOL_DEFINITION('international standard',
  'automotive_design',2000,#2);
#2 = APPLICATION_CONTEXT(
  'core data for automotive mechanical design processes');
#3 = SHAPE_DEFINITION_REPRESENTATION(#4,#10);
#4 = PRODUCT_DEFINITION_SHAPE('','',#5);
#5 = PRODUCT_DEFINITION('design','',#6,#9);
#6 = PRODUCT_DEFINITION_FORMATION('','',#7);
#7 = PRODUCT('Open CASCADE STEP translator 7.6 2',
  'Open CASCADE STEP translator 7.6 2','',(#8));
#8 = PRODUCT_CONTEXT('',#2,'mechanical');
#9 = PRODUCT_DEFINITION_CONTEXT('part definition',#2,'design');
#10 = MANIFOLD_SURFACE_SHAPE_REPRESENTATION('',(#11,#15),#1267);
#11 = AXIS2_PLACEMENT_3D('',#12,#13,#14);
#12 = CARTESIAN_POINT('',(0.,0.,0.));
#13 = DIRECTION('',(0.,0.,1.));
#14 = DIRECTION('',(1.,0.,-0.));
#15 = SHELL_BASED_SURFACE_MODEL('',(#16));
#16 = OPEN_SHELL('',(#17,#850,#905,#982,#1010,#1119,#1189,#1252,#1256,
    #1261));
#17 = ADVANCED_FACE('',(#18,#121,#237,#272,#340,#700),#32,.T.);
#18 = FACE_BOUND('',#19,.T.);
#19 = EDGE_LOOP('',(#20,#43,#59,#75,#91,#107));
#20 = ORIENTED_EDGE('',*,*,#21,.T.);
#21 = EDGE_CURVE('',#22,#24,#26,.T.);
#22 = VERTEX_POINT('',#23);
#23 = CARTESIAN_POINT('',(-35.,30.,-204.));
#24 = VERTEX_POINT('',#25);
#25 = CARTESIAN_POINT('',(-36.,30.,-204.));
#26 = SURFACE_CURVE('',#27,(#31),.PCURVE_S1.);
#27 = LINE('',#28,#29);
#28 = CARTESIAN_POINT('',(-42.5,30.,-204.));
#29 = VECTOR('',#30,1.);
#30 = DIRECTION('',(-1.,-0.,-0.));
#31 = PCURVE('',#32,#37);
#32 = PLANE('',#33);
#33 = AXIS2_PLACEMENT_3D('',#34,#35,#36);
#34 = CARTESIAN_POINT('',(-50.,30.,-150.));
#35 = DIRECTION('',(0.,1.,0.));
#36 = DIRECTION('',(0.,0.,1.));
#37 = DEFINITIONAL_REPRESENTATION('',(#38),#42);
#38 = LINE('',#39,#40);
#39 = CARTESIAN_POINT('',(-54.,7.5));
#40 = VECTOR('',#41,1.);
#41 = DIRECTION('',(0.,-1.));
#42 = ( GEOMETRIC_REPRESENTATION_CONTEXT(2) 
PARAMETRIC_REPRESENTATION_CONTEXT() REPRESENTATION_CONTEXT('2D SPACE',''
  ) );
#43 = ORIENTED_EDGE('',*,*,#44,.T.);
#44 = EDGE_CURVE('',#24,#45,#47,.T.);
#45 = VERTEX_POINT('',#46);
#46 = CARTESIAN_POINT('',(-36.,30.,-228.9999969452));
#47 = SURFACE_CURVE('',#48,(#52),.PCURVE_S1.);
#48 = LINE('',#49,#50);
#49 = CARTESIAN_POINT('',(-36.,30.,-204.));
#50 = VECTOR('',#51,1.);
#51 = DIRECTION('',(0.,0.,-1.));
#52 = PCURVE('',#32,#53);
#53 = DEFINITIONAL_REPRESENTATION('',(#54),#58);
#54 = LINE('',#55,#56);
#55 = CARTESIAN_POINT('',(-54.,14.));
#56 = VECTOR('',#57,1.);
#57 = DIRECTION('',(-1.,0.));
#58 = ( GEOMETRIC_REPRESENTATION_CONTEXT(2) 
PARAMETRIC_REPRESENTATION_CONTEXT() REPRESENTATION_CONTEXT('2D SPACE',''
  ) );
#59 = ORIENTED_EDGE('',*,*,#60,.F.);
#60 = EDGE_CURVE('',#61,#45,#63,.T.);
#61 = VERTEX_POINT('',#62);
#62 = CARTESIAN_POINT('',(-35.,30.,-228.9999969452));
#63 = SURFACE_CURVE('',#64,(#68),.PCURVE_S1.);
#64 = LINE('',#65,#66);
#65 = CARTESIAN_POINT('',(-30.0000000745,30.,-228.9999969452));
#66 = VECTOR('',#67,1.);
#67 = DIRECTION('',(-1.,0.,0.));
#68 = PCURVE('',#32,#69);
#69 = DEFINITIONAL_REPRESENTATION('',(#70),#74);
#70 = LINE('',#71,#72);
#71 = CARTESIAN_POINT('',(-78.9999969452,19.9999999255));
#72 = VECTOR('',#73,1.);
#73 = DIRECTION('',(0.,-1.));
#74 = ( GEOMETRIC_REPRESENTATION_CONTEXT(2) 
PARAMETRIC_REPRESENTATION_CONTEXT() REPRESENTATION_CONTEXT('2D SPACE',''
  ) );
#75 = ORIENTED_EDGE('',*,*,#76,.T.);
#76 = EDGE_CURVE('',#61,#77,#79,.T.);
#77 = VERTEX_POINT('',#78);
#78 = CARTESIAN_POINT('',(-10.00000014901,30.,-228.9999969452));
#79 = SURFACE_CURVE('',#80,(#84),.PCURVE_S1.);
#80 = LINE('',#81,#82);
#81 = CARTESIAN_POINT('',(-30.0000000745,30.,-228.9999969452));
#82 = VECTOR('',#83,1.);
#83 = DIRECTION('',(1.,0.,0.));
#84 = PCURVE('',#32,#85);
#85 = DEFINITIONAL_REPRESENTATION('',(#86),#90);
#86 = LINE('',#87,#88);
#87 = CARTESIAN_POINT('',(-78.9999969452,19.9999999255));
#88 = VECTOR('',#89,1.);
#89 = DIRECTION('',(0.,1.));
#90 = ( GEOMETRIC_REPRESENTATION_CONTEXT(2) 
PARAMETRIC_REPRESENTATION_CONTEXT() REPRESENTATION_CONTEXT('2D SPACE',''
  ) );
#91 = ORIENTED_EDGE('',*,*,#92,.T.);
#92 = EDGE_CURVE('',#77,#93,#95,.T.);
#93 = VERTEX_POINT('',#94);
#94 = CARTESIAN_POINT('',(-10.00000014901,30.,-204.));
#95 = SURFACE_CURVE('',#96,(#100),.PCURVE_S1.);
#96 = LINE('',#97,#98);
#97 = CARTESIAN_POINT('',(-10.00000014901,30.,-177.));
#98 = VECTOR('',#99,1.);
#99 = DIRECTION('',(0.,0.,1.));
#100 = PCURVE('',#32,#101);
#101 = DEFINITIONAL_REPRESENTATION('',(#102),#106);
#102 = LINE('',#103,#104);
#103 = CARTESIAN_POINT('',(-27.,39.99999985099));
#104 = VECTOR('',#105,1.);
#105 = DIRECTION('',(1.,0.));
#106 = ( GEOMETRIC_REPRESENTATION_CONTEXT(2) 
PARAMETRIC_REPRESENTATION_CONTEXT() REPRESENTATION_CONTEXT('2D SPACE',''
  ) );
#107 = ORIENTED_EDGE('',*,*,#108,.T.);
#108 = EDGE_CURVE('',#93,#22,#109,.T.);
#109 = SURFACE_CURVE('',#110,(#114),.PCURVE_S1.);
#110 = LINE('',#111,#112);
#111 = CARTESIAN_POINT('',(-42.5,30.,-204.));
#112 = VECTOR('',#113,1.);
#113 = DIRECTION('',(-1.,0.,0.));
#114 = PCURVE('',#32,#115);
#115 = DEFINITIONAL_REPRESENTATION('',(#116),#120);
#116 = LINE('',#117,#118);
#117 = CARTESIAN_POINT('',(-54.,7.5));
#118 = VECTOR('',#119,1.);
#119 = DIRECTION('',(0.,-1.));
#120 = ( GEOMETRIC_REPRESENTATION_CONTEXT(2) 
PARAMETRIC_REPRESENTATION_CONTEXT() REPRESENTATION_CONTEXT('2D SPACE',''
  ) );
#121 = FACE_BOUND('',#122,.T.);
#122 = EDGE_LOOP('',(#123,#175,#191,#207,#223));
#123 = ORIENTED_EDGE('',*,*,#124,.T.);
#124 = EDGE_CURVE('',#125,#127,#129,.T.);
#125 = VERTEX_POINT('',#126);
#126 = CARTESIAN_POINT('',(0.,30.,-275.0000040978));
#127 = VERTEX_POINT('',#128);
#128 = CARTESIAN_POINT('',(-30.18030511802,30.,-300.));
#129 = SURFACE_CURVE('',#130,(#151),.PCURVE_S1.);
#130 = B_SPLINE_CURVE_WITH_KNOTS('',5,(#131,#132,#133,#134,#135,#136,
    #137,#138,#139,#140,#141,#142,#143,#144,#145,#146,#147,#148,#149,
    #150),.UNSPECIFIED.,.F.,.F.,(6,1,1,1,1,1,1,1,1,1,1,1,1,1,1,6),(0.,
    6.666666666667E-02,0.133333333333,0.2,0.266666666667,0.333333333333,
    0.4,0.466666666667,0.533333333333,0.6,0.666666666667,0.733333333333,
    0.8,0.866666666667,0.933333333333,1.),.UNSPECIFIED.);
#131 = CARTESIAN_POINT('',(0.,30.,-275.0000040978));
#132 = CARTESIAN_POINT('',(-0.533792344826,30.,-274.9390807679));
#133 = CARTESIAN_POINT('',(-1.582693713199,30.,-274.8581485517));
#134 = CARTESIAN_POINT('',(-3.099993570945,30.,-274.8594972369));
#135 = CARTESIAN_POINT('',(-5.01015982097,30.,-275.1085423406));
#136 = CARTESIAN_POINT('',(-7.209328007569,30.,-275.8386586801));
#137 = CARTESIAN_POINT('',(-9.227927095214,30.,-276.9882030913));
#138 = CARTESIAN_POINT('',(-11.08841289459,30.,-278.544102731));
#139 = CARTESIAN_POINT('',(-12.83800567854,30.,-280.4662660709));
#140 = CARTESIAN_POINT('',(-14.52527482622,30.,-282.6722546225));
#141 = CARTESIAN_POINT('',(-16.19908681694,30.,-285.0601057166));
#142 = CARTESIAN_POINT('',(-17.90417694627,30.,-287.5215481478));
#143 = CARTESIAN_POINT('',(-19.67838634528,30.,-289.9568351098));
#144 = CARTESIAN_POINT('',(-21.54797730486,30.,-292.2914856886));
#145 = CARTESIAN_POINT('',(-23.52663905805,30.,-294.4828478473));
#146 = CARTESIAN_POINT('',(-25.62013992564,30.,-296.5088797767));
#147 = CARTESIAN_POINT('',(-27.38732847494,30.,-297.9914919831));
#148 = CARTESIAN_POINT('',(-28.76401465525,30.,-299.025742779));
#149 = CARTESIAN_POINT('',(-29.70443638854,30.,-299.6809614611));
#150 = CARTESIAN_POINT('',(-30.18030511802,30.,-300.));
#151 = PCURVE('',#32,#152);
#152 = DEFINITIONAL_REPRESENTATION('',(#153),#174);
#153 = B_SPLINE_CURVE_WITH_KNOTS('',5,(#154,#155,#156,#157,#158,#159,
    #160,#161,#162,#163,#164,#165,#166,#167,#168,#169,#170,#171,#172,
    #173),.UNSPECIFIED.,.F.,.F.,(6,1,1,1,1,1,1,1,1,1,1,1,1,1,1,6),(0.,
    6.666666666667E-02,0.133333333333,0.2,0.266666666667,0.333333333333,
    0.4,0.466666666667,0.533333333333,0.6,0.666666666667,0.733333333333,
    0.8,0.866666666667,0.933333333333,1.),.UNSPECIFIED.);
#154 = CARTESIAN_POINT('',(-125.0000040978,50.));
#155 = CARTESIAN_POINT('',(-124.9390807679,49.466207655174));
#156 = CARTESIAN_POINT('',(-124.8581485517,48.417306286801));
#157 = CARTESIAN_POINT('',(-124.8594972369,46.900006429055));
#158 = CARTESIAN_POINT('',(-125.1085423406,44.98984017903));
#159 = CARTESIAN_POINT('',(-125.8386586801,42.790671992431));
#160 = CARTESIAN_POINT('',(-126.9882030913,40.772072904786));
#161 = CARTESIAN_POINT('',(-128.544102731,38.91158710541));
#162 = CARTESIAN_POINT('',(-130.4662660709,37.16199432146));
#163 = CARTESIAN_POINT('',(-132.6722546225,35.47472517378));
#164 = CARTESIAN_POINT('',(-135.0601057166,33.80091318306));
#165 = CARTESIAN_POINT('',(-137.5215481478,32.09582305373));
#166 = CARTESIAN_POINT('',(-139.9568351098,30.32161365472));
#167 = CARTESIAN_POINT('',(-142.2914856886,28.45202269514));
#168 = CARTESIAN_POINT('',(-144.4828478473,26.47336094195));
#169 = CARTESIAN_POINT('',(-146.5088797767,24.37986007436));
#170 = CARTESIAN_POINT('',(-147.9914919831,22.61267152506));
#171 = CARTESIAN_POINT('',(-149.025742779,21.23598534475));
#172 = CARTESIAN_POINT('',(-149.6809614611,20.29556361146));
#173 = CARTESIAN_POINT('',(-150.,19.81969488198));
#174 = ( GEOMETRIC_REPRESENTATION_CONTEXT(2) 
PARAMETRIC_REPRESENTATION_CONTEXT() REPRESENTATION_CONTEXT('2D SPACE',''
  ) );
#175 = ORIENTED_EDGE('',*,*,#176,.T.);
#176 = EDGE_CURVE('',#127,#177,#179,.T.);
#177 = VERTEX_POINT('',#178);
#178 = CARTESIAN_POINT('',(-100.,30.,-300.));
#179 = SURFACE_CURVE('',#180,(#184),.PCURVE_S1.);
#180 = LINE('',#181,#182);
#181 = CARTESIAN_POINT('',(-100.,30.,-300.));
#182 = VECTOR('',#183,1.);
#183 = DIRECTION('',(-1.,0.,0.));
#184 = PCURVE('',#32,#185);
#185 = DEFINITIONAL_REPRESENTATION('',(#186),#190);
#186 = LINE('',#187,#188);
#187 = CARTESIAN_POINT('',(-150.,-50.));
#188 = VECTOR('',#189,1.);
#189 = DIRECTION('',(0.,-1.));
#190 = ( GEOMETRIC_REPRESENTATION_CONTEXT(2) 
PARAMETRIC_REPRESENTATION_CONTEXT() REPRESENTATION_CONTEXT('2D SPACE',''
  ) );
#191 = ORIENTED_EDGE('',*,*,#192,.T.);
#192 = EDGE_CURVE('',#177,#193,#195,.T.);
#193 = VERTEX_POINT('',#194);
#194 = CARTESIAN_POINT('',(-100.,30.,-194.));
#195 = SURFACE_CURVE('',#196,(#200),.PCURVE_S1.);
#196 = LINE('',#197,#198);
#197 = CARTESIAN_POINT('',(-100.,30.,0.));
#198 = VECTOR('',#199,1.);
#199 = DIRECTION('',(0.,0.,1.));
#200 = PCURVE('',#32,#201);
#201 = DEFINITIONAL_REPRESENTATION('',(#202),#206);
#202 = LINE('',#203,#204);
#203 = CARTESIAN_POINT('',(150.,-50.));
#204 = VECTOR('',#205,1.);
#205 = DIRECTION('',(1.,0.));
#206 = ( GEOMETRIC_REPRESENTATION_CONTEXT(2) 
PARAMETRIC_REPRESENTATION_CONTEXT() REPRESENTATION_CONTEXT('2D SPACE',''
  ) );
#207 = ORIENTED_EDGE('',*,*,#208,.T.);
#208 = EDGE_CURVE('',#193,#209,#211,.T.);
#209 = VERTEX_POINT('',#210);
#210 = CARTESIAN_POINT('',(-2.234078735489E-31,30.,-194.));
#211 = SURFACE_CURVE('',#212,(#216),.PCURVE_S1.);
#212 = LINE('',#213,#214);
#213 = CARTESIAN_POINT('',(-75.,30.,-194.));
#214 = VECTOR('',#215,1.);
#215 = DIRECTION('',(1.,0.,0.));
#216 = PCURVE('',#32,#217);
#217 = DEFINITIONAL_REPRESENTATION('',(#218),#222);
#218 = LINE('',#219,#220);
#219 = CARTESIAN_POINT('',(-44.,-25.));
#220 = VECTOR('',#221,1.);
#221 = DIRECTION('',(0.,1.));
#222 = ( GEOMETRIC_REPRESENTATION_CONTEXT(2) 
PARAMETRIC_REPRESENTATION_CONTEXT() REPRESENTATION_CONTEXT('2D SPACE',''
  ) );
#223 = ORIENTED_EDGE('',*,*,#224,.T.);
#224 = EDGE_CURVE('',#209,#125,#225,.T.);
#225 = SURFACE_CURVE('',#226,(#230),.PCURVE_S1.);
#226 = LINE('',#227,#228);
#227 = CARTESIAN_POINT('',(0.,30.,-300.));
#228 = VECTOR('',#229,1.);
#229 = DIRECTION('',(0.,0.,-1.));
#230 = PCURVE('',#32,#231);
#231 = DEFINITIONAL_REPRESENTATION('',(#232),#236);
#232 = LINE('',#233,#234);
#233 = CARTESIAN_POINT('',(-150.,50.));
#234 = VECTOR('',#235,1.);
#235 = DIRECTION('',(-1.,0.));
#236 = ( GEOMETRIC_REPRESENTATION_CONTEXT(2) 
PARAMETRIC_REPRESENTATION_CONTEXT() REPRESENTATION_CONTEXT('2D SPACE',''
  ) );
#237 = FACE_BOUND('',#238,.T.);
#238 = EDGE_LOOP('',(#239));
#239 = ORIENTED_EDGE('',*,*,#240,.T.);
#240 = EDGE_CURVE('',#241,#241,#243,.T.);
#241 = VERTEX_POINT('',#242);
#242 = CARTESIAN_POINT('',(-65.,30.,-280.));
#243 = SURFACE_CURVE('',#244,(#249,#260),.PCURVE_S1.);
#244 = CIRCLE('',#245,15.);
#245 = AXIS2_PLACEMENT_3D('',#246,#247,#248);
#246 = CARTESIAN_POINT('',(-80.,30.,-280.));
#247 = DIRECTION('',(0.,-1.,0.));
#248 = DIRECTION('',(-1.,0.,0.));
#249 = PCURVE('',#32,#250);
#250 = DEFINITIONAL_REPRESENTATION('',(#251),#259);
#251 = ( BOUNDED_CURVE() B_SPLINE_CURVE(2,(#252,#253,#254,#255,#256,#257
,#258),.UNSPECIFIED.,.T.,.F.) B_SPLINE_CURVE_WITH_KNOTS((1,2,2,2,2,1),(
    -2.094395102393,0.,2.094395102393,4.188790204786,6.28318530718,
8.377580409573),.UNSPECIFIED.) CURVE() GEOMETRIC_REPRESENTATION_ITEM() 
RATIONAL_B_SPLINE_CURVE((1.,0.5,1.,0.5,1.,0.5,1.)) REPRESENTATION_ITEM(
  '') );
#252 = CARTESIAN_POINT('',(-130.,-45.));
#253 = CARTESIAN_POINT('',(-155.9807621135,-45.));
#254 = CARTESIAN_POINT('',(-142.9903810567,-22.5));
#255 = CARTESIAN_POINT('',(-130.,-7.105427357601E-15));
#256 = CARTESIAN_POINT('',(-117.0096189432,-22.5));
#257 = CARTESIAN_POINT('',(-104.0192378864,-45.));
#258 = CARTESIAN_POINT('',(-130.,-45.));
#259 = ( GEOMETRIC_REPRESENTATION_CONTEXT(2) 
PARAMETRIC_REPRESENTATION_CONTEXT() REPRESENTATION_CONTEXT('2D SPACE',''
  ) );
#260 = PCURVE('',#261,#266);
#261 = CYLINDRICAL_SURFACE('',#262,15.);
#262 = AXIS2_PLACEMENT_3D('',#263,#264,#265);
#263 = CARTESIAN_POINT('',(-80.,30.,-280.));
#264 = DIRECTION('',(0.,1.,0.));
#265 = DIRECTION('',(-1.,0.,0.));
#266 = DEFINITIONAL_REPRESENTATION('',(#267),#271);
#267 = LINE('',#268,#269);
#268 = CARTESIAN_POINT('',(12.56637061436,0.));
#269 = VECTOR('',#270,1.);
#270 = DIRECTION('',(-1.,0.));
#271 = ( GEOMETRIC_REPRESENTATION_CONTEXT(2) 
PARAMETRIC_REPRESENTATION_CONTEXT() REPRESENTATION_CONTEXT('2D SPACE',''
  ) );
#272 = FACE_BOUND('',#273,.T.);
#273 = EDGE_LOOP('',(#274,#309));
#274 = ORIENTED_EDGE('',*,*,#275,.T.);
#275 = EDGE_CURVE('',#276,#278,#280,.T.);
#276 = VERTEX_POINT('',#277);
#277 = CARTESIAN_POINT('',(-80.51444771342,30.,-229.9911755226));
#278 = VERTEX_POINT('',#279);
#279 = CARTESIAN_POINT('',(-65.37543798773,30.,-211.6650058546));
#280 = SURFACE_CURVE('',#281,(#286,#297),.PCURVE_S1.);
#281 = CIRCLE('',#282,15.);
#282 = AXIS2_PLACEMENT_3D('',#283,#284,#285);
#283 = CARTESIAN_POINT('',(-80.,30.,-215.));
#284 = DIRECTION('',(0.,-1.,0.));
#285 = DIRECTION('',(-1.,0.,0.));
#286 = PCURVE('',#32,#287);
#287 = DEFINITIONAL_REPRESENTATION('',(#288),#296);
#288 = ( BOUNDED_CURVE() B_SPLINE_CURVE(2,(#289,#290,#291,#292,#293,#294
,#295),.UNSPECIFIED.,.T.,.F.) B_SPLINE_CURVE_WITH_KNOTS((1,2,2,2,2,1),(
    -2.094395102393,0.,2.094395102393,4.188790204786,6.28318530718,
8.377580409573),.UNSPECIFIED.) CURVE() GEOMETRIC_REPRESENTATION_ITEM() 
RATIONAL_B_SPLINE_CURVE((1.,0.5,1.,0.5,1.,0.5,1.)) REPRESENTATION_ITEM(
  '') );
#289 = CARTESIAN_POINT('',(-65.,-45.));
#290 = CARTESIAN_POINT('',(-90.98076211353,-45.));
#291 = CARTESIAN_POINT('',(-77.99038105676,-22.5));
#292 = CARTESIAN_POINT('',(-65.,-7.105427357601E-15));
#293 = CARTESIAN_POINT('',(-52.00961894323,-22.5));
#294 = CARTESIAN_POINT('',(-39.01923788646,-45.));
#295 = CARTESIAN_POINT('',(-65.,-45.));
#296 = ( GEOMETRIC_REPRESENTATION_CONTEXT(2) 
PARAMETRIC_REPRESENTATION_CONTEXT() REPRESENTATION_CONTEXT('2D SPACE',''
  ) );
#297 = PCURVE('',#298,#303);
#298 = CYLINDRICAL_SURFACE('',#299,15.);
#299 = AXIS2_PLACEMENT_3D('',#300,#301,#302);
#300 = CARTESIAN_POINT('',(-80.,30.,-215.));
#301 = DIRECTION('',(0.,1.,0.));
#302 = DIRECTION('',(0.770961751627,0.,-0.636881446996));
#303 = DEFINITIONAL_REPRESENTATION('',(#304),#308);
#304 = LINE('',#305,#306);
#305 = CARTESIAN_POINT('',(8.734331503715,9.947598300641E-14));
#306 = VECTOR('',#307,1.);
#307 = DIRECTION('',(-1.,0.));
#308 = ( GEOMETRIC_REPRESENTATION_CONTEXT(2) 
PARAMETRIC_REPRESENTATION_CONTEXT() REPRESENTATION_CONTEXT('2D SPACE',''
  ) );
#309 = ORIENTED_EDGE('',*,*,#310,.T.);
#310 = EDGE_CURVE('',#278,#276,#311,.T.);
#311 = SURFACE_CURVE('',#312,(#317,#328),.PCURVE_S1.);
#312 = CIRCLE('',#313,15.);
#313 = AXIS2_PLACEMENT_3D('',#314,#315,#316);
#314 = CARTESIAN_POINT('',(-80.,30.,-215.));
#315 = DIRECTION('',(0.,-1.,0.));
#316 = DIRECTION('',(-1.,0.,0.));
#317 = PCURVE('',#32,#318);
#318 = DEFINITIONAL_REPRESENTATION('',(#319),#327);
#319 = ( BOUNDED_CURVE() B_SPLINE_CURVE(2,(#320,#321,#322,#323,#324,#325
,#326),.UNSPECIFIED.,.T.,.F.) B_SPLINE_CURVE_WITH_KNOTS((1,2,2,2,2,1),(
    -2.094395102393,0.,2.094395102393,4.188790204786,6.28318530718,
8.377580409573),.UNSPECIFIED.) CURVE() GEOMETRIC_REPRESENTATION_ITEM() 
RATIONAL_B_SPLINE_CURVE((1.,0.5,1.,0.5,1.,0.5,1.)) REPRESENTATION_ITEM(
  '') );
#320 = CARTESIAN_POINT('',(-65.,-45.));
#321 = CARTESIAN_POINT('',(-90.98076211353,-45.));
#322 = CARTESIAN_POINT('',(-77.99038105676,-22.5));
#323 = CARTESIAN_POINT('',(-65.,-7.105427357601E-15));
#324 = CARTESIAN_POINT('',(-52.00961894323,-22.5));
#325 = CARTESIAN_POINT('',(-39.01923788646,-45.));
#326 = CARTESIAN_POINT('',(-65.,-45.));
#327 = ( GEOMETRIC_REPRESENTATION_CONTEXT(2) 
PARAMETRIC_REPRESENTATION_CONTEXT() REPRESENTATION_CONTEXT('2D SPACE',''
  ) );
#328 = PCURVE('',#329,#334);
#329 = CYLINDRICAL_SURFACE('',#330,15.);
#330 = AXIS2_PLACEMENT_3D('',#331,#332,#333);
#331 = CARTESIAN_POINT('',(-80.,30.,-215.));
#332 = DIRECTION('',(0.,1.,0.));
#333 = DIRECTION('',(-1.,0.,0.));
#334 = DEFINITIONAL_REPRESENTATION('',(#335),#339);
#335 = LINE('',#336,#337);
#336 = CARTESIAN_POINT('',(6.28318530718,9.947598300641E-14));
#337 = VECTOR('',#338,1.);
#338 = DIRECTION('',(-1.,0.));
#339 = ( GEOMETRIC_REPRESENTATION_CONTEXT(2) 
PARAMETRIC_REPRESENTATION_CONTEXT() REPRESENTATION_CONTEXT('2D SPACE',''
  ) );
#340 = FACE_BOUND('',#341,.T.);
#341 = EDGE_LOOP('',(#342,#460,#572));
#342 = ORIENTED_EDGE('',*,*,#343,.T.);
#343 = EDGE_CURVE('',#344,#346,#348,.T.);
#344 = VERTEX_POINT('',#345);
#345 = CARTESIAN_POINT('',(-55.,30.,-210.));
#346 = VERTEX_POINT('',#347);
#347 = CARTESIAN_POINT('',(-80.66915618304,30.,-235.6983775721));
#348 = SURFACE_CURVE('',#349,(#364,#382),.PCURVE_S1.);
#349 = B_SPLINE_CURVE_WITH_KNOTS('',5,(#350,#351,#352,#353,#354,#355,
    #356,#357,#358,#359,#360,#361,#362,#363),.UNSPECIFIED.,.F.,.F.,(6,1,
    1,1,1,1,1,1,1,6),(0.,3.333333333333E-02,6.666666666667E-02,0.1,
    0.133333333333,0.166666666667,0.2,0.233333333333,0.266666666667,
    0.299055145432),.UNSPECIFIED.);
#350 = CARTESIAN_POINT('',(-55.,30.,-210.));
#351 = CARTESIAN_POINT('',(-55.28728677545,30.,-210.3431499895));
#352 = CARTESIAN_POINT('',(-55.78906874864,30.,-211.1599100216));
#353 = CARTESIAN_POINT('',(-56.31330097992,30.,-212.7587327208));
#354 = CARTESIAN_POINT('',(-56.6528447938,30.,-215.5034108608));
#355 = CARTESIAN_POINT('',(-57.1328905459,30.,-219.4396773923));
#356 = CARTESIAN_POINT('',(-58.42998753629,30.,-223.3347012926));
#357 = CARTESIAN_POINT('',(-61.14804267564,30.,-226.7413682055));
#358 = CARTESIAN_POINT('',(-65.38476804484,30.,-229.4850760616));
#359 = CARTESIAN_POINT('',(-70.64579129218,30.,-231.6741089199));
#360 = CARTESIAN_POINT('',(-75.06770423939,30.,-233.2173266591));
#361 = CARTESIAN_POINT('',(-78.09360072438,30.,-234.4115786105));
#362 = CARTESIAN_POINT('',(-79.86517968705,30.,-235.261606709));
#363 = CARTESIAN_POINT('',(-80.66915618304,30.,-235.6983775721));
#364 = PCURVE('',#32,#365);
#365 = DEFINITIONAL_REPRESENTATION('',(#366),#381);
#366 = B_SPLINE_CURVE_WITH_KNOTS('',5,(#367,#368,#369,#370,#371,#372,
    #373,#374,#375,#376,#377,#378,#379,#380),.UNSPECIFIED.,.F.,.F.,(6,1,
    1,1,1,1,1,1,1,6),(0.,3.333333333333E-02,6.666666666667E-02,0.1,
    0.133333333333,0.166666666667,0.2,0.233333333333,0.266666666667,
    0.299055145432),.UNSPECIFIED.);
#367 = CARTESIAN_POINT('',(-60.,-5.));
#368 = CARTESIAN_POINT('',(-60.3431499895,-5.28728677545));
#369 = CARTESIAN_POINT('',(-61.1599100216,-5.78906874864));
#370 = CARTESIAN_POINT('',(-62.7587327208,-6.31330097992));
#371 = CARTESIAN_POINT('',(-65.5034108608,-6.6528447938));
#372 = CARTESIAN_POINT('',(-69.4396773923,-7.1328905459));
#373 = CARTESIAN_POINT('',(-73.3347012926,-8.42998753629));
#374 = CARTESIAN_POINT('',(-76.7413682055,-11.14804267564));
#375 = CARTESIAN_POINT('',(-79.4850760616,-15.38476804484));
#376 = CARTESIAN_POINT('',(-81.6741089199,-20.64579129218));
#377 = CARTESIAN_POINT('',(-83.2173266591,-25.06770423939));
#378 = CARTESIAN_POINT('',(-84.4115786105,-28.09360072438));
#379 = CARTESIAN_POINT('',(-85.261606709,-29.86517968705));
#380 = CARTESIAN_POINT('',(-85.6983775721,-30.66915618304));
#381 = ( GEOMETRIC_REPRESENTATION_CONTEXT(2) 
PARAMETRIC_REPRESENTATION_CONTEXT() REPRESENTATION_CONTEXT('2D SPACE',''
  ) );
#382 = PCURVE('',#383,#454);
#383 = B_SPLINE_SURFACE_WITH_KNOTS('',5,1,(
    (#384,#385)
    ,(#386,#387)
    ,(#388,#389)
    ,(#390,#391)
    ,(#392,#393)
    ,(#394,#395)
    ,(#396,#397)
    ,(#398,#399)
    ,(#400,#401)
    ,(#402,#403)
    ,(#404,#405)
    ,(#406,#407)
    ,(#408,#409)
    ,(#410,#411)
    ,(#412,#413)
    ,(#414,#415)
    ,(#416,#417)
    ,(#418,#419)
    ,(#420,#421)
    ,(#422,#423)
    ,(#424,#425)
    ,(#426,#427)
    ,(#428,#429)
    ,(#430,#431)
    ,(#432,#433)
    ,(#434,#435)
    ,(#436,#437)
    ,(#438,#439)
    ,(#440,#441)
    ,(#442,#443)
    ,(#444,#445)
    ,(#446,#447)
    ,(#448,#449)
    ,(#450,#451)
    ,(#452,#453
    )),.UNSPECIFIED.,.T.,.F.,.F.,(1,5,1,1,1,1,1,1,1,1,1,1,1,1,1,1,1,1,1,
    1,1,1,1,1,1,1,1,1,1,1,1,5,1),(2,2),(-1.033333333333,-1.,
    -0.966666666667,-0.933333333333,-0.9,-0.866666666667,-0.833333333333
    ,-0.8,-0.766666666667,-0.733333333333,-0.7,-0.666666666667,
    -0.633333333333,-0.6,-0.566666666667,-0.533333333333,-0.5,
    -0.466666666667,-0.433333333333,-0.4,-0.366666666667,-0.333333333333
    ,-0.3,-0.266666666667,-0.233333333333,-0.2,-0.166666666667,
    -0.133333333333,-0.1,-6.666666666667E-02,-3.333333333333E-02,0.,
    3.3333333333E-02),(0.,2.),.UNSPECIFIED.);
#384 = CARTESIAN_POINT('',(-55.,30.,-210.));
#385 = CARTESIAN_POINT('',(-55.,50.,-210.));
#386 = CARTESIAN_POINT('',(-54.71271322454,30.,-209.6568500104));
#387 = CARTESIAN_POINT('',(-54.71271322454,50.,-209.6568500104));
#388 = CARTESIAN_POINT('',(-54.06534809593,30.,-209.1010100845));
#389 = CARTESIAN_POINT('',(-54.06534809593,50.,-209.1010100845));
#390 = CARTESIAN_POINT('',(-52.88599166527,30.,-208.6763278629));
#391 = CARTESIAN_POINT('',(-52.88599166527,50.,-208.6763278629));
#392 = CARTESIAN_POINT('',(-51.07487587447,30.,-208.9353695395));
#393 = CARTESIAN_POINT('',(-51.07487587447,50.,-208.9353695395));
#394 = CARTESIAN_POINT('',(-49.13482507469,30.,-210.4761243872));
#395 = CARTESIAN_POINT('',(-49.13482507469,50.,-210.4761243872));
#396 = CARTESIAN_POINT('',(-48.0191693406,30.,-213.0692853567));
#397 = CARTESIAN_POINT('',(-48.0191693406,50.,-213.0692853567));
#398 = CARTESIAN_POINT('',(-47.79288011096,30.,-216.6195910888));
#399 = CARTESIAN_POINT('',(-47.79288011096,50.,-216.6195910888));
#400 = CARTESIAN_POINT('',(-48.29302997631,30.,-221.0360053923));
#401 = CARTESIAN_POINT('',(-48.29302997631,50.,-221.0360053923));
#402 = CARTESIAN_POINT('',(-49.23900419029,30.,-226.1975520742));
#403 = CARTESIAN_POINT('',(-49.23900419029,50.,-226.1975520742));
#404 = CARTESIAN_POINT('',(-50.37052973484,30.,-231.9113784363));
#405 = CARTESIAN_POINT('',(-50.37052973484,50.,-231.9113784363));
#406 = CARTESIAN_POINT('',(-51.59802284489,30.,-237.8614269946));
#407 = CARTESIAN_POINT('',(-51.59802284489,50.,-237.8614269946));
#408 = CARTESIAN_POINT('',(-53.06618147142,30.,-243.6008468537));
#409 = CARTESIAN_POINT('',(-53.06618147142,50.,-243.6008468537));
#410 = CARTESIAN_POINT('',(-55.02512420561,30.,-248.6390867486));
#411 = CARTESIAN_POINT('',(-55.02512420561,50.,-248.6390867486));
#412 = CARTESIAN_POINT('',(-57.74584784773,30.,-252.5069582569));
#413 = CARTESIAN_POINT('',(-57.74584784773,50.,-252.5069582569));
#414 = CARTESIAN_POINT('',(-61.41457389364,30.,-254.8332179325));
#415 = CARTESIAN_POINT('',(-61.41457389364,50.,-254.8332179325));
#416 = CARTESIAN_POINT('',(-66.04379810776,30.,-255.4111770257));
#417 = CARTESIAN_POINT('',(-66.04379810776,50.,-255.4111770257));
#418 = CARTESIAN_POINT('',(-71.3550204414,30.,-254.2851028945));
#419 = CARTESIAN_POINT('',(-71.3550204414,50.,-254.2851028945));
#420 = CARTESIAN_POINT('',(-76.733876766,30.,-251.7859027143));
#421 = CARTESIAN_POINT('',(-76.733876766,50.,-251.7859027143));
#422 = CARTESIAN_POINT('',(-81.41754453009,30.,-248.4026858922));
#423 = CARTESIAN_POINT('',(-81.41754453009,50.,-248.4026858922));
#424 = CARTESIAN_POINT('',(-84.63725245052,30.,-244.6862036344));
#425 = CARTESIAN_POINT('',(-84.63725245052,50.,-244.6862036344));
#426 = CARTESIAN_POINT('',(-85.78709640556,30.,-241.1352888451));
#427 = CARTESIAN_POINT('',(-85.78709640556,50.,-241.1352888451));
#428 = CARTESIAN_POINT('',(-84.56234104762,30.,-238.102805036));
#429 = CARTESIAN_POINT('',(-84.56234104762,50.,-238.102805036));
#430 = CARTESIAN_POINT('',(-81.16450066775,30.,-235.6614855171));
#431 = CARTESIAN_POINT('',(-81.16450066775,50.,-235.6614855171));
#432 = CARTESIAN_POINT('',(-76.24459537559,30.,-233.6275326477));
#433 = CARTESIAN_POINT('',(-76.24459537559,50.,-233.6275326477));
#434 = CARTESIAN_POINT('',(-70.67578675135,30.,-231.6865895806));
#435 = CARTESIAN_POINT('',(-70.67578675135,50.,-231.6865895806));
#436 = CARTESIAN_POINT('',(-65.38476804484,30.,-229.4850760616));
#437 = CARTESIAN_POINT('',(-65.38476804484,50.,-229.4850760616));
#438 = CARTESIAN_POINT('',(-61.14804267564,30.,-226.7413682055));
#439 = CARTESIAN_POINT('',(-61.14804267564,50.,-226.7413682055));
#440 = CARTESIAN_POINT('',(-58.42998753629,30.,-223.3347012926));
#441 = CARTESIAN_POINT('',(-58.42998753629,50.,-223.3347012926));
#442 = CARTESIAN_POINT('',(-57.1328905459,30.,-219.4396773923));
#443 = CARTESIAN_POINT('',(-57.1328905459,50.,-219.4396773923));
#444 = CARTESIAN_POINT('',(-56.6528447938,30.,-215.5034108608));
#445 = CARTESIAN_POINT('',(-56.6528447938,50.,-215.5034108608));
#446 = CARTESIAN_POINT('',(-56.31330097992,30.,-212.7587327208));
#447 = CARTESIAN_POINT('',(-56.31330097992,50.,-212.7587327208));
#448 = CARTESIAN_POINT('',(-55.78906874864,30.,-211.1599100216));
#449 = CARTESIAN_POINT('',(-55.78906874864,50.,-211.1599100216));
#450 = CARTESIAN_POINT('',(-55.28728677545,30.,-210.3431499895));
#451 = CARTESIAN_POINT('',(-55.28728677545,50.,-210.3431499895));
#452 = CARTESIAN_POINT('',(-55.,30.,-210.));
#453 = CARTESIAN_POINT('',(-55.,50.,-210.));
#454 = DEFINITIONAL_REPRESENTATION('',(#455),#459);
#455 = LINE('',#456,#457);
#456 = CARTESIAN_POINT('',(0.,7.047314121156E-17));
#457 = VECTOR('',#458,1.);
#458 = DIRECTION('',(-1.,0.));
#459 = ( GEOMETRIC_REPRESENTATION_CONTEXT(2) 
PARAMETRIC_REPRESENTATION_CONTEXT() REPRESENTATION_CONTEXT('2D SPACE',''
  ) );
#460 = ORIENTED_EDGE('',*,*,#461,.T.);
#461 = EDGE_CURVE('',#346,#462,#464,.T.);
#462 = VERTEX_POINT('',#463);
#463 = CARTESIAN_POINT('',(-71.73231151451,30.,-253.8184061903));
#464 = SURFACE_CURVE('',#465,(#478,#494),.PCURVE_S1.);
#465 = B_SPLINE_CURVE_WITH_KNOTS('',5,(#466,#467,#468,#469,#470,#471,
    #472,#473,#474,#475,#476,#477),.UNSPECIFIED.,.F.,.F.,(6,1,1,1,1,1,1,
    6),(0.299055145432,0.3,0.333333333333,0.366666666667,0.4,
    0.433333333333,0.466666666667,0.497720752843),.UNSPECIFIED.);
#466 = CARTESIAN_POINT('',(-80.66915618304,30.,-235.6983775721));
#467 = CARTESIAN_POINT('',(-80.69261022886,30.,-235.7111192926));
#468 = CARTESIAN_POINT('',(-81.54136204768,30.,-236.1739252356));
#469 = CARTESIAN_POINT('',(-83.06209751146,30.,-237.1265031966));
#470 = CARTESIAN_POINT('',(-84.80034882504,30.,-238.6921102608));
#471 = CARTESIAN_POINT('',(-85.78709640556,30.,-241.1352888451));
#472 = CARTESIAN_POINT('',(-84.63725245052,30.,-244.6862036344));
#473 = CARTESIAN_POINT('',(-81.46157559084,30.,-248.3518612024));
#474 = CARTESIAN_POINT('',(-77.79837092099,30.,-251.0166471934));
#475 = CARTESIAN_POINT('',(-74.76062825613,30.,-252.6291645856));
#476 = CARTESIAN_POINT('',(-72.71777662929,30.,-253.4700555752));
#477 = CARTESIAN_POINT('',(-71.73231151451,30.,-253.8184061903));
#478 = PCURVE('',#32,#479);
#479 = DEFINITIONAL_REPRESENTATION('',(#480),#493);
#480 = B_SPLINE_CURVE_WITH_KNOTS('',5,(#481,#482,#483,#484,#485,#486,
    #487,#488,#489,#490,#491,#492),.UNSPECIFIED.,.F.,.F.,(6,1,1,1,1,1,1,
    6),(0.299055145432,0.3,0.333333333333,0.366666666667,0.4,
    0.433333333333,0.466666666667,0.497720752843),.UNSPECIFIED.);
#481 = CARTESIAN_POINT('',(-85.6983775721,-30.66915618304));
#482 = CARTESIAN_POINT('',(-85.7111192926,-30.69261022886));
#483 = CARTESIAN_POINT('',(-86.1739252356,-31.54136204768));
#484 = CARTESIAN_POINT('',(-87.1265031966,-33.06209751146));
#485 = CARTESIAN_POINT('',(-88.6921102608,-34.80034882504));
#486 = CARTESIAN_POINT('',(-91.1352888451,-35.78709640556));
#487 = CARTESIAN_POINT('',(-94.6862036344,-34.63725245052));
#488 = CARTESIAN_POINT('',(-98.3518612024,-31.46157559084));
#489 = CARTESIAN_POINT('',(-101.0166471934,-27.79837092099));
#490 = CARTESIAN_POINT('',(-102.6291645856,-24.76062825613));
#491 = CARTESIAN_POINT('',(-103.4700555752,-22.71777662929));
#492 = CARTESIAN_POINT('',(-103.8184061903,-21.73231151451));
#493 = ( GEOMETRIC_REPRESENTATION_CONTEXT(2) 
PARAMETRIC_REPRESENTATION_CONTEXT() REPRESENTATION_CONTEXT('2D SPACE',''
  ) );
#494 = PCURVE('',#495,#566);
#495 = B_SPLINE_SURFACE_WITH_KNOTS('',5,1,(
    (#496,#497)
    ,(#498,#499)
    ,(#500,#501)
    ,(#502,#503)
    ,(#504,#505)
    ,(#506,#507)
    ,(#508,#509)
    ,(#510,#511)
    ,(#512,#513)
    ,(#514,#515)
    ,(#516,#517)
    ,(#518,#519)
    ,(#520,#521)
    ,(#522,#523)
    ,(#524,#525)
    ,(#526,#527)
    ,(#528,#529)
    ,(#530,#531)
    ,(#532,#533)
    ,(#534,#535)
    ,(#536,#537)
    ,(#538,#539)
    ,(#540,#541)
    ,(#542,#543)
    ,(#544,#545)
    ,(#546,#547)
    ,(#548,#549)
    ,(#550,#551)
    ,(#552,#553)
    ,(#554,#555)
    ,(#556,#557)
    ,(#558,#559)
    ,(#560,#561)
    ,(#562,#563)
    ,(#564,#565
    )),.UNSPECIFIED.,.T.,.F.,.F.,(1,5,1,1,1,1,1,1,1,1,1,1,1,1,1,1,1,1,1,
    1,1,1,1,1,1,1,1,1,1,1,1,5,1),(2,2),(-1.033333333333,-1.,
    -0.966666666667,-0.933333333333,-0.9,-0.866666666667,-0.833333333333
    ,-0.8,-0.766666666667,-0.733333333333,-0.7,-0.666666666667,
    -0.633333333333,-0.6,-0.566666666667,-0.533333333333,-0.5,
    -0.466666666667,-0.433333333333,-0.4,-0.366666666667,-0.333333333333
    ,-0.3,-0.266666666667,-0.233333333333,-0.2,-0.166666666667,
    -0.133333333333,-0.1,-6.666666666667E-02,-3.333333333333E-02,0.,
    3.3333333333E-02),(0.,2.),.UNSPECIFIED.);
#496 = CARTESIAN_POINT('',(-55.,30.,-210.));
#497 = CARTESIAN_POINT('',(-55.,50.,-210.));
#498 = CARTESIAN_POINT('',(-54.71271322454,30.,-209.6568500104));
#499 = CARTESIAN_POINT('',(-54.71271322454,50.,-209.6568500104));
#500 = CARTESIAN_POINT('',(-54.06534809593,30.,-209.1010100845));
#501 = CARTESIAN_POINT('',(-54.06534809593,50.,-209.1010100845));
#502 = CARTESIAN_POINT('',(-52.88599166527,30.,-208.6763278629));
#503 = CARTESIAN_POINT('',(-52.88599166527,50.,-208.6763278629));
#504 = CARTESIAN_POINT('',(-51.07487587447,30.,-208.9353695395));
#505 = CARTESIAN_POINT('',(-51.07487587447,50.,-208.9353695395));
#506 = CARTESIAN_POINT('',(-49.13482507469,30.,-210.4761243872));
#507 = CARTESIAN_POINT('',(-49.13482507469,50.,-210.4761243872));
#508 = CARTESIAN_POINT('',(-48.0191693406,30.,-213.0692853567));
#509 = CARTESIAN_POINT('',(-48.0191693406,50.,-213.0692853567));
#510 = CARTESIAN_POINT('',(-47.79288011096,30.,-216.6195910888));
#511 = CARTESIAN_POINT('',(-47.79288011096,50.,-216.6195910888));
#512 = CARTESIAN_POINT('',(-48.29302997631,30.,-221.0360053923));
#513 = CARTESIAN_POINT('',(-48.29302997631,50.,-221.0360053923));
#514 = CARTESIAN_POINT('',(-49.23900419029,30.,-226.1975520742));
#515 = CARTESIAN_POINT('',(-49.23900419029,50.,-226.1975520742));
#516 = CARTESIAN_POINT('',(-50.37052973484,30.,-231.9113784363));
#517 = CARTESIAN_POINT('',(-50.37052973484,50.,-231.9113784363));
#518 = CARTESIAN_POINT('',(-51.59802284489,30.,-237.8614269946));
#519 = CARTESIAN_POINT('',(-51.59802284489,50.,-237.8614269946));
#520 = CARTESIAN_POINT('',(-53.06618147142,30.,-243.6008468537));
#521 = CARTESIAN_POINT('',(-53.06618147142,50.,-243.6008468537));
#522 = CARTESIAN_POINT('',(-55.02512420561,30.,-248.6390867486));
#523 = CARTESIAN_POINT('',(-55.02512420561,50.,-248.6390867486));
#524 = CARTESIAN_POINT('',(-57.74584784773,30.,-252.5069582569));
#525 = CARTESIAN_POINT('',(-57.74584784773,50.,-252.5069582569));
#526 = CARTESIAN_POINT('',(-61.41457389364,30.,-254.8332179325));
#527 = CARTESIAN_POINT('',(-61.41457389364,50.,-254.8332179325));
#528 = CARTESIAN_POINT('',(-66.04379810776,30.,-255.4111770257));
#529 = CARTESIAN_POINT('',(-66.04379810776,50.,-255.4111770257));
#530 = CARTESIAN_POINT('',(-71.3550204414,30.,-254.2851028945));
#531 = CARTESIAN_POINT('',(-71.3550204414,50.,-254.2851028945));
#532 = CARTESIAN_POINT('',(-76.733876766,30.,-251.7859027143));
#533 = CARTESIAN_POINT('',(-76.733876766,50.,-251.7859027143));
#534 = CARTESIAN_POINT('',(-81.41754453009,30.,-248.4026858922));
#535 = CARTESIAN_POINT('',(-81.41754453009,50.,-248.4026858922));
#536 = CARTESIAN_POINT('',(-84.63725245052,30.,-244.6862036344));
#537 = CARTESIAN_POINT('',(-84.63725245052,50.,-244.6862036344));
#538 = CARTESIAN_POINT('',(-85.78709640556,30.,-241.1352888451));
#539 = CARTESIAN_POINT('',(-85.78709640556,50.,-241.1352888451));
#540 = CARTESIAN_POINT('',(-84.56234104762,30.,-238.102805036));
#541 = CARTESIAN_POINT('',(-84.56234104762,50.,-238.102805036));
#542 = CARTESIAN_POINT('',(-81.16450066775,30.,-235.6614855171));
#543 = CARTESIAN_POINT('',(-81.16450066775,50.,-235.6614855171));
#544 = CARTESIAN_POINT('',(-76.24459537559,30.,-233.6275326477));
#545 = CARTESIAN_POINT('',(-76.24459537559,50.,-233.6275326477));
#546 = CARTESIAN_POINT('',(-70.67578675135,30.,-231.6865895806));
#547 = CARTESIAN_POINT('',(-70.67578675135,50.,-231.6865895806));
#548 = CARTESIAN_POINT('',(-65.38476804484,30.,-229.4850760616));
#549 = CARTESIAN_POINT('',(-65.38476804484,50.,-229.4850760616));
#550 = CARTESIAN_POINT('',(-61.14804267564,30.,-226.7413682055));
#551 = CARTESIAN_POINT('',(-61.14804267564,50.,-226.7413682055));
#552 = CARTESIAN_POINT('',(-58.42998753629,30.,-223.3347012926));
#553 = CARTESIAN_POINT('',(-58.42998753629,50.,-223.3347012926));
#554 = CARTESIAN_POINT('',(-57.1328905459,30.,-219.4396773923));
#555 = CARTESIAN_POINT('',(-57.1328905459,50.,-219.4396773923));
#556 = CARTESIAN_POINT('',(-56.6528447938,30.,-215.5034108608));
#557 = CARTESIAN_POINT('',(-56.6528447938,50.,-215.5034108608));
#558 = CARTESIAN_POINT('',(-56.31330097992,30.,-212.7587327208));
#559 = CARTESIAN_POINT('',(-56.31330097992,50.,-212.7587327208));
#560 = CARTESIAN_POINT('',(-55.78906874864,30.,-211.1599100216));
#561 = CARTESIAN_POINT('',(-55.78906874864,50.,-211.1599100216));
#562 = CARTESIAN_POINT('',(-55.28728677545,30.,-210.3431499895));
#563 = CARTESIAN_POINT('',(-55.28728677545,50.,-210.3431499895));
#564 = CARTESIAN_POINT('',(-55.,30.,-210.));
#565 = CARTESIAN_POINT('',(-55.,50.,-210.));
#566 = DEFINITIONAL_REPRESENTATION('',(#567),#571);
#567 = LINE('',#568,#569);
#568 = CARTESIAN_POINT('',(0.,7.091114851962E-17));
#569 = VECTOR('',#570,1.);
#570 = DIRECTION('',(-1.,-1.464637257555E-18));
#571 = ( GEOMETRIC_REPRESENTATION_CONTEXT(2) 
PARAMETRIC_REPRESENTATION_CONTEXT() REPRESENTATION_CONTEXT('2D SPACE',''
  ) );
#572 = ORIENTED_EDGE('',*,*,#573,.T.);
#573 = EDGE_CURVE('',#462,#344,#574,.T.);
#574 = SURFACE_CURVE('',#575,(#597,#622),.PCURVE_S1.);
#575 = B_SPLINE_CURVE_WITH_KNOTS('',5,(#576,#577,#578,#579,#580,#581,
    #582,#583,#584,#585,#586,#587,#588,#589,#590,#591,#592,#593,#594,
    #595,#596),.UNSPECIFIED.,.F.,.F.,(6,1,1,1,1,1,1,1,1,1,1,1,1,1,1,1,6)
  ,(0.497720752843,0.5,0.533333333333,0.566666666667,0.6,0.633333333333,
    0.666666666667,0.7,0.733333333333,0.766666666667,0.8,0.833333333333,
    0.866666666667,0.9,0.933333333333,0.966666666667,1.),.UNSPECIFIED.);
#576 = CARTESIAN_POINT('',(-71.73231151451,30.,-253.8184061903));
#577 = CARTESIAN_POINT('',(-71.65998227098,30.,-253.8439737483));
#578 = CARTESIAN_POINT('',(-70.52984211253,30.,-254.2386439828));
#579 = CARTESIAN_POINT('',(-68.34315011435,30.,-254.8559998776));
#580 = CARTESIAN_POINT('',(-65.18126014172,30.,-255.3034890768));
#581 = CARTESIAN_POINT('',(-61.41457389364,30.,-254.8332179325));
#582 = CARTESIAN_POINT('',(-57.74584784773,30.,-252.5069582569));
#583 = CARTESIAN_POINT('',(-55.02512420561,30.,-248.6390867486));
#584 = CARTESIAN_POINT('',(-53.06618147142,30.,-243.6008468537));
#585 = CARTESIAN_POINT('',(-51.59802284489,30.,-237.8614269946));
#586 = CARTESIAN_POINT('',(-50.37052973484,30.,-231.9113784363));
#587 = CARTESIAN_POINT('',(-49.23900419029,30.,-226.1975520742));
#588 = CARTESIAN_POINT('',(-48.29302997631,30.,-221.0360053923));
#589 = CARTESIAN_POINT('',(-47.79288011096,30.,-216.6195910888));
#590 = CARTESIAN_POINT('',(-48.0191693406,30.,-213.0692853567));
#591 = CARTESIAN_POINT('',(-49.13482507469,30.,-210.4761243872));
#592 = CARTESIAN_POINT('',(-51.07487587447,30.,-208.9353695395));
#593 = CARTESIAN_POINT('',(-52.88599166527,30.,-208.6763278629));
#594 = CARTESIAN_POINT('',(-54.06534809593,30.,-209.1010100845));
#595 = CARTESIAN_POINT('',(-54.71271322454,30.,-209.6568500104));
#596 = CARTESIAN_POINT('',(-55.,30.,-210.));
#597 = PCURVE('',#32,#598);
#598 = DEFINITIONAL_REPRESENTATION('',(#599),#621);
#599 = B_SPLINE_CURVE_WITH_KNOTS('',5,(#600,#601,#602,#603,#604,#605,
    #606,#607,#608,#609,#610,#611,#612,#613,#614,#615,#616,#617,#618,
    #619,#620),.UNSPECIFIED.,.F.,.F.,(6,1,1,1,1,1,1,1,1,1,1,1,1,1,1,1,6)
  ,(0.497720752843,0.5,0.533333333333,0.566666666667,0.6,0.633333333333,
    0.666666666667,0.7,0.733333333333,0.766666666667,0.8,0.833333333333,
    0.866666666667,0.9,0.933333333333,0.966666666667,1.),.UNSPECIFIED.);
#600 = CARTESIAN_POINT('',(-103.8184061903,-21.73231151451));
#601 = CARTESIAN_POINT('',(-103.8439737483,-21.65998227098));
#602 = CARTESIAN_POINT('',(-104.2386439828,-20.52984211253));
#603 = CARTESIAN_POINT('',(-104.8559998776,-18.34315011435));
#604 = CARTESIAN_POINT('',(-105.3034890768,-15.18126014172));
#605 = CARTESIAN_POINT('',(-104.8332179325,-11.41457389364));
#606 = CARTESIAN_POINT('',(-102.5069582569,-7.74584784773));
#607 = CARTESIAN_POINT('',(-98.6390867486,-5.02512420561));
#608 = CARTESIAN_POINT('',(-93.6008468537,-3.06618147142));
#609 = CARTESIAN_POINT('',(-87.8614269946,-1.59802284489));
#610 = CARTESIAN_POINT('',(-81.9113784363,-0.37052973484));
#611 = CARTESIAN_POINT('',(-76.1975520742,0.76099580971));
#612 = CARTESIAN_POINT('',(-71.0360053923,1.70697002369));
#613 = CARTESIAN_POINT('',(-66.6195910888,2.20711988904));
#614 = CARTESIAN_POINT('',(-63.0692853567,1.9808306594));
#615 = CARTESIAN_POINT('',(-60.4761243872,0.86517492531));
#616 = CARTESIAN_POINT('',(-58.9353695395,-1.07487587447));
#617 = CARTESIAN_POINT('',(-58.6763278629,-2.88599166527));
#618 = CARTESIAN_POINT('',(-59.1010100845,-4.06534809593));
#619 = CARTESIAN_POINT('',(-59.6568500104,-4.71271322454));
#620 = CARTESIAN_POINT('',(-60.,-5.));
#621 = ( GEOMETRIC_REPRESENTATION_CONTEXT(2) 
PARAMETRIC_REPRESENTATION_CONTEXT() REPRESENTATION_CONTEXT('2D SPACE',''
  ) );
#622 = PCURVE('',#623,#694);
#623 = B_SPLINE_SURFACE_WITH_KNOTS('',5,1,(
    (#624,#625)
    ,(#626,#627)
    ,(#628,#629)
    ,(#630,#631)
    ,(#632,#633)
    ,(#634,#635)
    ,(#636,#637)
    ,(#638,#639)
    ,(#640,#641)
    ,(#642,#643)
    ,(#644,#645)
    ,(#646,#647)
    ,(#648,#649)
    ,(#650,#651)
    ,(#652,#653)
    ,(#654,#655)
    ,(#656,#657)
    ,(#658,#659)
    ,(#660,#661)
    ,(#662,#663)
    ,(#664,#665)
    ,(#666,#667)
    ,(#668,#669)
    ,(#670,#671)
    ,(#672,#673)
    ,(#674,#675)
    ,(#676,#677)
    ,(#678,#679)
    ,(#680,#681)
    ,(#682,#683)
    ,(#684,#685)
    ,(#686,#687)
    ,(#688,#689)
    ,(#690,#691)
    ,(#692,#693
    )),.UNSPECIFIED.,.T.,.F.,.F.,(1,5,1,1,1,1,1,1,1,1,1,1,1,1,1,1,1,1,1,
    1,1,1,1,1,1,1,1,1,1,1,1,5,1),(2,2),(-1.033333333333,-1.,
    -0.966666666667,-0.933333333333,-0.9,-0.866666666667,-0.833333333333
    ,-0.8,-0.766666666667,-0.733333333333,-0.7,-0.666666666667,
    -0.633333333333,-0.6,-0.566666666667,-0.533333333333,-0.5,
    -0.466666666667,-0.433333333333,-0.4,-0.366666666667,-0.333333333333
    ,-0.3,-0.266666666667,-0.233333333333,-0.2,-0.166666666667,
    -0.133333333333,-0.1,-6.666666666667E-02,-3.333333333333E-02,0.,
    3.3333333333E-02),(0.,2.),.UNSPECIFIED.);
#624 = CARTESIAN_POINT('',(-55.,30.,-210.));
#625 = CARTESIAN_POINT('',(-55.,50.,-210.));
#626 = CARTESIAN_POINT('',(-54.71271322454,30.,-209.6568500104));
#627 = CARTESIAN_POINT('',(-54.71271322454,50.,-209.6568500104));
#628 = CARTESIAN_POINT('',(-54.06534809593,30.,-209.1010100845));
#629 = CARTESIAN_POINT('',(-54.06534809593,50.,-209.1010100845));
#630 = CARTESIAN_POINT('',(-52.88599166527,30.,-208.6763278629));
#631 = CARTESIAN_POINT('',(-52.88599166527,50.,-208.6763278629));
#632 = CARTESIAN_POINT('',(-51.07487587447,30.,-208.9353695395));
#633 = CARTESIAN_POINT('',(-51.07487587447,50.,-208.9353695395));
#634 = CARTESIAN_POINT('',(-49.13482507469,30.,-210.4761243872));
#635 = CARTESIAN_POINT('',(-49.13482507469,50.,-210.4761243872));
#636 = CARTESIAN_POINT('',(-48.0191693406,30.,-213.0692853567));
#637 = CARTESIAN_POINT('',(-48.0191693406,50.,-213.0692853567));
#638 = CARTESIAN_POINT('',(-47.79288011096,30.,-216.6195910888));
#639 = CARTESIAN_POINT('',(-47.79288011096,50.,-216.6195910888));
#640 = CARTESIAN_POINT('',(-48.29302997631,30.,-221.0360053923));
#641 = CARTESIAN_POINT('',(-48.29302997631,50.,-221.0360053923));
#642 = CARTESIAN_POINT('',(-49.23900419029,30.,-226.1975520742));
#643 = CARTESIAN_POINT('',(-49.23900419029,50.,-226.1975520742));
#644 = CARTESIAN_POINT('',(-50.37052973484,30.,-231.9113784363));
#645 = CARTESIAN_POINT('',(-50.37052973484,50.,-231.9113784363));
#646 = CARTESIAN_POINT('',(-51.59802284489,30.,-237.8614269946));
#647 = CARTESIAN_POINT('',(-51.59802284489,50.,-237.8614269946));
#648 = CARTESIAN_POINT('',(-53.06618147142,30.,-243.6008468537));
#649 = CARTESIAN_POINT('',(-53.06618147142,50.,-243.6008468537));
#650 = CARTESIAN_POINT('',(-55.02512420561,30.,-248.6390867486));
#651 = CARTESIAN_POINT('',(-55.02512420561,50.,-248.6390867486));
#652 = CARTESIAN_POINT('',(-57.74584784773,30.,-252.5069582569));
#653 = CARTESIAN_POINT('',(-57.74584784773,50.,-252.5069582569));
#654 = CARTESIAN_POINT('',(-61.41457389364,30.,-254.8332179325));
#655 = CARTESIAN_POINT('',(-61.41457389364,50.,-254.8332179325));
#656 = CARTESIAN_POINT('',(-66.04379810776,30.,-255.4111770257));
#657 = CARTESIAN_POINT('',(-66.04379810776,50.,-255.4111770257));
#658 = CARTESIAN_POINT('',(-71.3550204414,30.,-254.2851028945));
#659 = CARTESIAN_POINT('',(-71.3550204414,50.,-254.2851028945));
#660 = CARTESIAN_POINT('',(-76.733876766,30.,-251.7859027143));
#661 = CARTESIAN_POINT('',(-76.733876766,50.,-251.7859027143));
#662 = CARTESIAN_POINT('',(-81.41754453009,30.,-248.4026858922));
#663 = CARTESIAN_POINT('',(-81.41754453009,50.,-248.4026858922));
#664 = CARTESIAN_POINT('',(-84.63725245052,30.,-244.6862036344));
#665 = CARTESIAN_POINT('',(-84.63725245052,50.,-244.6862036344));
#666 = CARTESIAN_POINT('',(-85.78709640556,30.,-241.1352888451));
#667 = CARTESIAN_POINT('',(-85.78709640556,50.,-241.1352888451));
#668 = CARTESIAN_POINT('',(-84.56234104762,30.,-238.102805036));
#669 = CARTESIAN_POINT('',(-84.56234104762,50.,-238.102805036));
#670 = CARTESIAN_POINT('',(-81.16450066775,30.,-235.6614855171));
#671 = CARTESIAN_POINT('',(-81.16450066775,50.,-235.6614855171));
#672 = CARTESIAN_POINT('',(-76.24459537559,30.,-233.6275326477));
#673 = CARTESIAN_POINT('',(-76.24459537559,50.,-233.6275326477));
#674 = CARTESIAN_POINT('',(-70.67578675135,30.,-231.6865895806));
#675 = CARTESIAN_POINT('',(-70.67578675135,50.,-231.6865895806));
#676 = CARTESIAN_POINT('',(-65.38476804484,30.,-229.4850760616));
#677 = CARTESIAN_POINT('',(-65.38476804484,50.,-229.4850760616));
#678 = CARTESIAN_POINT('',(-61.14804267564,30.,-226.7413682055));
#679 = CARTESIAN_POINT('',(-61.14804267564,50.,-226.7413682055));
#680 = CARTESIAN_POINT('',(-58.42998753629,30.,-223.3347012926));
#681 = CARTESIAN_POINT('',(-58.42998753629,50.,-223.3347012926));
#682 = CARTESIAN_POINT('',(-57.1328905459,30.,-219.4396773923));
#683 = CARTESIAN_POINT('',(-57.1328905459,50.,-219.4396773923));
#684 = CARTESIAN_POINT('',(-56.6528447938,30.,-215.5034108608));
#685 = CARTESIAN_POINT('',(-56.6528447938,50.,-215.5034108608));
#686 = CARTESIAN_POINT('',(-56.31330097992,30.,-212.7587327208));
#687 = CARTESIAN_POINT('',(-56.31330097992,50.,-212.7587327208));
#688 = CARTESIAN_POINT('',(-55.78906874864,30.,-211.1599100216));
#689 = CARTESIAN_POINT('',(-55.78906874864,50.,-211.1599100216));
#690 = CARTESIAN_POINT('',(-55.28728677545,30.,-210.3431499895));
#691 = CARTESIAN_POINT('',(-55.28728677545,50.,-210.3431499895));
#692 = CARTESIAN_POINT('',(-55.,30.,-210.));
#693 = CARTESIAN_POINT('',(-55.,50.,-210.));
#694 = DEFINITIONAL_REPRESENTATION('',(#695),#699);
#695 = LINE('',#696,#697);
#696 = CARTESIAN_POINT('',(2.811084698351E-13,-1.085828475744E-16));
#697 = VECTOR('',#698,1.);
#698 = DIRECTION('',(-1.,0.));
#699 = ( GEOMETRIC_REPRESENTATION_CONTEXT(2) 
PARAMETRIC_REPRESENTATION_CONTEXT() REPRESENTATION_CONTEXT('2D SPACE',''
  ) );
#700 = FACE_BOUND('',#701,.T.);
#701 = EDGE_LOOP('',(#702,#720,#741,#757,#778,#794,#815,#831));
#702 = ORIENTED_EDGE('',*,*,#703,.T.);
#703 = EDGE_CURVE('',#704,#706,#708,.T.);
#704 = VERTEX_POINT('',#705);
#705 = CARTESIAN_POINT('',(-10.00000014901,30.,-252.9999969452));
#706 = VERTEX_POINT('',#707);
#707 = CARTESIAN_POINT('',(-10.00000014901,30.,-237.9999969452));
#708 = SURFACE_CURVE('',#709,(#713),.PCURVE_S1.);
#709 = LINE('',#710,#711);
#710 = CARTESIAN_POINT('',(-10.00000014901,30.,-191.4999984726));
#711 = VECTOR('',#712,1.);
#712 = DIRECTION('',(0.,0.,1.));
#713 = PCURVE('',#32,#714);
#714 = DEFINITIONAL_REPRESENTATION('',(#715),#719);
#715 = LINE('',#716,#717);
#716 = CARTESIAN_POINT('',(-41.4999984726,39.99999985099));
#717 = VECTOR('',#718,1.);
#718 = DIRECTION('',(1.,0.));
#719 = ( GEOMETRIC_REPRESENTATION_CONTEXT(2) 
PARAMETRIC_REPRESENTATION_CONTEXT() REPRESENTATION_CONTEXT('2D SPACE',''
  ) );
#720 = ORIENTED_EDGE('',*,*,#721,.T.);
#721 = EDGE_CURVE('',#706,#722,#724,.T.);
#722 = VERTEX_POINT('',#723);
#723 = CARTESIAN_POINT('',(-15.00000014901,30.,-232.9999969452));
#724 = SURFACE_CURVE('',#725,(#730),.PCURVE_S1.);
#725 = CIRCLE('',#726,5.);
#726 = AXIS2_PLACEMENT_3D('',#727,#728,#729);
#727 = CARTESIAN_POINT('',(-15.00000014901,30.,-237.9999969452));
#728 = DIRECTION('',(0.,-1.,0.));
#729 = DIRECTION('',(0.707106781187,0.,0.707106781187));
#730 = PCURVE('',#32,#731);
#731 = DEFINITIONAL_REPRESENTATION('',(#732),#740);
#732 = ( BOUNDED_CURVE() B_SPLINE_CURVE(2,(#733,#734,#735,#736,#737,#738
,#739),.UNSPECIFIED.,.T.,.F.) B_SPLINE_CURVE_WITH_KNOTS((1,2,2,2,2,1),(
    -2.094395102393,0.,2.094395102393,4.188790204786,6.28318530718,
8.377580409573),.UNSPECIFIED.) CURVE() GEOMETRIC_REPRESENTATION_ITEM() 
RATIONAL_B_SPLINE_CURVE((1.,0.5,1.,0.5,1.,0.5,1.)) REPRESENTATION_ITEM(
  '') );
#733 = CARTESIAN_POINT('',(-84.46446303926,38.535533756923));
#734 = CARTESIAN_POINT('',(-78.3407386823,32.411809399965));
#735 = CARTESIAN_POINT('',(-86.70590171968,30.170370719545));
#736 = CARTESIAN_POINT('',(-95.07106475706,27.928932039125));
#737 = CARTESIAN_POINT('',(-92.82962607664,36.294095076503));
#738 = CARTESIAN_POINT('',(-90.58818739622,44.659258113881));
#739 = CARTESIAN_POINT('',(-84.46446303926,38.535533756923));
#740 = ( GEOMETRIC_REPRESENTATION_CONTEXT(2) 
PARAMETRIC_REPRESENTATION_CONTEXT() REPRESENTATION_CONTEXT('2D SPACE',''
  ) );
#741 = ORIENTED_EDGE('',*,*,#742,.T.);
#742 = EDGE_CURVE('',#722,#743,#745,.T.);
#743 = VERTEX_POINT('',#744);
#744 = CARTESIAN_POINT('',(-30.00000014901,30.,-232.9999969452));
#745 = SURFACE_CURVE('',#746,(#750),.PCURVE_S1.);
#746 = LINE('',#747,#748);
#747 = CARTESIAN_POINT('',(-42.5000000745,30.,-232.9999969452));
#748 = VECTOR('',#749,1.);
#749 = DIRECTION('',(-1.,0.,0.));
#750 = PCURVE('',#32,#751);
#751 = DEFINITIONAL_REPRESENTATION('',(#752),#756);
#752 = LINE('',#753,#754);
#753 = CARTESIAN_POINT('',(-82.9999969452,7.4999999255));
#754 = VECTOR('',#755,1.);
#755 = DIRECTION('',(0.,-1.));
#756 = ( GEOMETRIC_REPRESENTATION_CONTEXT(2) 
PARAMETRIC_REPRESENTATION_CONTEXT() REPRESENTATION_CONTEXT('2D SPACE',''
  ) );
#757 = ORIENTED_EDGE('',*,*,#758,.T.);
#758 = EDGE_CURVE('',#743,#759,#761,.T.);
#759 = VERTEX_POINT('',#760);
#760 = CARTESIAN_POINT('',(-35.00000014901,30.,-237.9999969452));
#761 = SURFACE_CURVE('',#762,(#767),.PCURVE_S1.);
#762 = CIRCLE('',#763,5.);
#763 = AXIS2_PLACEMENT_3D('',#764,#765,#766);
#764 = CARTESIAN_POINT('',(-30.00000014901,30.,-237.9999969452));
#765 = DIRECTION('',(0.,-1.,0.));
#766 = DIRECTION('',(-0.707106781187,0.,0.707106781187));
#767 = PCURVE('',#32,#768);
#768 = DEFINITIONAL_REPRESENTATION('',(#769),#777);
#769 = ( BOUNDED_CURVE() B_SPLINE_CURVE(2,(#770,#771,#772,#773,#774,#775
,#776),.UNSPECIFIED.,.T.,.F.) B_SPLINE_CURVE_WITH_KNOTS((1,2,2,2,2,1),(
    -2.094395102393,0.,2.094395102393,4.188790204786,6.28318530718,
8.377580409573),.UNSPECIFIED.) CURVE() GEOMETRIC_REPRESENTATION_ITEM() 
RATIONAL_B_SPLINE_CURVE((1.,0.5,1.,0.5,1.,0.5,1.)) REPRESENTATION_ITEM(
  '') );
#770 = CARTESIAN_POINT('',(-84.46446303926,16.464465945057));
#771 = CARTESIAN_POINT('',(-90.58818739622,10.340741588099));
#772 = CARTESIAN_POINT('',(-92.82962607664,18.705904625477));
#773 = CARTESIAN_POINT('',(-95.07106475706,27.071067662855));
#774 = CARTESIAN_POINT('',(-86.70590171968,24.829628982435));
#775 = CARTESIAN_POINT('',(-78.3407386823,22.588190302015));
#776 = CARTESIAN_POINT('',(-84.46446303926,16.464465945057));
#777 = ( GEOMETRIC_REPRESENTATION_CONTEXT(2) 
PARAMETRIC_REPRESENTATION_CONTEXT() REPRESENTATION_CONTEXT('2D SPACE',''
  ) );
#778 = ORIENTED_EDGE('',*,*,#779,.T.);
#779 = EDGE_CURVE('',#759,#780,#782,.T.);
#780 = VERTEX_POINT('',#781);
#781 = CARTESIAN_POINT('',(-35.00000014901,30.,-252.9999969452));
#782 = SURFACE_CURVE('',#783,(#787),.PCURVE_S1.);
#783 = LINE('',#784,#785);
#784 = CARTESIAN_POINT('',(-35.00000014901,30.,-203.9999984726));
#785 = VECTOR('',#786,1.);
#786 = DIRECTION('',(0.,0.,-1.));
#787 = PCURVE('',#32,#788);
#788 = DEFINITIONAL_REPRESENTATION('',(#789),#793);
#789 = LINE('',#790,#791);
#790 = CARTESIAN_POINT('',(-53.9999984726,14.99999985099));
#791 = VECTOR('',#792,1.);
#792 = DIRECTION('',(-1.,0.));
#793 = ( GEOMETRIC_REPRESENTATION_CONTEXT(2) 
PARAMETRIC_REPRESENTATION_CONTEXT() REPRESENTATION_CONTEXT('2D SPACE',''
  ) );
#794 = ORIENTED_EDGE('',*,*,#795,.T.);
#795 = EDGE_CURVE('',#780,#796,#798,.T.);
#796 = VERTEX_POINT('',#797);
#797 = CARTESIAN_POINT('',(-30.00000014901,30.,-257.9999969452));
#798 = SURFACE_CURVE('',#799,(#804),.PCURVE_S1.);
#799 = CIRCLE('',#800,5.);
#800 = AXIS2_PLACEMENT_3D('',#801,#802,#803);
#801 = CARTESIAN_POINT('',(-30.00000014901,30.,-252.9999969452));
#802 = DIRECTION('',(0.,-1.,0.));
#803 = DIRECTION('',(-0.707106781187,-0.,-0.707106781187));
#804 = PCURVE('',#32,#805);
#805 = DEFINITIONAL_REPRESENTATION('',(#806),#814);
#806 = ( BOUNDED_CURVE() B_SPLINE_CURVE(2,(#807,#808,#809,#810,#811,#812
,#813),.UNSPECIFIED.,.T.,.F.) B_SPLINE_CURVE_WITH_KNOTS((1,2,2,2,2,1),(
    -2.094395102393,0.,2.094395102393,4.188790204786,6.28318530718,
8.377580409573),.UNSPECIFIED.) CURVE() GEOMETRIC_REPRESENTATION_ITEM() 
RATIONAL_B_SPLINE_CURVE((1.,0.5,1.,0.5,1.,0.5,1.)) REPRESENTATION_ITEM(
  '') );
#807 = CARTESIAN_POINT('',(-106.5355308511,16.464465945057));
#808 = CARTESIAN_POINT('',(-112.659255208,22.588190302015));
#809 = CARTESIAN_POINT('',(-104.2940921707,24.829628982435));
#810 = CARTESIAN_POINT('',(-95.92892913333,27.071067662856));
#811 = CARTESIAN_POINT('',(-98.17036781375,18.705904625477));
#812 = CARTESIAN_POINT('',(-100.4118064941,10.340741588099));
#813 = CARTESIAN_POINT('',(-106.5355308511,16.464465945057));
#814 = ( GEOMETRIC_REPRESENTATION_CONTEXT(2) 
PARAMETRIC_REPRESENTATION_CONTEXT() REPRESENTATION_CONTEXT('2D SPACE',''
  ) );
#815 = ORIENTED_EDGE('',*,*,#816,.T.);
#816 = EDGE_CURVE('',#796,#817,#819,.T.);
#817 = VERTEX_POINT('',#818);
#818 = CARTESIAN_POINT('',(-15.00000014901,30.,-257.9999969452));
#819 = SURFACE_CURVE('',#820,(#824),.PCURVE_S1.);
#820 = LINE('',#821,#822);
#821 = CARTESIAN_POINT('',(-30.0000000745,30.,-257.9999969452));
#822 = VECTOR('',#823,1.);
#823 = DIRECTION('',(1.,0.,0.));
#824 = PCURVE('',#32,#825);
#825 = DEFINITIONAL_REPRESENTATION('',(#826),#830);
#826 = LINE('',#827,#828);
#827 = CARTESIAN_POINT('',(-107.9999969452,19.9999999255));
#828 = VECTOR('',#829,1.);
#829 = DIRECTION('',(0.,1.));
#830 = ( GEOMETRIC_REPRESENTATION_CONTEXT(2) 
PARAMETRIC_REPRESENTATION_CONTEXT() REPRESENTATION_CONTEXT('2D SPACE',''
  ) );
#831 = ORIENTED_EDGE('',*,*,#832,.T.);
#832 = EDGE_CURVE('',#817,#704,#833,.T.);
#833 = SURFACE_CURVE('',#834,(#839),.PCURVE_S1.);
#834 = CIRCLE('',#835,5.);
#835 = AXIS2_PLACEMENT_3D('',#836,#837,#838);
#836 = CARTESIAN_POINT('',(-15.00000014901,30.,-252.9999969452));
#837 = DIRECTION('',(0.,-1.,0.));
#838 = DIRECTION('',(0.707106781187,0.,-0.707106781187));
#839 = PCURVE('',#32,#840);
#840 = DEFINITIONAL_REPRESENTATION('',(#841),#849);
#841 = ( BOUNDED_CURVE() B_SPLINE_CURVE(2,(#842,#843,#844,#845,#846,#847
,#848),.UNSPECIFIED.,.T.,.F.) B_SPLINE_CURVE_WITH_KNOTS((1,2,2,2,2,1),(
    -2.094395102393,0.,2.094395102393,4.188790204786,6.28318530718,
8.377580409573),.UNSPECIFIED.) CURVE() GEOMETRIC_REPRESENTATION_ITEM() 
RATIONAL_B_SPLINE_CURVE((1.,0.5,1.,0.5,1.,0.5,1.)) REPRESENTATION_ITEM(
  '') );
#842 = CARTESIAN_POINT('',(-106.5355308511,38.535533756923));
#843 = CARTESIAN_POINT('',(-100.4118064941,44.659258113881));
#844 = CARTESIAN_POINT('',(-98.17036781375,36.294095076503));
#845 = CARTESIAN_POINT('',(-95.92892913333,27.928932039124));
#846 = CARTESIAN_POINT('',(-104.2940921707,30.170370719545));
#847 = CARTESIAN_POINT('',(-112.659255208,32.411809399965));
#848 = CARTESIAN_POINT('',(-106.5355308511,38.535533756923));
#849 = ( GEOMETRIC_REPRESENTATION_CONTEXT(2) 
PARAMETRIC_REPRESENTATION_CONTEXT() REPRESENTATION_CONTEXT('2D SPACE',''
  ) );
#850 = ADVANCED_FACE('',(#851),#261,.T.);
#851 = FACE_BOUND('',#852,.T.);
#852 = EDGE_LOOP('',(#853,#882,#903,#904));
#853 = ORIENTED_EDGE('',*,*,#854,.F.);
#854 = EDGE_CURVE('',#855,#855,#857,.T.);
#855 = VERTEX_POINT('',#856);
#856 = CARTESIAN_POINT('',(-65.,50.,-280.));
#857 = SURFACE_CURVE('',#858,(#863,#870),.PCURVE_S1.);
#858 = CIRCLE('',#859,15.);
#859 = AXIS2_PLACEMENT_3D('',#860,#861,#862);
#860 = CARTESIAN_POINT('',(-80.,50.,-280.));
#861 = DIRECTION('',(0.,1.,-0.));
#862 = DIRECTION('',(-1.,0.,0.));
#863 = PCURVE('',#261,#864);
#864 = DEFINITIONAL_REPRESENTATION('',(#865),#869);
#865 = LINE('',#866,#867);
#866 = CARTESIAN_POINT('',(-4.138911435803E-13,20.));
#867 = VECTOR('',#868,1.);
#868 = DIRECTION('',(1.,0.));
#869 = ( GEOMETRIC_REPRESENTATION_CONTEXT(2) 
PARAMETRIC_REPRESENTATION_CONTEXT() REPRESENTATION_CONTEXT('2D SPACE',''
  ) );
#870 = PCURVE('',#871,#876);
#871 = PLANE('',#872);
#872 = AXIS2_PLACEMENT_3D('',#873,#874,#875);
#873 = CARTESIAN_POINT('',(-80.,50.,-280.));
#874 = DIRECTION('',(0.,1.,0.));
#875 = DIRECTION('',(-1.,0.,0.));
#876 = DEFINITIONAL_REPRESENTATION('',(#877),#881);
#877 = CIRCLE('',#878,15.);
#878 = AXIS2_PLACEMENT_2D('',#879,#880);
#879 = CARTESIAN_POINT('',(0.,0.));
#880 = DIRECTION('',(1.,0.));
#881 = ( GEOMETRIC_REPRESENTATION_CONTEXT(2) 
PARAMETRIC_REPRESENTATION_CONTEXT() REPRESENTATION_CONTEXT('2D SPACE',''
  ) );
#882 = ORIENTED_EDGE('',*,*,#883,.T.);
#883 = EDGE_CURVE('',#855,#241,#884,.T.);
#884 = SEAM_CURVE('',#885,(#889,#896),.PCURVE_S1.);
#885 = LINE('',#886,#887);
#886 = CARTESIAN_POINT('',(-65.,30.,-280.));
#887 = VECTOR('',#888,1.);
#888 = DIRECTION('',(0.,-1.,0.));
#889 = PCURVE('',#261,#890);
#890 = DEFINITIONAL_REPRESENTATION('',(#891),#895);
#891 = LINE('',#892,#893);
#892 = CARTESIAN_POINT('',(3.141592653589,0.));
#893 = VECTOR('',#894,1.);
#894 = DIRECTION('',(0.,-1.));
#895 = ( GEOMETRIC_REPRESENTATION_CONTEXT(2) 
PARAMETRIC_REPRESENTATION_CONTEXT() REPRESENTATION_CONTEXT('2D SPACE',''
  ) );
#896 = PCURVE('',#261,#897);
#897 = DEFINITIONAL_REPRESENTATION('',(#898),#902);
#898 = LINE('',#899,#900);
#899 = CARTESIAN_POINT('',(9.42477796077,0.));
#900 = VECTOR('',#901,1.);
#901 = DIRECTION('',(0.,-1.));
#902 = ( GEOMETRIC_REPRESENTATION_CONTEXT(2) 
PARAMETRIC_REPRESENTATION_CONTEXT() REPRESENTATION_CONTEXT('2D SPACE',''
  ) );
#903 = ORIENTED_EDGE('',*,*,#240,.F.);
#904 = ORIENTED_EDGE('',*,*,#883,.F.);
#905 = ADVANCED_FACE('',(#906),#298,.T.);
#906 = FACE_BOUND('',#907,.T.);
#907 = EDGE_LOOP('',(#908,#931,#932,#955));
#908 = ORIENTED_EDGE('',*,*,#909,.T.);
#909 = EDGE_CURVE('',#910,#278,#912,.T.);
#910 = VERTEX_POINT('',#911);
#911 = CARTESIAN_POINT('',(-65.37543798773,50.,-211.6650058546));
#912 = SURFACE_CURVE('',#913,(#917,#924),.PCURVE_S1.);
#913 = LINE('',#914,#915);
#914 = CARTESIAN_POINT('',(-65.37543798773,30.,-211.6650058546));
#915 = VECTOR('',#916,1.);
#916 = DIRECTION('',(0.,-1.,0.));
#917 = PCURVE('',#298,#918);
#918 = DEFINITIONAL_REPRESENTATION('',(#919),#923);
#919 = LINE('',#920,#921);
#920 = CARTESIAN_POINT('',(5.368532196099,0.));
#921 = VECTOR('',#922,1.);
#922 = DIRECTION('',(0.,-1.));
#923 = ( GEOMETRIC_REPRESENTATION_CONTEXT(2) 
PARAMETRIC_REPRESENTATION_CONTEXT() REPRESENTATION_CONTEXT('2D SPACE',''
  ) );
#924 = PCURVE('',#329,#925);
#925 = DEFINITIONAL_REPRESENTATION('',(#926),#930);
#926 = LINE('',#927,#928);
#927 = CARTESIAN_POINT('',(2.917385999564,0.));
#928 = VECTOR('',#929,1.);
#929 = DIRECTION('',(0.,-1.));
#930 = ( GEOMETRIC_REPRESENTATION_CONTEXT(2) 
PARAMETRIC_REPRESENTATION_CONTEXT() REPRESENTATION_CONTEXT('2D SPACE',''
  ) );
#931 = ORIENTED_EDGE('',*,*,#275,.F.);
#932 = ORIENTED_EDGE('',*,*,#933,.T.);
#933 = EDGE_CURVE('',#276,#934,#936,.T.);
#934 = VERTEX_POINT('',#935);
#935 = CARTESIAN_POINT('',(-80.51444771342,50.,-229.9911755226));
#936 = SURFACE_CURVE('',#937,(#941,#948),.PCURVE_S1.);
#937 = LINE('',#938,#939);
#938 = CARTESIAN_POINT('',(-80.51444771342,30.,-229.9911755226));
#939 = VECTOR('',#940,1.);
#940 = DIRECTION('',(0.,1.,0.));
#941 = PCURVE('',#298,#942);
#942 = DEFINITIONAL_REPRESENTATION('',(#943),#947);
#943 = LINE('',#944,#945);
#944 = CARTESIAN_POINT('',(7.19783841826,0.));
#945 = VECTOR('',#946,1.);
#946 = DIRECTION('',(0.,1.));
#947 = ( GEOMETRIC_REPRESENTATION_CONTEXT(2) 
PARAMETRIC_REPRESENTATION_CONTEXT() REPRESENTATION_CONTEXT('2D SPACE',''
  ) );
#948 = PCURVE('',#329,#949);
#949 = DEFINITIONAL_REPRESENTATION('',(#950),#954);
#950 = LINE('',#951,#952);
#951 = CARTESIAN_POINT('',(-1.536493085454,0.));
#952 = VECTOR('',#953,1.);
#953 = DIRECTION('',(0.,1.));
#954 = ( GEOMETRIC_REPRESENTATION_CONTEXT(2) 
PARAMETRIC_REPRESENTATION_CONTEXT() REPRESENTATION_CONTEXT('2D SPACE',''
  ) );
#955 = ORIENTED_EDGE('',*,*,#956,.F.);
#956 = EDGE_CURVE('',#910,#934,#957,.T.);
#957 = SURFACE_CURVE('',#958,(#963,#970),.PCURVE_S1.);
#958 = CIRCLE('',#959,15.);
#959 = AXIS2_PLACEMENT_3D('',#960,#961,#962);
#960 = CARTESIAN_POINT('',(-80.,50.,-215.));
#961 = DIRECTION('',(0.,1.,-0.));
#962 = DIRECTION('',(-1.,0.,0.));
#963 = PCURVE('',#298,#964);
#964 = DEFINITIONAL_REPRESENTATION('',(#965),#969);
#965 = LINE('',#966,#967);
#966 = CARTESIAN_POINT('',(2.451146196535,20.));
#967 = VECTOR('',#968,1.);
#968 = DIRECTION('',(1.,0.));
#969 = ( GEOMETRIC_REPRESENTATION_CONTEXT(2) 
PARAMETRIC_REPRESENTATION_CONTEXT() REPRESENTATION_CONTEXT('2D SPACE',''
  ) );
#970 = PCURVE('',#971,#976);
#971 = PLANE('',#972);
#972 = AXIS2_PLACEMENT_3D('',#973,#974,#975);
#973 = CARTESIAN_POINT('',(-80.,50.,-215.));
#974 = DIRECTION('',(0.,1.,0.));
#975 = DIRECTION('',(-1.,0.,0.));
#976 = DEFINITIONAL_REPRESENTATION('',(#977),#981);
#977 = CIRCLE('',#978,15.);
#978 = AXIS2_PLACEMENT_2D('',#979,#980);
#979 = CARTESIAN_POINT('',(0.,0.));
#980 = DIRECTION('',(1.,0.));
#981 = ( GEOMETRIC_REPRESENTATION_CONTEXT(2) 
PARAMETRIC_REPRESENTATION_CONTEXT() REPRESENTATION_CONTEXT('2D SPACE',''
  ) );
#982 = ADVANCED_FACE('',(#983),#329,.T.);
#983 = FACE_BOUND('',#984,.T.);
#984 = EDGE_LOOP('',(#985,#986,#1008,#1009));
#985 = ORIENTED_EDGE('',*,*,#909,.F.);
#986 = ORIENTED_EDGE('',*,*,#987,.F.);
#987 = EDGE_CURVE('',#934,#910,#988,.T.);
#988 = SURFACE_CURVE('',#989,(#994,#1001),.PCURVE_S1.);
#989 = CIRCLE('',#990,15.);
#990 = AXIS2_PLACEMENT_3D('',#991,#992,#993);
#991 = CARTESIAN_POINT('',(-80.,50.,-215.));
#992 = DIRECTION('',(0.,1.,-0.));
#993 = DIRECTION('',(-1.,0.,0.));
#994 = PCURVE('',#329,#995);
#995 = DEFINITIONAL_REPRESENTATION('',(#996),#1000);
#996 = LINE('',#997,#998);
#997 = CARTESIAN_POINT('',(-6.28318530718,20.));
#998 = VECTOR('',#999,1.);
#999 = DIRECTION('',(1.,0.));
#1000 = ( GEOMETRIC_REPRESENTATION_CONTEXT(2) 
PARAMETRIC_REPRESENTATION_CONTEXT() REPRESENTATION_CONTEXT('2D SPACE',''
  ) );
#1001 = PCURVE('',#971,#1002);
#1002 = DEFINITIONAL_REPRESENTATION('',(#1003),#1007);
#1003 = CIRCLE('',#1004,15.);
#1004 = AXIS2_PLACEMENT_2D('',#1005,#1006);
#1005 = CARTESIAN_POINT('',(0.,0.));
#1006 = DIRECTION('',(1.,0.));
#1007 = ( GEOMETRIC_REPRESENTATION_CONTEXT(2) 
PARAMETRIC_REPRESENTATION_CONTEXT() REPRESENTATION_CONTEXT('2D SPACE',''
  ) );
#1008 = ORIENTED_EDGE('',*,*,#933,.F.);
#1009 = ORIENTED_EDGE('',*,*,#310,.F.);
#1010 = ADVANCED_FACE('',(#1011),#383,.T.);
#1011 = FACE_BOUND('',#1012,.T.);
#1012 = EDGE_LOOP('',(#1013,#1049,#1050,#1071));
#1013 = ORIENTED_EDGE('',*,*,#1014,.F.);
#1014 = EDGE_CURVE('',#346,#1015,#1017,.T.);
#1015 = VERTEX_POINT('',#1016);
#1016 = CARTESIAN_POINT('',(-80.66915618304,50.,-235.6983775721));
#1017 = SURFACE_CURVE('',#1018,(#1035,#1042),.PCURVE_S1.);
#1018 = B_SPLINE_CURVE_WITH_KNOTS('',3,(#1019,#1020,#1021,#1022,#1023,
    #1024,#1025,#1026,#1027,#1028,#1029,#1030,#1031,#1032,#1033,#1034),
  .UNSPECIFIED.,.F.,.F.,(4,2,2,2,2,2,2,4),(-2.,-1.853925618192,
    -1.426962142641,-1.171514001528,-0.981285354838,-0.791975566896,
    -0.602669729483,0.),.UNSPECIFIED.);
#1019 = CARTESIAN_POINT('',(-80.66915618304,30.,-235.6983775721));
#1020 = CARTESIAN_POINT('',(-80.66915618304,30.486914606026,
    -235.6983775721));
#1021 = CARTESIAN_POINT('',(-80.66915618304,30.973829212053,
    -235.6983775721));
#1022 = CARTESIAN_POINT('',(-80.66915618304,32.88395540325,
    -235.6983775721));
#1023 = CARTESIAN_POINT('',(-80.66915618304,34.307166988421,
    -235.6983775721));
#1024 = CARTESIAN_POINT('',(-80.66915618304,36.581872377301,
    -235.6983775721));
#1025 = CARTESIAN_POINT('',(-80.66915618304,37.433366181011,
    -235.6983775721));
#1026 = CARTESIAN_POINT('',(-80.66915618304,38.918955473687,
    -235.6983775721));
#1027 = CARTESIAN_POINT('',(-80.66915618304,39.553050962652,
    -235.6983775721));
#1028 = CARTESIAN_POINT('',(-80.66915618304,40.818179078092,
    -235.6983775721));
#1029 = CARTESIAN_POINT('',(-80.66915618304,41.449211704565,
    -235.6983775721));
#1030 = CARTESIAN_POINT('',(-80.66915618304,42.711263789084,
    -235.6983775721));
#1031 = CARTESIAN_POINT('',(-80.66915618304,43.342283247128,
    -235.6983775721));
#1032 = CARTESIAN_POINT('',(-80.66915618304,45.982201803449,
    -235.6983775721));
#1033 = CARTESIAN_POINT('',(-80.66915618304,47.991100901724,
    -235.6983775721));
#1034 = CARTESIAN_POINT('',(-80.66915618304,50.,-235.6983775721));
#1035 = PCURVE('',#383,#1036);
#1036 = DEFINITIONAL_REPRESENTATION('',(#1037),#1041);
#1037 = LINE('',#1038,#1039);
#1038 = CARTESIAN_POINT('',(-0.299055145432,2.));
#1039 = VECTOR('',#1040,1.);
#1040 = DIRECTION('',(0.,1.));
#1041 = ( GEOMETRIC_REPRESENTATION_CONTEXT(2) 
PARAMETRIC_REPRESENTATION_CONTEXT() REPRESENTATION_CONTEXT('2D SPACE',''
  ) );
#1042 = PCURVE('',#495,#1043);
#1043 = DEFINITIONAL_REPRESENTATION('',(#1044),#1048);
#1044 = LINE('',#1045,#1046);
#1045 = CARTESIAN_POINT('',(-0.299055145432,2.));
#1046 = VECTOR('',#1047,1.);
#1047 = DIRECTION('',(0.,1.));
#1048 = ( GEOMETRIC_REPRESENTATION_CONTEXT(2) 
PARAMETRIC_REPRESENTATION_CONTEXT() REPRESENTATION_CONTEXT('2D SPACE',''
  ) );
#1049 = ORIENTED_EDGE('',*,*,#343,.F.);
#1050 = ORIENTED_EDGE('',*,*,#1051,.T.);
#1051 = EDGE_CURVE('',#344,#1052,#1054,.T.);
#1052 = VERTEX_POINT('',#1053);
#1053 = CARTESIAN_POINT('',(-55.,50.,-210.));
#1054 = SURFACE_CURVE('',#1055,(#1059,#1065),.PCURVE_S1.);
#1055 = LINE('',#1056,#1057);
#1056 = CARTESIAN_POINT('',(-55.,30.,-210.));
#1057 = VECTOR('',#1058,1.);
#1058 = DIRECTION('',(0.,1.,0.));
#1059 = PCURVE('',#383,#1060);
#1060 = DEFINITIONAL_REPRESENTATION('',(#1061),#1064);
#1061 = B_SPLINE_CURVE_WITH_KNOTS('',1,(#1062,#1063),.UNSPECIFIED.,.F.,
  .F.,(2,2),(0.,20.),.PIECEWISE_BEZIER_KNOTS.);
#1062 = CARTESIAN_POINT('',(0.,7.047314121156E-17));
#1063 = CARTESIAN_POINT('',(0.,2.));
#1064 = ( GEOMETRIC_REPRESENTATION_CONTEXT(2) 
PARAMETRIC_REPRESENTATION_CONTEXT() REPRESENTATION_CONTEXT('2D SPACE',''
  ) );
#1065 = PCURVE('',#623,#1066);
#1066 = DEFINITIONAL_REPRESENTATION('',(#1067),#1070);
#1067 = B_SPLINE_CURVE_WITH_KNOTS('',1,(#1068,#1069),.UNSPECIFIED.,.F.,
  .F.,(2,2),(0.,20.),.PIECEWISE_BEZIER_KNOTS.);
#1068 = CARTESIAN_POINT('',(-1.,7.047314121156E-17));
#1069 = CARTESIAN_POINT('',(-1.,2.));
#1070 = ( GEOMETRIC_REPRESENTATION_CONTEXT(2) 
PARAMETRIC_REPRESENTATION_CONTEXT() REPRESENTATION_CONTEXT('2D SPACE',''
  ) );
#1071 = ORIENTED_EDGE('',*,*,#1072,.F.);
#1072 = EDGE_CURVE('',#1015,#1052,#1073,.T.);
#1073 = SURFACE_CURVE('',#1074,(#1089,#1096),.PCURVE_S1.);
#1074 = B_SPLINE_CURVE_WITH_KNOTS('',5,(#1075,#1076,#1077,#1078,#1079,
    #1080,#1081,#1082,#1083,#1084,#1085,#1086,#1087,#1088),
  .UNSPECIFIED.,.F.,.F.,(6,1,1,1,1,1,1,1,1,6),(-0.299055145432,
    -0.266666666667,-0.233333333333,-0.2,-0.166666666667,-0.133333333333
    ,-0.1,-6.666666666667E-02,-3.333333333333E-02,0.),.UNSPECIFIED.);
#1075 = CARTESIAN_POINT('',(-80.66915618304,50.,-235.6983775721));
#1076 = CARTESIAN_POINT('',(-79.86517968705,50.,-235.261606709));
#1077 = CARTESIAN_POINT('',(-78.09360072438,50.,-234.4115786105));
#1078 = CARTESIAN_POINT('',(-75.06770423939,50.,-233.2173266591));
#1079 = CARTESIAN_POINT('',(-70.64579129218,50.,-231.6741089199));
#1080 = CARTESIAN_POINT('',(-65.38476804484,50.,-229.4850760616));
#1081 = CARTESIAN_POINT('',(-61.14804267564,50.,-226.7413682055));
#1082 = CARTESIAN_POINT('',(-58.42998753629,50.,-223.3347012926));
#1083 = CARTESIAN_POINT('',(-57.1328905459,50.,-219.4396773923));
#1084 = CARTESIAN_POINT('',(-56.6528447938,50.,-215.5034108608));
#1085 = CARTESIAN_POINT('',(-56.31330097992,50.,-212.7587327208));
#1086 = CARTESIAN_POINT('',(-55.78906874864,50.,-211.1599100216));
#1087 = CARTESIAN_POINT('',(-55.28728677545,50.,-210.3431499895));
#1088 = CARTESIAN_POINT('',(-55.,50.,-210.));
#1089 = PCURVE('',#383,#1090);
#1090 = DEFINITIONAL_REPRESENTATION('',(#1091),#1095);
#1091 = LINE('',#1092,#1093);
#1092 = CARTESIAN_POINT('',(-5.173639294753E-14,2.));
#1093 = VECTOR('',#1094,1.);
#1094 = DIRECTION('',(1.,0.));
#1095 = ( GEOMETRIC_REPRESENTATION_CONTEXT(2) 
PARAMETRIC_REPRESENTATION_CONTEXT() REPRESENTATION_CONTEXT('2D SPACE',''
  ) );
#1096 = PCURVE('',#1097,#1102);
#1097 = PLANE('',#1098);
#1098 = AXIS2_PLACEMENT_3D('',#1099,#1100,#1101);
#1099 = CARTESIAN_POINT('',(-66.78998825826,50.,-232.0437524443));
#1100 = DIRECTION('',(7.40187321324E-15,1.,-9.34744963711E-15));
#1101 = DIRECTION('',(-1.,7.40187321324E-15,0.));
#1102 = DEFINITIONAL_REPRESENTATION('',(#1103),#1118);
#1103 = B_SPLINE_CURVE_WITH_KNOTS('',5,(#1104,#1105,#1106,#1107,#1108,
    #1109,#1110,#1111,#1112,#1113,#1114,#1115,#1116,#1117),
  .UNSPECIFIED.,.F.,.F.,(6,1,1,1,1,1,1,1,1,6),(-0.299055145432,
    -0.266666666667,-0.233333333333,-0.2,-0.166666666667,-0.133333333333
    ,-0.1,-6.666666666667E-02,-3.333333333333E-02,0.),.UNSPECIFIED.);
#1104 = CARTESIAN_POINT('',(13.87916792478,-3.6546251278));
#1105 = CARTESIAN_POINT('',(13.07519142879,-3.2178542647));
#1106 = CARTESIAN_POINT('',(11.30361246612,-2.3678261662));
#1107 = CARTESIAN_POINT('',(8.27771598113,-1.1735742148));
#1108 = CARTESIAN_POINT('',(3.85580303392,0.3696435244));
#1109 = CARTESIAN_POINT('',(-1.40522021342,2.5586763827));
#1110 = CARTESIAN_POINT('',(-5.64194558262,5.3023842388));
#1111 = CARTESIAN_POINT('',(-8.36000072197,8.7090511517));
#1112 = CARTESIAN_POINT('',(-9.65709771236,12.604075052));
#1113 = CARTESIAN_POINT('',(-10.13714346446,16.5403415835));
#1114 = CARTESIAN_POINT('',(-10.47668727834,19.2850197235));
#1115 = CARTESIAN_POINT('',(-11.00091950962,20.8838424227));
#1116 = CARTESIAN_POINT('',(-11.50270148281,21.7006024548));
#1117 = CARTESIAN_POINT('',(-11.78998825826,22.0437524443));
#1118 = ( GEOMETRIC_REPRESENTATION_CONTEXT(2) 
PARAMETRIC_REPRESENTATION_CONTEXT() REPRESENTATION_CONTEXT('2D SPACE',''
  ) );
#1119 = ADVANCED_FACE('',(#1120),#495,.T.);
#1120 = FACE_BOUND('',#1121,.T.);
#1121 = EDGE_LOOP('',(#1122,#1148,#1149,#1150));
#1122 = ORIENTED_EDGE('',*,*,#1123,.T.);
#1123 = EDGE_CURVE('',#1124,#462,#1126,.T.);
#1124 = VERTEX_POINT('',#1125);
#1125 = CARTESIAN_POINT('',(-71.73231151451,50.,-253.8184061903));
#1126 = SURFACE_CURVE('',#1127,(#1134,#1141),.PCURVE_S1.);
#1127 = B_SPLINE_CURVE_WITH_KNOTS('',3,(#1128,#1129,#1130,#1131,#1132,
    #1133),.UNSPECIFIED.,.F.,.F.,(4,2,4),(-2.,-0.397331214822,0.),
  .UNSPECIFIED.);
#1128 = CARTESIAN_POINT('',(-71.73231151451,50.,-253.8184061903));
#1129 = CARTESIAN_POINT('',(-71.73231151451,44.657770716072,
    -253.8184061903));
#1130 = CARTESIAN_POINT('',(-71.73231151451,39.315541432144,
    -253.8184061903));
#1131 = CARTESIAN_POINT('',(-71.73231151451,32.648874765477,
    -253.8184061903));
#1132 = CARTESIAN_POINT('',(-71.73231151451,31.324437382739,
    -253.8184061903));
#1133 = CARTESIAN_POINT('',(-71.73231151451,30.,-253.8184061903));
#1134 = PCURVE('',#495,#1135);
#1135 = DEFINITIONAL_REPRESENTATION('',(#1136),#1140);
#1136 = LINE('',#1137,#1138);
#1137 = CARTESIAN_POINT('',(-0.497720752843,4.440892098501E-16));
#1138 = VECTOR('',#1139,1.);
#1139 = DIRECTION('',(0.,-1.));
#1140 = ( GEOMETRIC_REPRESENTATION_CONTEXT(2) 
PARAMETRIC_REPRESENTATION_CONTEXT() REPRESENTATION_CONTEXT('2D SPACE',''
  ) );
#1141 = PCURVE('',#623,#1142);
#1142 = DEFINITIONAL_REPRESENTATION('',(#1143),#1147);
#1143 = LINE('',#1144,#1145);
#1144 = CARTESIAN_POINT('',(-0.497720752843,4.440892098501E-16));
#1145 = VECTOR('',#1146,1.);
#1146 = DIRECTION('',(0.,-1.));
#1147 = ( GEOMETRIC_REPRESENTATION_CONTEXT(2) 
PARAMETRIC_REPRESENTATION_CONTEXT() REPRESENTATION_CONTEXT('2D SPACE',''
  ) );
#1148 = ORIENTED_EDGE('',*,*,#461,.F.);
#1149 = ORIENTED_EDGE('',*,*,#1014,.T.);
#1150 = ORIENTED_EDGE('',*,*,#1151,.F.);
#1151 = EDGE_CURVE('',#1124,#1015,#1152,.T.);
#1152 = SURFACE_CURVE('',#1153,(#1166,#1173),.PCURVE_S1.);
#1153 = B_SPLINE_CURVE_WITH_KNOTS('',5,(#1154,#1155,#1156,#1157,#1158,
    #1159,#1160,#1161,#1162,#1163,#1164,#1165),.UNSPECIFIED.,.F.,.F.,(6,
    1,1,1,1,1,1,6),(-0.497720752843,-0.466666666667,-0.433333333333,-0.4
    ,-0.366666666667,-0.333333333333,-0.3,-0.299055145432),
  .UNSPECIFIED.);
#1154 = CARTESIAN_POINT('',(-71.73231151451,50.,-253.8184061903));
#1155 = CARTESIAN_POINT('',(-72.71777662929,50.,-253.4700555752));
#1156 = CARTESIAN_POINT('',(-74.76062825613,50.,-252.6291645856));
#1157 = CARTESIAN_POINT('',(-77.79837092099,50.,-251.0166471934));
#1158 = CARTESIAN_POINT('',(-81.46157559084,50.,-248.3518612024));
#1159 = CARTESIAN_POINT('',(-84.63725245052,50.,-244.6862036344));
#1160 = CARTESIAN_POINT('',(-85.78709640556,50.,-241.1352888451));
#1161 = CARTESIAN_POINT('',(-84.80034882504,50.,-238.6921102608));
#1162 = CARTESIAN_POINT('',(-83.06209751146,50.,-237.1265031966));
#1163 = CARTESIAN_POINT('',(-81.54136204768,50.,-236.1739252356));
#1164 = CARTESIAN_POINT('',(-80.69261022886,50.,-235.7111192926));
#1165 = CARTESIAN_POINT('',(-80.66915618304,50.,-235.6983775721));
#1166 = PCURVE('',#495,#1167);
#1167 = DEFINITIONAL_REPRESENTATION('',(#1168),#1172);
#1168 = LINE('',#1169,#1170);
#1169 = CARTESIAN_POINT('',(2.811084698351E-13,2.));
#1170 = VECTOR('',#1171,1.);
#1171 = DIRECTION('',(1.,0.));
#1172 = ( GEOMETRIC_REPRESENTATION_CONTEXT(2) 
PARAMETRIC_REPRESENTATION_CONTEXT() REPRESENTATION_CONTEXT('2D SPACE',''
  ) );
#1173 = PCURVE('',#1097,#1174);
#1174 = DEFINITIONAL_REPRESENTATION('',(#1175),#1188);
#1175 = B_SPLINE_CURVE_WITH_KNOTS('',5,(#1176,#1177,#1178,#1179,#1180,
    #1181,#1182,#1183,#1184,#1185,#1186,#1187),.UNSPECIFIED.,.F.,.F.,(6,
    1,1,1,1,1,1,6),(-0.497720752843,-0.466666666667,-0.433333333333,-0.4
    ,-0.366666666667,-0.333333333333,-0.3,-0.299055145432),
  .UNSPECIFIED.);
#1176 = CARTESIAN_POINT('',(4.94232325625,-21.774653746));
#1177 = CARTESIAN_POINT('',(5.92778837103,-21.4263031309));
#1178 = CARTESIAN_POINT('',(7.97063999787,-20.5854121413));
#1179 = CARTESIAN_POINT('',(11.00838266273,-18.9728947491));
#1180 = CARTESIAN_POINT('',(14.67158733258,-16.3081087581));
#1181 = CARTESIAN_POINT('',(17.84726419226,-12.6424511901));
#1182 = CARTESIAN_POINT('',(18.9971081473,-9.0915364008));
#1183 = CARTESIAN_POINT('',(18.01036056678,-6.6483578165));
#1184 = CARTESIAN_POINT('',(16.2721092532,-5.0827507523));
#1185 = CARTESIAN_POINT('',(14.75137378942,-4.1301727913));
#1186 = CARTESIAN_POINT('',(13.9026219706,-3.6673668483));
#1187 = CARTESIAN_POINT('',(13.87916792478,-3.6546251278));
#1188 = ( GEOMETRIC_REPRESENTATION_CONTEXT(2) 
PARAMETRIC_REPRESENTATION_CONTEXT() REPRESENTATION_CONTEXT('2D SPACE',''
  ) );
#1189 = ADVANCED_FACE('',(#1190),#623,.T.);
#1190 = FACE_BOUND('',#1191,.T.);
#1191 = EDGE_LOOP('',(#1192,#1193,#1250,#1251));
#1192 = ORIENTED_EDGE('',*,*,#1123,.F.);
#1193 = ORIENTED_EDGE('',*,*,#1194,.F.);
#1194 = EDGE_CURVE('',#1052,#1124,#1195,.T.);
#1195 = SURFACE_CURVE('',#1196,(#1218,#1225),.PCURVE_S1.);
#1196 = B_SPLINE_CURVE_WITH_KNOTS('',5,(#1197,#1198,#1199,#1200,#1201,
    #1202,#1203,#1204,#1205,#1206,#1207,#1208,#1209,#1210,#1211,#1212,
    #1213,#1214,#1215,#1216,#1217),.UNSPECIFIED.,.F.,.F.,(6,1,1,1,1,1,1,
    1,1,1,1,1,1,1,1,1,6),(-1.,-0.966666666667,-0.933333333333,-0.9,
    -0.866666666667,-0.833333333333,-0.8,-0.766666666667,-0.733333333333
    ,-0.7,-0.666666666667,-0.633333333333,-0.6,-0.566666666667,
    -0.533333333333,-0.5,-0.497720752843),.UNSPECIFIED.);
#1197 = CARTESIAN_POINT('',(-55.,50.,-210.));
#1198 = CARTESIAN_POINT('',(-54.71271322454,50.,-209.6568500104));
#1199 = CARTESIAN_POINT('',(-54.06534809593,50.,-209.1010100845));
#1200 = CARTESIAN_POINT('',(-52.88599166527,50.,-208.6763278629));
#1201 = CARTESIAN_POINT('',(-51.07487587447,50.,-208.9353695395));
#1202 = CARTESIAN_POINT('',(-49.13482507469,50.,-210.4761243872));
#1203 = CARTESIAN_POINT('',(-48.0191693406,50.,-213.0692853567));
#1204 = CARTESIAN_POINT('',(-47.79288011096,50.,-216.6195910888));
#1205 = CARTESIAN_POINT('',(-48.29302997631,50.,-221.0360053923));
#1206 = CARTESIAN_POINT('',(-49.23900419029,50.,-226.1975520742));
#1207 = CARTESIAN_POINT('',(-50.37052973484,50.,-231.9113784363));
#1208 = CARTESIAN_POINT('',(-51.59802284489,50.,-237.8614269946));
#1209 = CARTESIAN_POINT('',(-53.06618147142,50.,-243.6008468537));
#1210 = CARTESIAN_POINT('',(-55.02512420561,50.,-248.6390867486));
#1211 = CARTESIAN_POINT('',(-57.74584784773,50.,-252.5069582569));
#1212 = CARTESIAN_POINT('',(-61.41457389364,50.,-254.8332179325));
#1213 = CARTESIAN_POINT('',(-65.18126014172,50.,-255.3034890768));
#1214 = CARTESIAN_POINT('',(-68.34315011435,50.,-254.8559998776));
#1215 = CARTESIAN_POINT('',(-70.52984211253,50.,-254.2386439828));
#1216 = CARTESIAN_POINT('',(-71.65998227098,50.,-253.8439737483));
#1217 = CARTESIAN_POINT('',(-71.73231151451,50.,-253.8184061903));
#1218 = PCURVE('',#623,#1219);
#1219 = DEFINITIONAL_REPRESENTATION('',(#1220),#1224);
#1220 = LINE('',#1221,#1222);
#1221 = CARTESIAN_POINT('',(0.,2.));
#1222 = VECTOR('',#1223,1.);
#1223 = DIRECTION('',(1.,0.));
#1224 = ( GEOMETRIC_REPRESENTATION_CONTEXT(2) 
PARAMETRIC_REPRESENTATION_CONTEXT() REPRESENTATION_CONTEXT('2D SPACE',''
  ) );
#1225 = PCURVE('',#1097,#1226);
#1226 = DEFINITIONAL_REPRESENTATION('',(#1227),#1249);
#1227 = B_SPLINE_CURVE_WITH_KNOTS('',5,(#1228,#1229,#1230,#1231,#1232,
    #1233,#1234,#1235,#1236,#1237,#1238,#1239,#1240,#1241,#1242,#1243,
    #1244,#1245,#1246,#1247,#1248),.UNSPECIFIED.,.F.,.F.,(6,1,1,1,1,1,1,
    1,1,1,1,1,1,1,1,1,6),(-1.,-0.966666666667,-0.933333333333,-0.9,
    -0.866666666667,-0.833333333333,-0.8,-0.766666666667,-0.733333333333
    ,-0.7,-0.666666666667,-0.633333333333,-0.6,-0.566666666667,
    -0.533333333333,-0.5,-0.497720752843),.UNSPECIFIED.);
#1228 = CARTESIAN_POINT('',(-11.78998825826,22.0437524443));
#1229 = CARTESIAN_POINT('',(-12.07727503372,22.3869024339));
#1230 = CARTESIAN_POINT('',(-12.72464016233,22.9427423598));
#1231 = CARTESIAN_POINT('',(-13.90399659299,23.3674245814));
#1232 = CARTESIAN_POINT('',(-15.71511238379,23.1083829048));
#1233 = CARTESIAN_POINT('',(-17.65516318357,21.5676280571));
#1234 = CARTESIAN_POINT('',(-18.77081891766,18.9744670876));
#1235 = CARTESIAN_POINT('',(-18.9971081473,15.4241613555));
#1236 = CARTESIAN_POINT('',(-18.49695828195,11.007747052));
#1237 = CARTESIAN_POINT('',(-17.55098406797,5.8462003701));
#1238 = CARTESIAN_POINT('',(-16.41945852342,0.132374008));
#1239 = CARTESIAN_POINT('',(-15.19196541337,-5.8176745503));
#1240 = CARTESIAN_POINT('',(-13.72380678684,-11.5570944094));
#1241 = CARTESIAN_POINT('',(-11.76486405265,-16.5953343043));
#1242 = CARTESIAN_POINT('',(-9.04414041053,-20.4632058126));
#1243 = CARTESIAN_POINT('',(-5.37541436462,-22.7894654882));
#1244 = CARTESIAN_POINT('',(-1.60872811654,-23.2597366325));
#1245 = CARTESIAN_POINT('',(1.55316185609,-22.8122474333));
#1246 = CARTESIAN_POINT('',(3.73985385427,-22.1948915385));
#1247 = CARTESIAN_POINT('',(4.86999401272,-21.800221304));
#1248 = CARTESIAN_POINT('',(4.94232325625,-21.774653746));
#1249 = ( GEOMETRIC_REPRESENTATION_CONTEXT(2) 
PARAMETRIC_REPRESENTATION_CONTEXT() REPRESENTATION_CONTEXT('2D SPACE',''
  ) );
#1250 = ORIENTED_EDGE('',*,*,#1051,.F.);
#1251 = ORIENTED_EDGE('',*,*,#573,.F.);
#1252 = ADVANCED_FACE('',(#1253),#871,.T.);
#1253 = FACE_BOUND('',#1254,.T.);
#1254 = EDGE_LOOP('',(#1255));
#1255 = ORIENTED_EDGE('',*,*,#854,.T.);
#1256 = ADVANCED_FACE('',(#1257),#971,.T.);
#1257 = FACE_BOUND('',#1258,.T.);
#1258 = EDGE_LOOP('',(#1259,#1260));
#1259 = ORIENTED_EDGE('',*,*,#956,.T.);
#1260 = ORIENTED_EDGE('',*,*,#987,.T.);
#1261 = ADVANCED_FACE('',(#1262),#1097,.T.);
#1262 = FACE_BOUND('',#1263,.T.);
#1263 = EDGE_LOOP('',(#1264,#1265,#1266));
#1264 = ORIENTED_EDGE('',*,*,#1194,.T.);
#1265 = ORIENTED_EDGE('',*,*,#1151,.T.);
#1266 = ORIENTED_EDGE('',*,*,#1072,.T.);
#1267 = ( GEOMETRIC_REPRESENTATION_CONTEXT(3) 
GLOBAL_UNCERTAINTY_ASSIGNED_CONTEXT((#1271)) 
GLOBAL_UNIT_ASSIGNED_CONTEXT((#1268,#1269,#1270)) REPRESENTATION_CONTEXT
('Context #1','3D Context with UNIT and UNCERTAINTY') );
#1268 = ( LENGTH_UNIT() NAMED_UNIT(*) SI_UNIT(.MILLI.,.METRE.) );
#1269 = ( NAMED_UNIT(*) PLANE_ANGLE_UNIT() SI_UNIT($,.RADIAN.) );
#1270 = ( NAMED_UNIT(*) SI_UNIT($,.STERADIAN.) SOLID_ANGLE_UNIT() );
#1271 = UNCERTAINTY_MEASURE_WITH_UNIT(LENGTH_MEASURE(1.E-07),#1268,
  'distance_accuracy_value','confusion accuracy');
#1272 = PRODUCT_RELATED_PRODUCT_CATEGORY('part',$,(#7));
ENDSEC;
END-ISO-10303-21;
