ISO-10303-21;
HEADER;
/* Generated by software containing ST-Developer
 * from STEP Tools, Inc. (www.steptools.com) 
 */
/* OPTION: using custom schema-name function */

FILE_DESCRIPTION(
/* description */ (''),
/* implementation_level */ '2;1');

FILE_NAME(
/* name */ 'Connector V1',
/* time_stamp */ '2020-11-03T14:38:13+00:00',
/* author */ (''),
/* organization */ (''),
/* preprocessor_version */ 'ST-DEVELOPER v16.5',
/* originating_system */ '',
/* authorisation */ '');

FILE_SCHEMA (('AUTOMOTIVE_DESIGN'));
ENDSEC;

DATA;
#10=SHAPE_REPRESENTATION_RELATIONSHIP('','',#204,#22);
#11=COLOUR_RGB('',0.490196078431373,0.149019607843137,0.803921568627451);
#12=FILL_AREA_STYLE_COLOUR('',#11);
#13=FILL_AREA_STYLE('',(#12));
#14=SURFACE_STYLE_FILL_AREA(#13);
#15=SURFACE_SIDE_STYLE('',(#14));
#16=SURFACE_STYLE_USAGE(.BOTH.,#15);
#17=MECHANICAL_DESIGN_GEOMETRIC_PRESENTATION_REPRESENTATION('',(#19),#203);
#18=PRESENTATION_STYLE_ASSIGNMENT((#16));
#19=STYLED_ITEM('',(#18),#21);
#20=PRESENTATION_LAYER_ASSIGNMENT('Connectors','',(#21));
#21=MANIFOLD_SOLID_BREP('brep_1',#23);
#22=ADVANCED_BREP_SHAPE_REPRESENTATION('brep_rep_0',(#21,#209),#203);
#23=CLOSED_SHELL('',(#27,#28,#29,#30,#31,#32,#33,#34,#35,#36,#37));
#24=FACE_BOUND('',#52,.T.);
#25=FACE_BOUND('',#56,.T.);
#26=FACE_BOUND('',#58,.T.);
#27=ADVANCED_FACE('',(#38),#178,.T.);
#28=ADVANCED_FACE('',(#39),#179,.T.);
#29=ADVANCED_FACE('',(#40,#24),#180,.T.);
#30=ADVANCED_FACE('',(#41),#181,.T.);
#31=ADVANCED_FACE('',(#42),#182,.T.);
#32=ADVANCED_FACE('',(#43,#25),#175,.T.);
#33=ADVANCED_FACE('',(#44,#26),#176,.T.);
#34=ADVANCED_FACE('',(#45),#183,.T.);
#35=ADVANCED_FACE('',(#46),#177,.T.);
#36=ADVANCED_FACE('',(#47),#184,.T.);
#37=ADVANCED_FACE('',(#48),#185,.T.);
#38=FACE_OUTER_BOUND('',#49,.T.);
#39=FACE_OUTER_BOUND('',#50,.T.);
#40=FACE_OUTER_BOUND('',#51,.T.);
#41=FACE_OUTER_BOUND('',#53,.T.);
#42=FACE_OUTER_BOUND('',#54,.T.);
#43=FACE_OUTER_BOUND('',#55,.T.);
#44=FACE_OUTER_BOUND('',#57,.T.);
#45=FACE_OUTER_BOUND('',#59,.T.);
#46=FACE_OUTER_BOUND('',#60,.T.);
#47=FACE_OUTER_BOUND('',#61,.T.);
#48=FACE_OUTER_BOUND('',#62,.T.);
#49=EDGE_LOOP('',(#63,#64,#65,#66));
#50=EDGE_LOOP('',(#67,#68,#69,#70));
#51=EDGE_LOOP('',(#71,#72,#73,#74));
#52=EDGE_LOOP('',(#75,#76));
#53=EDGE_LOOP('',(#77,#78,#79,#80));
#54=EDGE_LOOP('',(#81,#82,#83,#84));
#55=EDGE_LOOP('',(#85,#86,#87,#88));
#56=EDGE_LOOP('',(#89,#90));
#57=EDGE_LOOP('',(#91,#92,#93,#94));
#58=EDGE_LOOP('',(#95,#96));
#59=EDGE_LOOP('',(#97,#98,#99,#100));
#60=EDGE_LOOP('',(#101,#102));
#61=EDGE_LOOP('',(#103,#104,#105,#106));
#62=EDGE_LOOP('',(#107,#108,#109,#110));
#63=ORIENTED_EDGE('',*,*,#111,.T.);
#64=ORIENTED_EDGE('',*,*,#112,.T.);
#65=ORIENTED_EDGE('',*,*,#113,.F.);
#66=ORIENTED_EDGE('',*,*,#114,.F.);
#67=ORIENTED_EDGE('',*,*,#115,.T.);
#68=ORIENTED_EDGE('',*,*,#116,.T.);
#69=ORIENTED_EDGE('',*,*,#117,.F.);
#70=ORIENTED_EDGE('',*,*,#112,.F.);
#71=ORIENTED_EDGE('',*,*,#118,.T.);
#72=ORIENTED_EDGE('',*,*,#119,.T.);
#73=ORIENTED_EDGE('',*,*,#120,.F.);
#74=ORIENTED_EDGE('',*,*,#116,.F.);
#75=ORIENTED_EDGE('',*,*,#128,.T.);
#76=ORIENTED_EDGE('',*,*,#134,.T.);
#77=ORIENTED_EDGE('',*,*,#121,.T.);
#78=ORIENTED_EDGE('',*,*,#114,.T.);
#79=ORIENTED_EDGE('',*,*,#122,.F.);
#80=ORIENTED_EDGE('',*,*,#119,.F.);
#81=ORIENTED_EDGE('',*,*,#129,.T.);
#82=ORIENTED_EDGE('',*,*,#125,.F.);
#83=ORIENTED_EDGE('',*,*,#124,.F.);
#84=ORIENTED_EDGE('',*,*,#123,.T.);
#85=ORIENTED_EDGE('',*,*,#121,.F.);
#86=ORIENTED_EDGE('',*,*,#118,.F.);
#87=ORIENTED_EDGE('',*,*,#115,.F.);
#88=ORIENTED_EDGE('',*,*,#111,.F.);
#89=ORIENTED_EDGE('',*,*,#130,.F.);
#90=ORIENTED_EDGE('',*,*,#123,.F.);
#91=ORIENTED_EDGE('',*,*,#113,.T.);
#92=ORIENTED_EDGE('',*,*,#117,.T.);
#93=ORIENTED_EDGE('',*,*,#120,.T.);
#94=ORIENTED_EDGE('',*,*,#122,.T.);
#95=ORIENTED_EDGE('',*,*,#125,.T.);
#96=ORIENTED_EDGE('',*,*,#131,.T.);
#97=ORIENTED_EDGE('',*,*,#126,.F.);
#98=ORIENTED_EDGE('',*,*,#127,.T.);
#99=ORIENTED_EDGE('',*,*,#134,.F.);
#100=ORIENTED_EDGE('',*,*,#132,.F.);
#101=ORIENTED_EDGE('',*,*,#126,.T.);
#102=ORIENTED_EDGE('',*,*,#133,.T.);
#103=ORIENTED_EDGE('',*,*,#130,.T.);
#104=ORIENTED_EDGE('',*,*,#124,.T.);
#105=ORIENTED_EDGE('',*,*,#131,.F.);
#106=ORIENTED_EDGE('',*,*,#129,.F.);
#107=ORIENTED_EDGE('',*,*,#132,.T.);
#108=ORIENTED_EDGE('',*,*,#128,.F.);
#109=ORIENTED_EDGE('',*,*,#127,.F.);
#110=ORIENTED_EDGE('',*,*,#133,.F.);
#111=EDGE_CURVE('',#159,#160,#135,.T.);
#112=EDGE_CURVE('',#160,#161,#136,.T.);
#113=EDGE_CURVE('',#162,#161,#137,.T.);
#114=EDGE_CURVE('',#159,#162,#138,.T.);
#115=EDGE_CURVE('',#160,#163,#139,.T.);
#116=EDGE_CURVE('',#163,#164,#140,.T.);
#117=EDGE_CURVE('',#161,#164,#141,.T.);
#118=EDGE_CURVE('',#163,#165,#142,.T.);
#119=EDGE_CURVE('',#165,#166,#143,.T.);
#120=EDGE_CURVE('',#164,#166,#144,.T.);
#121=EDGE_CURVE('',#165,#159,#145,.T.);
#122=EDGE_CURVE('',#166,#162,#146,.T.);
#123=EDGE_CURVE('',#167,#171,#147,.T.);
#124=EDGE_CURVE('',#167,#168,#148,.T.);
#125=EDGE_CURVE('',#168,#172,#149,.T.);
#126=EDGE_CURVE('',#169,#173,#150,.T.);
#127=EDGE_CURVE('',#169,#170,#151,.T.);
#128=EDGE_CURVE('',#170,#174,#152,.T.);
#129=EDGE_CURVE('',#171,#172,#153,.T.);
#130=EDGE_CURVE('',#171,#167,#154,.T.);
#131=EDGE_CURVE('',#172,#168,#155,.T.);
#132=EDGE_CURVE('',#173,#174,#156,.T.);
#133=EDGE_CURVE('',#173,#169,#157,.T.);
#134=EDGE_CURVE('',#174,#170,#158,.T.);
#135=(
BOUNDED_CURVE()
B_SPLINE_CURVE(2,(#309,#310,#311,#312,#313),.UNSPECIFIED.,.F.,.F.)
B_SPLINE_CURVE_WITH_KNOTS((3,2,3),(22.1115038378975,23.8393797973719,25.5672557568463),
 .UNSPECIFIED.)
CURVE()
GEOMETRIC_REPRESENTATION_ITEM()
RATIONAL_B_SPLINE_CURVE((1.,0.707106781186548,1.,0.707106781186548,1.))
REPRESENTATION_ITEM('')
);
#136=(
BOUNDED_CURVE()
B_SPLINE_CURVE(1,(#314,#315),.UNSPECIFIED.,.F.,.F.)
B_SPLINE_CURVE_WITH_KNOTS((2,2),(0.,4.),.UNSPECIFIED.)
CURVE()
GEOMETRIC_REPRESENTATION_ITEM()
RATIONAL_B_SPLINE_CURVE((1.,1.))
REPRESENTATION_ITEM('')
);
#137=(
BOUNDED_CURVE()
B_SPLINE_CURVE(2,(#316,#317,#318,#319,#320),.UNSPECIFIED.,.F.,.F.)
B_SPLINE_CURVE_WITH_KNOTS((3,2,3),(22.1115038378975,23.8393797973719,25.5672557568463),
 .UNSPECIFIED.)
CURVE()
GEOMETRIC_REPRESENTATION_ITEM()
RATIONAL_B_SPLINE_CURVE((1.,0.707106781186548,1.,0.707106781186548,1.))
REPRESENTATION_ITEM('')
);
#138=(
BOUNDED_CURVE()
B_SPLINE_CURVE(1,(#321,#322),.UNSPECIFIED.,.F.,.F.)
B_SPLINE_CURVE_WITH_KNOTS((2,2),(0.,4.),.UNSPECIFIED.)
CURVE()
GEOMETRIC_REPRESENTATION_ITEM()
RATIONAL_B_SPLINE_CURVE((1.,1.))
REPRESENTATION_ITEM('')
);
#139=(
BOUNDED_CURVE()
B_SPLINE_CURVE(2,(#323,#324,#325),.UNSPECIFIED.,.F.,.F.)
B_SPLINE_CURVE_WITH_KNOTS((3,3),(25.5672557568463,30.5672557568463),
 .UNSPECIFIED.)
CURVE()
GEOMETRIC_REPRESENTATION_ITEM()
RATIONAL_B_SPLINE_CURVE((1.,1.,1.))
REPRESENTATION_ITEM('')
);
#140=(
BOUNDED_CURVE()
B_SPLINE_CURVE(1,(#326,#327),.UNSPECIFIED.,.F.,.F.)
B_SPLINE_CURVE_WITH_KNOTS((2,2),(0.,4.),.UNSPECIFIED.)
CURVE()
GEOMETRIC_REPRESENTATION_ITEM()
RATIONAL_B_SPLINE_CURVE((1.,1.))
REPRESENTATION_ITEM('')
);
#141=(
BOUNDED_CURVE()
B_SPLINE_CURVE(2,(#328,#329,#330),.UNSPECIFIED.,.F.,.F.)
B_SPLINE_CURVE_WITH_KNOTS((3,3),(25.5672557568463,30.5672557568463),
 .UNSPECIFIED.)
CURVE()
GEOMETRIC_REPRESENTATION_ITEM()
RATIONAL_B_SPLINE_CURVE((1.,1.,1.))
REPRESENTATION_ITEM('')
);
#142=(
BOUNDED_CURVE()
B_SPLINE_CURVE(2,(#331,#332,#333,#334,#335),.UNSPECIFIED.,.F.,.F.)
B_SPLINE_CURVE_WITH_KNOTS((3,2,3),(30.5672557568463,33.1672557568463,35.7672557568463),
 .UNSPECIFIED.)
CURVE()
GEOMETRIC_REPRESENTATION_ITEM()
RATIONAL_B_SPLINE_CURVE((1.,1.,1.,1.,1.))
REPRESENTATION_ITEM('')
);
#143=(
BOUNDED_CURVE()
B_SPLINE_CURVE(1,(#336,#337),.UNSPECIFIED.,.F.,.F.)
B_SPLINE_CURVE_WITH_KNOTS((2,2),(0.,4.),.UNSPECIFIED.)
CURVE()
GEOMETRIC_REPRESENTATION_ITEM()
RATIONAL_B_SPLINE_CURVE((1.,1.))
REPRESENTATION_ITEM('')
);
#144=(
BOUNDED_CURVE()
B_SPLINE_CURVE(2,(#338,#339,#340,#341,#342),.UNSPECIFIED.,.F.,.F.)
B_SPLINE_CURVE_WITH_KNOTS((3,2,3),(30.5672557568463,33.1672557568463,35.7672557568463),
 .UNSPECIFIED.)
CURVE()
GEOMETRIC_REPRESENTATION_ITEM()
RATIONAL_B_SPLINE_CURVE((1.,1.,1.,1.,1.))
REPRESENTATION_ITEM('')
);
#145=(
BOUNDED_CURVE()
B_SPLINE_CURVE(2,(#343,#344,#345),.UNSPECIFIED.,.F.,.F.)
B_SPLINE_CURVE_WITH_KNOTS((3,3),(35.7672557568463,40.7672557568463),
 .UNSPECIFIED.)
CURVE()
GEOMETRIC_REPRESENTATION_ITEM()
RATIONAL_B_SPLINE_CURVE((1.,1.,1.))
REPRESENTATION_ITEM('')
);
#146=(
BOUNDED_CURVE()
B_SPLINE_CURVE(2,(#346,#347,#348),.UNSPECIFIED.,.F.,.F.)
B_SPLINE_CURVE_WITH_KNOTS((3,3),(35.7672557568463,40.7672557568463),
 .UNSPECIFIED.)
CURVE()
GEOMETRIC_REPRESENTATION_ITEM()
RATIONAL_B_SPLINE_CURVE((1.,1.,1.))
REPRESENTATION_ITEM('')
);
#147=(
BOUNDED_CURVE()
B_SPLINE_CURVE(2,(#349,#350,#351,#352,#353),.UNSPECIFIED.,.F.,.F.)
B_SPLINE_CURVE_WITH_KNOTS((3,2,3),(40.7672557568463,42.3380520836412,43.9088484104361),
 .UNSPECIFIED.)
CURVE()
GEOMETRIC_REPRESENTATION_ITEM()
RATIONAL_B_SPLINE_CURVE((1.,0.707106781186548,1.,0.707106781186548,1.))
REPRESENTATION_ITEM('')
);
#148=(
BOUNDED_CURVE()
B_SPLINE_CURVE(1,(#354,#355),.UNSPECIFIED.,.F.,.F.)
B_SPLINE_CURVE_WITH_KNOTS((2,2),(0.,4.),.UNSPECIFIED.)
CURVE()
GEOMETRIC_REPRESENTATION_ITEM()
RATIONAL_B_SPLINE_CURVE((1.,1.))
REPRESENTATION_ITEM('')
);
#149=(
BOUNDED_CURVE()
B_SPLINE_CURVE(2,(#356,#357,#358,#359,#360),.UNSPECIFIED.,.F.,.F.)
B_SPLINE_CURVE_WITH_KNOTS((3,2,3),(40.7672557568463,42.3380520836412,43.9088484104361),
 .UNSPECIFIED.)
CURVE()
GEOMETRIC_REPRESENTATION_ITEM()
RATIONAL_B_SPLINE_CURVE((1.,0.707106781186548,1.,0.707106781186548,1.))
REPRESENTATION_ITEM('')
);
#150=(
BOUNDED_CURVE()
B_SPLINE_CURVE(2,(#361,#362,#363,#364,#365),.UNSPECIFIED.,.F.,.F.)
B_SPLINE_CURVE_WITH_KNOTS((3,2,3),(0.,1.37444678594553,2.74889357189107),
 .UNSPECIFIED.)
CURVE()
GEOMETRIC_REPRESENTATION_ITEM()
RATIONAL_B_SPLINE_CURVE((1.,0.707106781186548,1.,0.707106781186548,1.))
REPRESENTATION_ITEM('')
);
#151=(
BOUNDED_CURVE()
B_SPLINE_CURVE(1,(#366,#367),.UNSPECIFIED.,.F.,.F.)
B_SPLINE_CURVE_WITH_KNOTS((2,2),(0.,2.5),.UNSPECIFIED.)
CURVE()
GEOMETRIC_REPRESENTATION_ITEM()
RATIONAL_B_SPLINE_CURVE((1.,1.))
REPRESENTATION_ITEM('')
);
#152=(
BOUNDED_CURVE()
B_SPLINE_CURVE(2,(#368,#369,#370,#371,#372),.UNSPECIFIED.,.F.,.F.)
B_SPLINE_CURVE_WITH_KNOTS((3,2,3),(-5.49778714378214,-4.1233403578366,-2.74889357189107),
 .UNSPECIFIED.)
CURVE()
GEOMETRIC_REPRESENTATION_ITEM()
RATIONAL_B_SPLINE_CURVE((1.,0.707106781186548,1.,0.707106781186548,1.))
REPRESENTATION_ITEM('')
);
#153=(
BOUNDED_CURVE()
B_SPLINE_CURVE(1,(#373,#374),.UNSPECIFIED.,.F.,.F.)
B_SPLINE_CURVE_WITH_KNOTS((2,2),(0.,4.),.UNSPECIFIED.)
CURVE()
GEOMETRIC_REPRESENTATION_ITEM()
RATIONAL_B_SPLINE_CURVE((1.,1.))
REPRESENTATION_ITEM('')
);
#154=(
BOUNDED_CURVE()
B_SPLINE_CURVE(2,(#375,#376,#377,#378,#379),.UNSPECIFIED.,.F.,.F.)
B_SPLINE_CURVE_WITH_KNOTS((3,2,3),(43.9088484104361,45.479644737231,47.0504410640259),
 .UNSPECIFIED.)
CURVE()
GEOMETRIC_REPRESENTATION_ITEM()
RATIONAL_B_SPLINE_CURVE((1.,0.707106781186548,1.,0.707106781186548,1.))
REPRESENTATION_ITEM('')
);
#155=(
BOUNDED_CURVE()
B_SPLINE_CURVE(2,(#380,#381,#382,#383,#384),.UNSPECIFIED.,.F.,.F.)
B_SPLINE_CURVE_WITH_KNOTS((3,2,3),(43.9088484104361,45.479644737231,47.0504410640259),
 .UNSPECIFIED.)
CURVE()
GEOMETRIC_REPRESENTATION_ITEM()
RATIONAL_B_SPLINE_CURVE((1.,0.707106781186548,1.,0.707106781186548,1.))
REPRESENTATION_ITEM('')
);
#156=(
BOUNDED_CURVE()
B_SPLINE_CURVE(1,(#385,#386),.UNSPECIFIED.,.F.,.F.)
B_SPLINE_CURVE_WITH_KNOTS((2,2),(0.,2.5),.UNSPECIFIED.)
CURVE()
GEOMETRIC_REPRESENTATION_ITEM()
RATIONAL_B_SPLINE_CURVE((1.,1.))
REPRESENTATION_ITEM('')
);
#157=(
BOUNDED_CURVE()
B_SPLINE_CURVE(2,(#387,#388,#389,#390,#391),.UNSPECIFIED.,.F.,.F.)
B_SPLINE_CURVE_WITH_KNOTS((3,2,3),(2.74889357189107,4.1233403578366,5.49778714378214),
 .UNSPECIFIED.)
CURVE()
GEOMETRIC_REPRESENTATION_ITEM()
RATIONAL_B_SPLINE_CURVE((1.,0.707106781186548,1.,0.707106781186548,1.))
REPRESENTATION_ITEM('')
);
#158=(
BOUNDED_CURVE()
B_SPLINE_CURVE(2,(#392,#393,#394,#395,#396),.UNSPECIFIED.,.F.,.F.)
B_SPLINE_CURVE_WITH_KNOTS((3,2,3),(-2.74889357189107,-1.37444678594553,
0.),.UNSPECIFIED.)
CURVE()
GEOMETRIC_REPRESENTATION_ITEM()
RATIONAL_B_SPLINE_CURVE((1.,0.707106781186548,1.,0.707106781186548,1.))
REPRESENTATION_ITEM('')
);
#159=VERTEX_POINT('',#293);
#160=VERTEX_POINT('',#294);
#161=VERTEX_POINT('',#295);
#162=VERTEX_POINT('',#296);
#163=VERTEX_POINT('',#297);
#164=VERTEX_POINT('',#298);
#165=VERTEX_POINT('',#299);
#166=VERTEX_POINT('',#300);
#167=VERTEX_POINT('',#301);
#168=VERTEX_POINT('',#302);
#169=VERTEX_POINT('',#303);
#170=VERTEX_POINT('',#304);
#171=VERTEX_POINT('',#305);
#172=VERTEX_POINT('',#306);
#173=VERTEX_POINT('',#307);
#174=VERTEX_POINT('',#308);
#175=PLANE('',#206);
#176=PLANE('',#207);
#177=PLANE('',#208);
#178=(
BOUNDED_SURFACE()
B_SPLINE_SURFACE(2,1,((#218,#219),(#220,#221),(#222,#223),(#224,#225),(#226,
#227)),.UNSPECIFIED.,.F.,.F.,.F.)
B_SPLINE_SURFACE_WITH_KNOTS((3,2,3),(2,2),(22.1115038378975,23.8393797973719,
25.5672557568463),(0.,4.),.UNSPECIFIED.)
GEOMETRIC_REPRESENTATION_ITEM()
RATIONAL_B_SPLINE_SURFACE(((1.,1.),(0.707106781186548,0.707106781186548),
(1.,1.),(0.707106781186548,0.707106781186548),(1.,1.)))
REPRESENTATION_ITEM('')
SURFACE()
);
#179=(
BOUNDED_SURFACE()
B_SPLINE_SURFACE(2,1,((#228,#229),(#230,#231),(#232,#233)),
 .UNSPECIFIED.,.F.,.F.,.F.)
B_SPLINE_SURFACE_WITH_KNOTS((3,3),(2,2),(25.5672557568463,30.5672557568463),
(0.,4.),.UNSPECIFIED.)
GEOMETRIC_REPRESENTATION_ITEM()
RATIONAL_B_SPLINE_SURFACE(((1.,1.),(1.,1.),(1.,1.)))
REPRESENTATION_ITEM('')
SURFACE()
);
#180=(
BOUNDED_SURFACE()
B_SPLINE_SURFACE(2,1,((#234,#235),(#236,#237),(#238,#239),(#240,#241),(#242,
#243)),.UNSPECIFIED.,.F.,.F.,.F.)
B_SPLINE_SURFACE_WITH_KNOTS((3,2,3),(2,2),(30.5672557568463,33.1672557568463,
35.7672557568463),(0.,4.),.UNSPECIFIED.)
GEOMETRIC_REPRESENTATION_ITEM()
RATIONAL_B_SPLINE_SURFACE(((1.,1.),(1.,1.),(1.,1.),(1.,1.),(1.,1.)))
REPRESENTATION_ITEM('')
SURFACE()
);
#181=(
BOUNDED_SURFACE()
B_SPLINE_SURFACE(2,1,((#244,#245),(#246,#247),(#248,#249)),
 .UNSPECIFIED.,.F.,.F.,.F.)
B_SPLINE_SURFACE_WITH_KNOTS((3,3),(2,2),(35.7672557568463,40.7672557568463),
(0.,4.),.UNSPECIFIED.)
GEOMETRIC_REPRESENTATION_ITEM()
RATIONAL_B_SPLINE_SURFACE(((1.,1.),(1.,1.),(1.,1.)))
REPRESENTATION_ITEM('')
SURFACE()
);
#182=(
BOUNDED_SURFACE()
B_SPLINE_SURFACE(2,1,((#250,#251),(#252,#253),(#254,#255),(#256,#257),(#258,
#259)),.UNSPECIFIED.,.F.,.F.,.F.)
B_SPLINE_SURFACE_WITH_KNOTS((3,2,3),(2,2),(40.7672557568463,42.3380520836412,
43.9088484104361),(0.,4.),.UNSPECIFIED.)
GEOMETRIC_REPRESENTATION_ITEM()
RATIONAL_B_SPLINE_SURFACE(((1.,1.),(0.707106781186548,0.707106781186548),
(1.,1.),(0.707106781186548,0.707106781186548),(1.,1.)))
REPRESENTATION_ITEM('')
SURFACE()
);
#183=(
BOUNDED_SURFACE()
B_SPLINE_SURFACE(1,2,((#262,#263,#264,#265,#266),(#267,#268,#269,#270,#271)),
 .UNSPECIFIED.,.F.,.F.,.F.)
B_SPLINE_SURFACE_WITH_KNOTS((2,2),(3,2,3),(0.,5.),(0.,1.37444678594553,
2.74889357189107),.UNSPECIFIED.)
GEOMETRIC_REPRESENTATION_ITEM()
RATIONAL_B_SPLINE_SURFACE(((1.,0.707106781186548,1.,0.707106781186548,1.),
(1.,0.707106781186548,1.,0.707106781186548,1.)))
REPRESENTATION_ITEM('')
SURFACE()
);
#184=(
BOUNDED_SURFACE()
B_SPLINE_SURFACE(2,1,((#273,#274),(#275,#276),(#277,#278),(#279,#280),(#281,
#282)),.UNSPECIFIED.,.F.,.F.,.F.)
B_SPLINE_SURFACE_WITH_KNOTS((3,2,3),(2,2),(43.9088484104361,45.479644737231,
47.0504410640259),(0.,4.),.UNSPECIFIED.)
GEOMETRIC_REPRESENTATION_ITEM()
RATIONAL_B_SPLINE_SURFACE(((1.,1.),(0.707106781186548,0.707106781186548),
(1.,1.),(0.707106781186548,0.707106781186548),(1.,1.)))
REPRESENTATION_ITEM('')
SURFACE()
);
#185=(
BOUNDED_SURFACE()
B_SPLINE_SURFACE(1,2,((#283,#284,#285,#286,#287),(#288,#289,#290,#291,#292)),
 .UNSPECIFIED.,.F.,.F.,.F.)
B_SPLINE_SURFACE_WITH_KNOTS((2,2),(3,2,3),(0.,5.),(2.74889357189107,4.1233403578366,
5.49778714378214),.UNSPECIFIED.)
GEOMETRIC_REPRESENTATION_ITEM()
RATIONAL_B_SPLINE_SURFACE(((1.,0.707106781186548,1.,0.707106781186548,1.),
(1.,0.707106781186548,1.,0.707106781186548,1.)))
REPRESENTATION_ITEM('')
SURFACE()
);
#186=SHAPE_DEFINITION_REPRESENTATION(#187,#204);
#187=PRODUCT_DEFINITION_SHAPE('Document','',#189);
#188=PRODUCT_DEFINITION_CONTEXT('3D Mechanical Parts',#193,'design');
#189=PRODUCT_DEFINITION('A','First version',#190,#188);
#190=PRODUCT_DEFINITION_FORMATION_WITH_SPECIFIED_SOURCE('A',
'First version',#195,.MADE.);
#191=PRODUCT_RELATED_PRODUCT_CATEGORY('tool','tool',(#195));
#192=APPLICATION_PROTOCOL_DEFINITION('Draft International Standard',
'automotive_design',1999,#193);
#193=APPLICATION_CONTEXT(
'data for automotive mechanical design processes');
#194=PRODUCT_CONTEXT('3D Mechanical Parts',#193,'mechanical');
#195=PRODUCT('Document','Document','Rhino converted to STEP',(#194));
#196=(
LENGTH_UNIT()
NAMED_UNIT(*)
SI_UNIT(.MILLI.,.METRE.)
);
#197=(
NAMED_UNIT(*)
PLANE_ANGLE_UNIT()
SI_UNIT($,.RADIAN.)
);
#198=DIMENSIONAL_EXPONENTS(0.,0.,0.,0.,0.,0.,0.);
#199=PLANE_ANGLE_MEASURE_WITH_UNIT(PLANE_ANGLE_MEASURE(0.01745329252),#197);
#200=(
CONVERSION_BASED_UNIT('DEGREES',#199)
NAMED_UNIT(#198)
PLANE_ANGLE_UNIT()
);
#201=(
NAMED_UNIT(*)
SI_UNIT($,.STERADIAN.)
SOLID_ANGLE_UNIT()
);
#202=UNCERTAINTY_MEASURE_WITH_UNIT(LENGTH_MEASURE(0.001),#196,
'DISTANCE_ACCURACY_VALUE',
'Maximum model space distance between geometric entities at asserted c
onnectivities');
#203=(
GEOMETRIC_REPRESENTATION_CONTEXT(3)
GLOBAL_UNCERTAINTY_ASSIGNED_CONTEXT((#202))
GLOBAL_UNIT_ASSIGNED_CONTEXT((#201,#200,#196))
REPRESENTATION_CONTEXT('ID1','3D')
);
#204=SHAPE_REPRESENTATION('Document',(#205,#209),#203);
#205=AXIS2_PLACEMENT_3D('',#217,#210,#211);
#206=AXIS2_PLACEMENT_3D('',#260,#212,$);
#207=AXIS2_PLACEMENT_3D('',#261,#213,$);
#208=AXIS2_PLACEMENT_3D('',#272,#214,$);
#209=AXIS2_PLACEMENT_3D('',#397,#215,#216);
#210=DIRECTION('',(0.,0.,1.));
#211=DIRECTION('',(1.,0.,0.));
#212=DIRECTION('',(0.,0.,-1.));
#213=DIRECTION('',(0.,0.,1.));
#214=DIRECTION('',(-1.,0.,0.));
#215=DIRECTION('',(0.,0.,1.));
#216=DIRECTION('',(1.,0.,0.));
#217=CARTESIAN_POINT('',(0.,0.,0.));
#218=CARTESIAN_POINT('',(307.,-2.60000000000706,0.));
#219=CARTESIAN_POINT('',(307.,-2.60000000000706,4.));
#220=CARTESIAN_POINT('',(309.6,-2.60000000000705,0.));
#221=CARTESIAN_POINT('',(309.6,-2.60000000000705,4.));
#222=CARTESIAN_POINT('',(309.6,-7.05480118767809E-12,0.));
#223=CARTESIAN_POINT('',(309.6,-7.05480118767809E-12,4.));
#224=CARTESIAN_POINT('',(309.6,2.59999999999294,0.));
#225=CARTESIAN_POINT('',(309.6,2.59999999999294,4.));
#226=CARTESIAN_POINT('',(307.,2.59999999999294,0.));
#227=CARTESIAN_POINT('',(307.,2.59999999999294,4.));
#228=CARTESIAN_POINT('',(307.,2.59999999999294,0.));
#229=CARTESIAN_POINT('',(307.,2.59999999999294,4.));
#230=CARTESIAN_POINT('',(304.5,2.59999999999294,0.));
#231=CARTESIAN_POINT('',(304.5,2.59999999999294,4.));
#232=CARTESIAN_POINT('',(302.,2.59999999999294,0.));
#233=CARTESIAN_POINT('',(302.,2.59999999999294,4.));
#234=CARTESIAN_POINT('',(302.,2.59999999999294,0.));
#235=CARTESIAN_POINT('',(302.,2.59999999999294,4.));
#236=CARTESIAN_POINT('',(302.,1.29999999999294,0.));
#237=CARTESIAN_POINT('',(302.,1.29999999999294,4.));
#238=CARTESIAN_POINT('',(302.,-7.06146252582585E-12,0.));
#239=CARTESIAN_POINT('',(302.,-7.06146252582585E-12,4.));
#240=CARTESIAN_POINT('',(302.,-1.30000000000706,0.));
#241=CARTESIAN_POINT('',(302.,-1.30000000000706,4.));
#242=CARTESIAN_POINT('',(302.,-2.60000000000706,0.));
#243=CARTESIAN_POINT('',(302.,-2.60000000000706,4.));
#244=CARTESIAN_POINT('',(302.,-2.60000000000706,0.));
#245=CARTESIAN_POINT('',(302.,-2.60000000000706,4.));
#246=CARTESIAN_POINT('',(304.5,-2.60000000000706,0.));
#247=CARTESIAN_POINT('',(304.5,-2.60000000000706,4.));
#248=CARTESIAN_POINT('',(307.,-2.60000000000706,0.));
#249=CARTESIAN_POINT('',(307.,-2.60000000000706,4.));
#250=CARTESIAN_POINT('',(307.,1.09999999999294,0.));
#251=CARTESIAN_POINT('',(307.,1.09999999999294,4.));
#252=CARTESIAN_POINT('',(308.1,1.09999999999294,0.));
#253=CARTESIAN_POINT('',(308.1,1.09999999999294,4.));
#254=CARTESIAN_POINT('',(308.1,-7.05657754451749E-12,0.));
#255=CARTESIAN_POINT('',(308.1,-7.05657754451749E-12,4.));
#256=CARTESIAN_POINT('',(308.1,-1.10000000000705,0.));
#257=CARTESIAN_POINT('',(308.1,-1.10000000000705,4.));
#258=CARTESIAN_POINT('',(307.,-1.10000000000705,0.));
#259=CARTESIAN_POINT('',(307.,-1.10000000000705,4.));
#260=CARTESIAN_POINT('',(310.55,-3.25000000000706,0.));
#261=CARTESIAN_POINT('',(310.55,-3.25000000000706,4.));
#262=CARTESIAN_POINT('',(304.5,-0.875,2.));
#263=CARTESIAN_POINT('',(304.5,-0.875,2.875));
#264=CARTESIAN_POINT('',(304.5,0.,2.875));
#265=CARTESIAN_POINT('',(304.5,0.875,2.875));
#266=CARTESIAN_POINT('',(304.5,0.875,2.));
#267=CARTESIAN_POINT('',(299.5,-0.875,2.));
#268=CARTESIAN_POINT('',(299.5,-0.875,2.875));
#269=CARTESIAN_POINT('',(299.5,0.,2.875));
#270=CARTESIAN_POINT('',(299.5,0.875,2.875));
#271=CARTESIAN_POINT('',(299.5,0.875,2.));
#272=CARTESIAN_POINT('',(304.5,1.09375,0.90625));
#273=CARTESIAN_POINT('',(307.,-1.10000000000705,0.));
#274=CARTESIAN_POINT('',(307.,-1.10000000000705,4.));
#275=CARTESIAN_POINT('',(305.9,-1.10000000000705,0.));
#276=CARTESIAN_POINT('',(305.9,-1.10000000000705,4.));
#277=CARTESIAN_POINT('',(305.9,-7.05635549991257E-12,0.));
#278=CARTESIAN_POINT('',(305.9,-7.05635549991257E-12,4.));
#279=CARTESIAN_POINT('',(305.9,1.09999999999294,0.));
#280=CARTESIAN_POINT('',(305.9,1.09999999999294,4.));
#281=CARTESIAN_POINT('',(307.,1.09999999999294,0.));
#282=CARTESIAN_POINT('',(307.,1.09999999999294,4.));
#283=CARTESIAN_POINT('',(304.5,0.875,2.));
#284=CARTESIAN_POINT('',(304.5,0.875,1.125));
#285=CARTESIAN_POINT('',(304.5,1.11022302462516E-16,1.125));
#286=CARTESIAN_POINT('',(304.5,-0.875,1.125));
#287=CARTESIAN_POINT('',(304.5,-0.875,2.));
#288=CARTESIAN_POINT('',(299.5,0.875,2.));
#289=CARTESIAN_POINT('',(299.5,0.875,1.125));
#290=CARTESIAN_POINT('',(299.5,1.11022302462516E-16,1.125));
#291=CARTESIAN_POINT('',(299.5,-0.875,1.125));
#292=CARTESIAN_POINT('',(299.5,-0.875,2.));
#293=CARTESIAN_POINT('',(307.,-2.60000000000706,0.));
#294=CARTESIAN_POINT('',(307.,2.59999999999294,0.));
#295=CARTESIAN_POINT('',(307.,2.59999999999294,4.));
#296=CARTESIAN_POINT('',(307.,-2.60000000000706,4.));
#297=CARTESIAN_POINT('',(302.,2.59999999999294,0.));
#298=CARTESIAN_POINT('',(302.,2.59999999999294,4.));
#299=CARTESIAN_POINT('',(302.,-2.60000000000706,0.));
#300=CARTESIAN_POINT('',(302.,-2.60000000000706,4.));
#301=CARTESIAN_POINT('',(307.,1.09999999999294,0.));
#302=CARTESIAN_POINT('',(307.,1.09999999999294,4.));
#303=CARTESIAN_POINT('',(304.5,-0.875,2.));
#304=CARTESIAN_POINT('',(302.,-0.874999999999999,2.));
#305=CARTESIAN_POINT('',(307.,-1.10000000000705,0.));
#306=CARTESIAN_POINT('',(307.,-1.10000000000705,4.));
#307=CARTESIAN_POINT('',(304.5,0.875,2.));
#308=CARTESIAN_POINT('',(302.,0.875,2.));
#309=CARTESIAN_POINT('',(307.,-2.60000000000706,0.));
#310=CARTESIAN_POINT('',(309.6,-2.60000000000705,0.));
#311=CARTESIAN_POINT('',(309.6,-7.05480118767809E-12,0.));
#312=CARTESIAN_POINT('',(309.6,2.59999999999294,0.));
#313=CARTESIAN_POINT('',(307.,2.59999999999294,0.));
#314=CARTESIAN_POINT('',(307.,2.59999999999294,0.));
#315=CARTESIAN_POINT('',(307.,2.59999999999294,4.));
#316=CARTESIAN_POINT('',(307.,-2.60000000000706,4.));
#317=CARTESIAN_POINT('',(309.6,-2.60000000000705,4.));
#318=CARTESIAN_POINT('',(309.6,-7.05480118767809E-12,4.));
#319=CARTESIAN_POINT('',(309.6,2.59999999999294,4.));
#320=CARTESIAN_POINT('',(307.,2.59999999999294,4.));
#321=CARTESIAN_POINT('',(307.,-2.60000000000706,0.));
#322=CARTESIAN_POINT('',(307.,-2.60000000000706,4.));
#323=CARTESIAN_POINT('',(307.,2.59999999999294,0.));
#324=CARTESIAN_POINT('',(304.5,2.59999999999294,0.));
#325=CARTESIAN_POINT('',(302.,2.59999999999294,0.));
#326=CARTESIAN_POINT('',(302.,2.59999999999294,0.));
#327=CARTESIAN_POINT('',(302.,2.59999999999294,4.));
#328=CARTESIAN_POINT('',(307.,2.59999999999294,4.));
#329=CARTESIAN_POINT('',(304.5,2.59999999999294,4.));
#330=CARTESIAN_POINT('',(302.,2.59999999999294,4.));
#331=CARTESIAN_POINT('',(302.,2.59999999999294,0.));
#332=CARTESIAN_POINT('',(302.,1.29999999999294,0.));
#333=CARTESIAN_POINT('',(302.,-7.06146252582585E-12,0.));
#334=CARTESIAN_POINT('',(302.,-1.30000000000706,0.));
#335=CARTESIAN_POINT('',(302.,-2.60000000000706,0.));
#336=CARTESIAN_POINT('',(302.,-2.60000000000706,0.));
#337=CARTESIAN_POINT('',(302.,-2.60000000000706,4.));
#338=CARTESIAN_POINT('',(302.,2.59999999999294,4.));
#339=CARTESIAN_POINT('',(302.,1.29999999999294,4.));
#340=CARTESIAN_POINT('',(302.,-7.06146252582585E-12,4.));
#341=CARTESIAN_POINT('',(302.,-1.30000000000706,4.));
#342=CARTESIAN_POINT('',(302.,-2.60000000000706,4.));
#343=CARTESIAN_POINT('',(302.,-2.60000000000706,0.));
#344=CARTESIAN_POINT('',(304.5,-2.60000000000706,0.));
#345=CARTESIAN_POINT('',(307.,-2.60000000000706,0.));
#346=CARTESIAN_POINT('',(302.,-2.60000000000706,4.));
#347=CARTESIAN_POINT('',(304.5,-2.60000000000706,4.));
#348=CARTESIAN_POINT('',(307.,-2.60000000000706,4.));
#349=CARTESIAN_POINT('',(307.,1.09999999999294,0.));
#350=CARTESIAN_POINT('',(308.1,1.09999999999294,0.));
#351=CARTESIAN_POINT('',(308.1,-7.05657754451749E-12,0.));
#352=CARTESIAN_POINT('',(308.1,-1.10000000000705,0.));
#353=CARTESIAN_POINT('',(307.,-1.10000000000705,0.));
#354=CARTESIAN_POINT('',(307.,1.09999999999294,0.));
#355=CARTESIAN_POINT('',(307.,1.09999999999294,4.));
#356=CARTESIAN_POINT('',(307.,1.09999999999294,4.));
#357=CARTESIAN_POINT('',(308.1,1.09999999999294,4.));
#358=CARTESIAN_POINT('',(308.1,-7.05657754451749E-12,4.));
#359=CARTESIAN_POINT('',(308.1,-1.10000000000705,4.));
#360=CARTESIAN_POINT('',(307.,-1.10000000000705,4.));
#361=CARTESIAN_POINT('',(304.5,-0.875,2.));
#362=CARTESIAN_POINT('',(304.5,-0.875,2.875));
#363=CARTESIAN_POINT('',(304.5,0.,2.875));
#364=CARTESIAN_POINT('',(304.5,0.875,2.875));
#365=CARTESIAN_POINT('',(304.5,0.875,2.));
#366=CARTESIAN_POINT('',(304.5,-0.875,2.));
#367=CARTESIAN_POINT('',(302.,-0.874999999999999,2.));
#368=CARTESIAN_POINT('',(302.,-0.875,2.));
#369=CARTESIAN_POINT('',(302.,-0.875,1.125));
#370=CARTESIAN_POINT('',(302.,1.11022302462516E-16,1.125));
#371=CARTESIAN_POINT('',(302.,0.875,1.125));
#372=CARTESIAN_POINT('',(302.,0.875,2.));
#373=CARTESIAN_POINT('',(307.,-1.10000000000705,0.));
#374=CARTESIAN_POINT('',(307.,-1.10000000000705,4.));
#375=CARTESIAN_POINT('',(307.,-1.10000000000705,0.));
#376=CARTESIAN_POINT('',(305.9,-1.10000000000705,0.));
#377=CARTESIAN_POINT('',(305.9,-7.05635549991257E-12,0.));
#378=CARTESIAN_POINT('',(305.9,1.09999999999294,0.));
#379=CARTESIAN_POINT('',(307.,1.09999999999294,0.));
#380=CARTESIAN_POINT('',(307.,-1.10000000000705,4.));
#381=CARTESIAN_POINT('',(305.9,-1.10000000000705,4.));
#382=CARTESIAN_POINT('',(305.9,-7.05635549991257E-12,4.));
#383=CARTESIAN_POINT('',(305.9,1.09999999999294,4.));
#384=CARTESIAN_POINT('',(307.,1.09999999999294,4.));
#385=CARTESIAN_POINT('',(304.5,0.875,2.));
#386=CARTESIAN_POINT('',(302.,0.875,2.));
#387=CARTESIAN_POINT('',(304.5,0.875,2.));
#388=CARTESIAN_POINT('',(304.5,0.875,1.125));
#389=CARTESIAN_POINT('',(304.5,1.11022302462516E-16,1.125));
#390=CARTESIAN_POINT('',(304.5,-0.875,1.125));
#391=CARTESIAN_POINT('',(304.5,-0.875,2.));
#392=CARTESIAN_POINT('',(302.,0.875,2.));
#393=CARTESIAN_POINT('',(302.,0.875,2.875));
#394=CARTESIAN_POINT('',(302.,0.,2.875));
#395=CARTESIAN_POINT('',(302.,-0.875,2.875));
#396=CARTESIAN_POINT('',(302.,-0.875,2.));
#397=CARTESIAN_POINT('',(0.,0.,0.));
ENDSEC;
END-ISO-10303-21;
