<?xml version="1.0" encoding="UTF-8" standalone="no"?>
<svg
   width="1107.6095"
   height="694.43823"
   viewBox="0 0 1107.6095 694.43823"
   version="1.1"
   id="svg25390"
   sodipodi:docname="time-measures-phases.svg"
   inkscape:version="1.1 (c68e22c387, 2021-05-23)"
   xmlns:inkscape="http://www.inkscape.org/namespaces/inkscape"
   xmlns:sodipodi="http://sodipodi.sourceforge.net/DTD/sodipodi-0.dtd"
   xmlns="http://www.w3.org/2000/svg"
   xmlns:svg="http://www.w3.org/2000/svg">
  <sodipodi:namedview
     id="namedview25392"
     pagecolor="#ffffff"
     bordercolor="#999999"
     borderopacity="1"
     inkscape:pageshadow="0"
     inkscape:pageopacity="0"
     inkscape:pagecheckerboard="0"
     showgrid="false"
     inkscape:zoom="0.88060516"
     inkscape:cx="1246.8698"
     inkscape:cy="625.70607"
     inkscape:window-width="3840"
     inkscape:window-height="2050"
     inkscape:window-x="-12"
     inkscape:window-y="-12"
     inkscape:window-maximized="1"
     inkscape:current-layer="svg25390" />
  <title
     id="title25086">VTK GL2PS Export</title>
  <desc
     id="desc25088">
Creator: GL2PS 1.4.0, (C) 1999-2017 C. Geuzaine
For: VTK
CreationDate: Mon Aug  8 17:38:48 2022
</desc>
  <defs
     id="defs25090">
    <rect
       x="81.903778"
       y="179.86713"
       width="311.15408"
       height="155.77779"
       id="rect28928" />
    <rect
       x="81.903778"
       y="179.86713"
       width="311.15408"
       height="155.77779"
       id="rect28928-2" />
    <rect
       x="81.903778"
       y="179.86713"
       width="311.15408"
       height="155.77779"
       id="rect28928-6" />
    <rect
       x="81.903778"
       y="179.86713"
       width="311.15408"
       height="155.77779"
       id="rect28928-6-1" />
    <rect
       x="81.903778"
       y="179.86713"
       width="311.15408"
       height="155.77779"
       id="rect28928-6-1-4" />
  </defs>
  <text
     fill="#3f3f3f"
     x="16.529297"
     y="632.625"
     font-size="12px"
     text-anchor="end"
     dy="6"
     font-family="Helvetica"
     id="text25096">0</text>
  <text
     fill="#3f3f3f"
     x="16.529297"
     y="601.625"
     font-size="12px"
     text-anchor="end"
     dy="6"
     font-family="Helvetica"
     id="text25098">0.5</text>
  <text
     fill="#3f3f3f"
     x="16.529297"
     y="569.625"
     font-size="12px"
     text-anchor="end"
     dy="6"
     font-family="Helvetica"
     id="text25100">1</text>
  <text
     fill="#3f3f3f"
     x="16.529297"
     y="538.625"
     font-size="12px"
     text-anchor="end"
     dy="6"
     font-family="Helvetica"
     id="text25102">1.5</text>
  <text
     fill="#3f3f3f"
     x="16.529297"
     y="506.625"
     font-size="12px"
     text-anchor="end"
     dy="6"
     font-family="Helvetica"
     id="text25104">2</text>
  <text
     fill="#3f3f3f"
     x="16.529297"
     y="475.625"
     font-size="12px"
     text-anchor="end"
     dy="6"
     font-family="Helvetica"
     id="text25106">2.5</text>
  <text
     fill="#3f3f3f"
     x="16.529297"
     y="443.625"
     font-size="12px"
     text-anchor="end"
     dy="6"
     font-family="Helvetica"
     id="text25108">3</text>
  <text
     fill="#3f3f3f"
     x="16.529297"
     y="412.625"
     font-size="12px"
     text-anchor="end"
     dy="6"
     font-family="Helvetica"
     id="text25110">3.5</text>
  <text
     fill="#3f3f3f"
     x="16.529297"
     y="380.625"
     font-size="12px"
     text-anchor="end"
     dy="6"
     font-family="Helvetica"
     id="text25112">4</text>
  <text
     fill="#3f3f3f"
     x="16.529297"
     y="349.625"
     font-size="12px"
     text-anchor="end"
     dy="6"
     font-family="Helvetica"
     id="text25114">4.5</text>
  <text
     fill="#3f3f3f"
     x="16.529297"
     y="317.625"
     font-size="12px"
     text-anchor="end"
     dy="6"
     font-family="Helvetica"
     id="text25116">5</text>
  <text
     fill="#3f3f3f"
     x="16.529297"
     y="286.625"
     font-size="12px"
     text-anchor="end"
     dy="6"
     font-family="Helvetica"
     id="text25118">5.5</text>
  <text
     fill="#3f3f3f"
     x="16.529297"
     y="254.625"
     font-size="12px"
     text-anchor="end"
     dy="6"
     font-family="Helvetica"
     id="text25120">6</text>
  <text
     fill="#3f3f3f"
     x="16.529297"
     y="223.625"
     font-size="12px"
     text-anchor="end"
     dy="6"
     font-family="Helvetica"
     id="text25122">6.5</text>
  <text
     fill="#3f3f3f"
     x="16.529297"
     y="191.625"
     font-size="12px"
     text-anchor="end"
     dy="6"
     font-family="Helvetica"
     id="text25124">7</text>
  <text
     fill="#3f3f3f"
     x="16.529297"
     y="160.625"
     font-size="12px"
     text-anchor="end"
     dy="6"
     font-family="Helvetica"
     id="text25126">7.5</text>
  <text
     fill="#3f3f3f"
     x="16.529297"
     y="128.625"
     font-size="12px"
     text-anchor="end"
     dy="6"
     font-family="Helvetica"
     id="text25128">8</text>
  <text
     fill="#3f3f3f"
     x="16.529297"
     y="97.625"
     font-size="12px"
     text-anchor="end"
     dy="6"
     font-family="Helvetica"
     id="text25130">8.5</text>
  <text
     fill="#3f3f3f"
     x="16.529297"
     y="65.625"
     font-size="12px"
     text-anchor="end"
     dy="6"
     font-family="Helvetica"
     id="text25132">9</text>
  <text
     fill="#3f3f3f"
     x="16.529297"
     y="34.625"
     font-size="12px"
     text-anchor="end"
     dy="6"
     font-family="Helvetica"
     id="text25134">9.5</text>
  <text
     fill="#3f3f3f"
     x="16.529297"
     y="2.625"
     font-size="12px"
     text-anchor="end"
     dy="6"
     font-family="Helvetica"
     id="text25136">10</text>
  <text
     fill="#3f3f3f"
     x="23.529297"
     y="641.99792"
     font-size="12px"
     text-anchor="middle"
     dy="12"
     font-family="Helvetica"
     id="text25140">0</text>
  <text
     fill="#3f3f3f"
     x="73.529297"
     y="642.07117"
     font-size="12px"
     text-anchor="middle"
     dy="12"
     font-family="Helvetica"
     id="text25142">2</text>
  <text
     fill="#3f3f3f"
     x="124.5293"
     y="642.05359"
     font-size="12px"
     text-anchor="middle"
     dy="12"
     font-family="Helvetica"
     id="text25144">4</text>
  <text
     fill="#3f3f3f"
     x="175.52928"
     y="641.99792"
     font-size="12px"
     text-anchor="middle"
     dy="12"
     font-family="Helvetica"
     id="text25146">6</text>
  <text
     fill="#3f3f3f"
     x="226.52928"
     y="641.99792"
     font-size="12px"
     text-anchor="middle"
     dy="12"
     font-family="Helvetica"
     id="text25148">8</text>
  <text
     fill="#3f3f3f"
     x="277.5293"
     y="641.99792"
     font-size="12px"
     text-anchor="middle"
     dy="12"
     font-family="Helvetica"
     id="text25150">10</text>
  <text
     fill="#3f3f3f"
     x="328.5293"
     y="642.07117"
     font-size="12px"
     text-anchor="middle"
     dy="12"
     font-family="Helvetica"
     id="text25152">12</text>
  <text
     fill="#3f3f3f"
     x="378.5293"
     y="642.07117"
     font-size="12px"
     text-anchor="middle"
     dy="12"
     font-family="Helvetica"
     id="text25154">14</text>
  <text
     fill="#3f3f3f"
     x="429.5293"
     y="641.99792"
     font-size="12px"
     text-anchor="middle"
     dy="12"
     font-family="Helvetica"
     id="text25156">16</text>
  <text
     fill="#3f3f3f"
     x="480.5293"
     y="641.99792"
     font-size="12px"
     text-anchor="middle"
     dy="12"
     font-family="Helvetica"
     id="text25158">18</text>
  <text
     fill="#3f3f3f"
     x="531.5293"
     y="641.99792"
     font-size="12px"
     text-anchor="middle"
     dy="12"
     font-family="Helvetica"
     id="text25160">20</text>
  <text
     fill="#3f3f3f"
     x="582.5293"
     y="642.07117"
     font-size="12px"
     text-anchor="middle"
     dy="12"
     font-family="Helvetica"
     id="text25162">22</text>
  <text
     fill="#3f3f3f"
     x="633.5293"
     y="642.07117"
     font-size="12px"
     text-anchor="middle"
     dy="12"
     font-family="Helvetica"
     id="text25164">24</text>
  <text
     fill="#3f3f3f"
     x="683.5293"
     y="641.99792"
     font-size="12px"
     text-anchor="middle"
     dy="12"
     font-family="Helvetica"
     id="text25166">26</text>
  <text
     fill="#3f3f3f"
     x="734.5293"
     y="641.99792"
     font-size="12px"
     text-anchor="middle"
     dy="12"
     font-family="Helvetica"
     id="text25168">28</text>
  <text
     fill="#3f3f3f"
     x="785.5293"
     y="641.995"
     font-size="12px"
     text-anchor="middle"
     dy="12"
     font-family="Helvetica"
     id="text25170">30</text>
  <text
     fill="#3f3f3f"
     x="836.5293"
     y="641.995"
     font-size="12px"
     text-anchor="middle"
     dy="12"
     font-family="Helvetica"
     id="text25172">32</text>
  <text
     fill="#3f3f3f"
     x="887.5293"
     y="641.995"
     font-size="12px"
     text-anchor="middle"
     dy="12"
     font-family="Helvetica"
     id="text25174">34</text>
  <text
     fill="#3f3f3f"
     x="938.52936"
     y="641.995"
     font-size="12px"
     text-anchor="middle"
     dy="12"
     font-family="Helvetica"
     id="text25176">36</text>
  <text
     fill="#3f3f3f"
     x="988.52924"
     y="641.995"
     font-size="12px"
     text-anchor="middle"
     dy="12"
     font-family="Helvetica"
     id="text25178">38</text>
  <text
     fill="#3f3f3f"
     x="1039.5293"
     y="641.99792"
     font-size="12px"
     text-anchor="middle"
     dy="12"
     font-family="Helvetica"
     id="text25180">40</text>
  <text
     fill="#3f3f3f"
     x="1065.8036"
     y="642.07117"
     font-size="12px"
     text-anchor="middle"
     dy="12"
     font-family="Helvetica"
     id="text25182-1">41</text>
  <polyline
     fill="none"
     stroke="#f2f2f2"
     stroke-width="0.714286"
     stroke-linecap="butt"
     stroke-linejoin="miter"
     stroke-dasharray="16, 0"
     points="52.5391,650.428 52.5391,19.5279"
     id="polyline25192"
     transform="translate(-29.470707,-15.375)" />
  <polyline
     fill="none"
     stroke="#f2f2f2"
     stroke-width="0.714286"
     stroke-linecap="butt"
     stroke-linejoin="miter"
     stroke-dasharray="16, 0"
     points="1120.33,650.428 1120.33,19.5279"
     id="polyline25234"
     transform="translate(-29.470707,-15.375)" />
  <g
     id="g27488"
     transform="matrix(0.83949066,0,0,1,-21.037691,-15.375)">
    <polyline
       fill="none"
       stroke="#f2f2f2"
       stroke-width="0.714286"
       stroke-linecap="butt"
       stroke-linejoin="miter"
       stroke-dasharray="16, 0"
       points="52.5391,650.428 1324.49,650.428"
       id="polyline25244" />
    <polyline
       fill="none"
       stroke="#f2f2f2"
       stroke-width="0.714286"
       stroke-linecap="butt"
       stroke-linejoin="miter"
       stroke-dasharray="16, 0"
       points="52.5391,619.384 1324.49,619.384"
       id="polyline25246" />
    <polyline
       fill="none"
       stroke="#f2f2f2"
       stroke-width="0.714286"
       stroke-linecap="butt"
       stroke-linejoin="miter"
       stroke-dasharray="16, 0"
       points="52.5391,587.338 1324.49,587.338"
       id="polyline25248" />
    <polyline
       fill="none"
       stroke="#f2f2f2"
       stroke-width="0.714286"
       stroke-linecap="butt"
       stroke-linejoin="miter"
       stroke-dasharray="16, 0"
       points="52.5391,556.294 1324.49,556.294"
       id="polyline25250" />
    <polyline
       fill="none"
       stroke="#f2f2f2"
       stroke-width="0.714286"
       stroke-linecap="butt"
       stroke-linejoin="miter"
       stroke-dasharray="16, 0"
       points="52.5391,524.248 1324.49,524.248"
       id="polyline25252" />
    <polyline
       fill="none"
       stroke="#f2f2f2"
       stroke-width="0.714286"
       stroke-linecap="butt"
       stroke-linejoin="miter"
       stroke-dasharray="16, 0"
       points="52.5391,493.204 1324.49,493.204"
       id="polyline25254" />
    <polyline
       fill="none"
       stroke="#f2f2f2"
       stroke-width="0.714286"
       stroke-linecap="butt"
       stroke-linejoin="miter"
       stroke-dasharray="16, 0"
       points="52.5391,461.158 1324.49,461.158"
       id="polyline25256" />
    <polyline
       fill="none"
       stroke="#f2f2f2"
       stroke-width="0.714286"
       stroke-linecap="butt"
       stroke-linejoin="miter"
       stroke-dasharray="16, 0"
       points="52.5391,430.114 1324.49,430.114"
       id="polyline25258" />
    <polyline
       fill="none"
       stroke="#f2f2f2"
       stroke-width="0.714286"
       stroke-linecap="butt"
       stroke-linejoin="miter"
       stroke-dasharray="16, 0"
       points="52.5391,398.068 1324.49,398.068"
       id="polyline25260" />
    <polyline
       fill="none"
       stroke="#f2f2f2"
       stroke-width="0.714286"
       stroke-linecap="butt"
       stroke-linejoin="miter"
       stroke-dasharray="16, 0"
       points="52.5391,367.024 1324.49,367.024"
       id="polyline25262" />
    <polyline
       fill="none"
       stroke="#f2f2f2"
       stroke-width="0.714286"
       stroke-linecap="butt"
       stroke-linejoin="miter"
       stroke-dasharray="16, 0"
       points="52.5391,334.978 1324.49,334.978"
       id="polyline25264" />
    <polyline
       fill="none"
       stroke="#f2f2f2"
       stroke-width="0.714286"
       stroke-linecap="butt"
       stroke-linejoin="miter"
       stroke-dasharray="16, 0"
       points="52.5391,303.934 1324.49,303.934"
       id="polyline25266" />
    <polyline
       fill="none"
       stroke="#f2f2f2"
       stroke-width="0.714286"
       stroke-linecap="butt"
       stroke-linejoin="miter"
       stroke-dasharray="16, 0"
       points="52.5391,271.888 1324.49,271.888"
       id="polyline25268" />
    <polyline
       fill="none"
       stroke="#f2f2f2"
       stroke-width="0.714286"
       stroke-linecap="butt"
       stroke-linejoin="miter"
       stroke-dasharray="16, 0"
       points="52.5391,240.844 1324.49,240.844"
       id="polyline25270" />
    <polyline
       fill="none"
       stroke="#f2f2f2"
       stroke-width="0.714286"
       stroke-linecap="butt"
       stroke-linejoin="miter"
       stroke-dasharray="16, 0"
       points="52.5391,208.798 1324.49,208.798"
       id="polyline25272" />
    <polyline
       fill="none"
       stroke="#f2f2f2"
       stroke-width="0.714286"
       stroke-linecap="butt"
       stroke-linejoin="miter"
       stroke-dasharray="16, 0"
       points="52.5391,177.754 1324.49,177.754"
       id="polyline25274" />
    <polyline
       fill="none"
       stroke="#f2f2f2"
       stroke-width="0.714286"
       stroke-linecap="butt"
       stroke-linejoin="miter"
       stroke-dasharray="16, 0"
       points="52.5391,145.708 1324.49,145.708"
       id="polyline25276" />
    <polyline
       fill="none"
       stroke="#f2f2f2"
       stroke-width="0.714286"
       stroke-linecap="butt"
       stroke-linejoin="miter"
       stroke-dasharray="16, 0"
       points="52.5391,114.664 1324.49,114.664"
       id="polyline25278" />
    <polyline
       fill="none"
       stroke="#f2f2f2"
       stroke-width="0.714286"
       stroke-linecap="butt"
       stroke-linejoin="miter"
       stroke-dasharray="16, 0"
       points="52.5391,82.6179 1324.49,82.6179"
       id="polyline25280" />
    <polyline
       fill="none"
       stroke="#f2f2f2"
       stroke-width="0.714286"
       stroke-linecap="butt"
       stroke-linejoin="miter"
       stroke-dasharray="16, 0"
       points="52.5391,51.5736 1324.49,51.5736"
       id="polyline25282" />
    <polyline
       fill="none"
       stroke="#f2f2f2"
       stroke-width="0.714286"
       stroke-linecap="butt"
       stroke-linejoin="miter"
       stroke-dasharray="16, 0"
       points="52.5391,19.5279 1324.49,19.5279"
       id="polyline25284" />
  </g>
  <polyline
     fill="none"
     stroke="#e10000"
     stroke-width="1.42857"
     stroke-linecap="butt"
     stroke-linejoin="miter"
     stroke-dasharray="16, 0"
     points="52.5391,577.613 77.978,474.162 103.417,514.497 128.856,573.233 154.295,603.021 179.734,346.234 205.173,517.66 230.612,531.559 256.051,560.763 281.489,507.471 306.928,447.092 332.367,515.839 357.806,463.679 383.245,565.718 408.684,504.375 434.123,518.991 459.562,501.751 485.001,505.677 510.44,536.808 535.879,117.356 561.318,536.693 586.757,484.298 612.196,503.242 637.634,572.699 663.073,522.652 688.512,602.829 713.951,591.668 739.39,603.711 764.829,431.609 790.268,387.463 815.707,617.447 841.146,520.383 866.585,505.277 892.024,604.118 917.463,612.092 942.902,553.584 968.341,519.587 993.779,496.604 1019.22,510.814 1044.66,430.358 1070.1,397.816 1095.54,473.34"
     id="polyline25286"
     style="stroke:#000000;stroke-width:2;stroke-miterlimit:4;stroke-dasharray:4, 4;stroke-dashoffset:0;stroke-opacity:1"
     transform="translate(-29.470707,-15.375)" />
  <polyline
     fill="none"
     stroke="#00e100"
     stroke-width="1.42857"
     stroke-linecap="butt"
     stroke-linejoin="miter"
     stroke-dasharray="16, 0"
     points="52.5391,586.108 77.978,452.323 103.417,492.046 128.856,583.576 154.295,618.176 179.734,359.876 205.173,541.327 230.612,568.126 256.051,582.267 281.489,552.577 306.928,507.032 332.367,558.177 357.806,517.171 383.245,563.752 408.684,526.085 434.123,572.807 459.562,562.162 485.001,521.388 510.44,543.359 535.879,504.562 561.318,541.555 586.757,460.051 612.196,590.03 637.634,620.537 663.073,593.317 688.512,621.214 713.951,618.675 739.39,613.174 764.829,610.934 790.268,611.755 815.707,629.941 841.146,537.524 866.585,542.581 892.024,615.724 917.463,627.125 942.902,565.846 968.341,564.726 993.779,554.635 1019.22,619.251 1044.66,573.02 1070.1,571.102 1095.54,522.327"
     id="polyline25288"
     style="stroke:#000000;stroke-width:2;stroke-miterlimit:4;stroke-dasharray:22.4, 0;stroke-dashoffset:0;stroke-opacity:1"
     transform="translate(-29.470707,-15.375)" />
  <polyline
     fill="none"
     stroke="#000000"
     stroke-width="0.714286"
     stroke-linecap="butt"
     stroke-linejoin="miter"
     stroke-dasharray="16, 0"
     points="52.5391,650.428 52.5391,19.5279"
     id="polyline25290"
     transform="translate(-29.470707,-15.375)" />
  <polyline
     fill="none"
     stroke="#000000"
     stroke-width="0.714286"
     stroke-linecap="butt"
     stroke-linejoin="miter"
     stroke-dasharray="16, 0"
     points="47.5354,650.428 52.5391,650.428"
     id="polyline25292"
     transform="translate(-29.470707,-15.375)" />
  <polyline
     fill="none"
     stroke="#000000"
     stroke-width="0.714286"
     stroke-linecap="butt"
     stroke-linejoin="miter"
     stroke-dasharray="16, 0"
     points="47.5354,619.384 52.5391,619.384"
     id="polyline25294"
     transform="translate(-29.470707,-15.375)" />
  <polyline
     fill="none"
     stroke="#000000"
     stroke-width="0.714286"
     stroke-linecap="butt"
     stroke-linejoin="miter"
     stroke-dasharray="16, 0"
     points="47.5354,587.338 52.5391,587.338"
     id="polyline25296"
     transform="translate(-29.470707,-15.375)" />
  <polyline
     fill="none"
     stroke="#000000"
     stroke-width="0.714286"
     stroke-linecap="butt"
     stroke-linejoin="miter"
     stroke-dasharray="16, 0"
     points="47.5354,556.294 52.5391,556.294"
     id="polyline25298"
     transform="translate(-29.470707,-15.375)" />
  <polyline
     fill="none"
     stroke="#000000"
     stroke-width="0.714286"
     stroke-linecap="butt"
     stroke-linejoin="miter"
     stroke-dasharray="16, 0"
     points="47.5354,524.248 52.5391,524.248"
     id="polyline25300"
     transform="translate(-29.470707,-15.375)" />
  <polyline
     fill="none"
     stroke="#000000"
     stroke-width="0.714286"
     stroke-linecap="butt"
     stroke-linejoin="miter"
     stroke-dasharray="16, 0"
     points="47.5354,493.204 52.5391,493.204"
     id="polyline25302"
     transform="translate(-29.470707,-15.375)" />
  <polyline
     fill="none"
     stroke="#000000"
     stroke-width="0.714286"
     stroke-linecap="butt"
     stroke-linejoin="miter"
     stroke-dasharray="16, 0"
     points="47.5354,461.158 52.5391,461.158"
     id="polyline25304"
     transform="translate(-29.470707,-15.375)" />
  <polyline
     fill="none"
     stroke="#000000"
     stroke-width="0.714286"
     stroke-linecap="butt"
     stroke-linejoin="miter"
     stroke-dasharray="16, 0"
     points="47.5354,430.114 52.5391,430.114"
     id="polyline25306"
     transform="translate(-29.470707,-15.375)" />
  <polyline
     fill="none"
     stroke="#000000"
     stroke-width="0.714286"
     stroke-linecap="butt"
     stroke-linejoin="miter"
     stroke-dasharray="16, 0"
     points="47.5354,398.068 52.5391,398.068"
     id="polyline25308"
     transform="translate(-29.470707,-15.375)" />
  <polyline
     fill="none"
     stroke="#000000"
     stroke-width="0.714286"
     stroke-linecap="butt"
     stroke-linejoin="miter"
     stroke-dasharray="16, 0"
     points="47.5354,367.024 52.5391,367.024"
     id="polyline25310"
     transform="translate(-29.470707,-15.375)" />
  <polyline
     fill="none"
     stroke="#000000"
     stroke-width="0.714286"
     stroke-linecap="butt"
     stroke-linejoin="miter"
     stroke-dasharray="16, 0"
     points="47.5354,334.978 52.5391,334.978"
     id="polyline25312"
     transform="translate(-29.470707,-15.375)" />
  <polyline
     fill="none"
     stroke="#000000"
     stroke-width="0.714286"
     stroke-linecap="butt"
     stroke-linejoin="miter"
     stroke-dasharray="16, 0"
     points="47.5354,303.934 52.5391,303.934"
     id="polyline25314"
     transform="translate(-29.470707,-15.375)" />
  <polyline
     fill="none"
     stroke="#000000"
     stroke-width="0.714286"
     stroke-linecap="butt"
     stroke-linejoin="miter"
     stroke-dasharray="16, 0"
     points="47.5354,271.888 52.5391,271.888"
     id="polyline25316"
     transform="translate(-29.470707,-15.375)" />
  <polyline
     fill="none"
     stroke="#000000"
     stroke-width="0.714286"
     stroke-linecap="butt"
     stroke-linejoin="miter"
     stroke-dasharray="16, 0"
     points="47.5354,240.844 52.5391,240.844"
     id="polyline25318"
     transform="translate(-29.470707,-15.375)" />
  <polyline
     fill="none"
     stroke="#000000"
     stroke-width="0.714286"
     stroke-linecap="butt"
     stroke-linejoin="miter"
     stroke-dasharray="16, 0"
     points="47.5354,208.798 52.5391,208.798"
     id="polyline25320"
     transform="translate(-29.470707,-15.375)" />
  <polyline
     fill="none"
     stroke="#000000"
     stroke-width="0.714286"
     stroke-linecap="butt"
     stroke-linejoin="miter"
     stroke-dasharray="16, 0"
     points="47.5354,177.754 52.5391,177.754"
     id="polyline25322"
     transform="translate(-29.470707,-15.375)" />
  <polyline
     fill="none"
     stroke="#000000"
     stroke-width="0.714286"
     stroke-linecap="butt"
     stroke-linejoin="miter"
     stroke-dasharray="16, 0"
     points="47.5354,145.708 52.5391,145.708"
     id="polyline25324"
     transform="translate(-29.470707,-15.375)" />
  <polyline
     fill="none"
     stroke="#000000"
     stroke-width="0.714286"
     stroke-linecap="butt"
     stroke-linejoin="miter"
     stroke-dasharray="16, 0"
     points="47.5354,114.664 52.5391,114.664"
     id="polyline25326"
     transform="translate(-29.470707,-15.375)" />
  <polyline
     fill="none"
     stroke="#000000"
     stroke-width="0.714286"
     stroke-linecap="butt"
     stroke-linejoin="miter"
     stroke-dasharray="16, 0"
     points="47.5354,82.6179 52.5391,82.6179"
     id="polyline25328"
     transform="translate(-29.470707,-15.375)" />
  <polyline
     fill="none"
     stroke="#000000"
     stroke-width="0.714286"
     stroke-linecap="butt"
     stroke-linejoin="miter"
     stroke-dasharray="16, 0"
     points="47.5354,51.5736 52.5391,51.5736"
     id="polyline25330"
     transform="translate(-29.470707,-15.375)" />
  <polyline
     fill="none"
     stroke="#000000"
     stroke-width="0.714286"
     stroke-linecap="butt"
     stroke-linejoin="miter"
     stroke-dasharray="16, 0"
     points="47.5354,19.5279 52.5391,19.5279"
     id="polyline25332"
     transform="translate(-29.470707,-15.375)" />
  <path
     id="polyline25334"
     style="fill:none;stroke:#000000;stroke-width:0.714286;stroke-dasharray:16, 0"
     d="M 23.068394,635.053 H 1107.6096"
     sodipodi:nodetypes="cc" />
  <polyline
     fill="none"
     stroke="#000000"
     stroke-width="0.714286"
     stroke-linecap="butt"
     stroke-linejoin="miter"
     stroke-dasharray="16, 0"
     points="52.5391,655.435 52.5391,650.428"
     id="polyline25336"
     transform="translate(-29.470707,-15.375)" />
  <polyline
     fill="none"
     stroke="#000000"
     stroke-width="0.714286"
     stroke-linecap="butt"
     stroke-linejoin="miter"
     stroke-dasharray="16, 0"
     points="102.576,655.435 102.576,650.428"
     id="polyline25338"
     transform="translate(-29.470707,-15.375)" />
  <polyline
     fill="none"
     stroke="#000000"
     stroke-width="0.714286"
     stroke-linecap="butt"
     stroke-linejoin="miter"
     stroke-dasharray="16, 0"
     points="153.614,655.435 153.614,650.428"
     id="polyline25340"
     transform="translate(-29.470707,-15.375)" />
  <polyline
     fill="none"
     stroke="#000000"
     stroke-width="0.714286"
     stroke-linecap="butt"
     stroke-linejoin="miter"
     stroke-dasharray="16, 0"
     points="204.652,655.435 204.652,650.428"
     id="polyline25342"
     transform="translate(-29.470707,-15.375)" />
  <polyline
     fill="none"
     stroke="#000000"
     stroke-width="0.714286"
     stroke-linecap="butt"
     stroke-linejoin="miter"
     stroke-dasharray="16, 0"
     points="255.69,655.435 255.69,650.428"
     id="polyline25344"
     transform="translate(-29.470707,-15.375)" />
  <polyline
     fill="none"
     stroke="#000000"
     stroke-width="0.714286"
     stroke-linecap="butt"
     stroke-linejoin="miter"
     stroke-dasharray="16, 0"
     points="306.728,655.435 306.728,650.428"
     id="polyline25346"
     transform="translate(-29.470707,-15.375)" />
  <polyline
     fill="none"
     stroke="#000000"
     stroke-width="0.714286"
     stroke-linecap="butt"
     stroke-linejoin="miter"
     stroke-dasharray="16, 0"
     points="357.766,655.435 357.766,650.428"
     id="polyline25348"
     transform="translate(-29.470707,-15.375)" />
  <polyline
     fill="none"
     stroke="#000000"
     stroke-width="0.714286"
     stroke-linecap="butt"
     stroke-linejoin="miter"
     stroke-dasharray="16, 0"
     points="407.803,655.435 407.803,650.428"
     id="polyline25350"
     transform="translate(-29.470707,-15.375)" />
  <polyline
     fill="none"
     stroke="#000000"
     stroke-width="0.714286"
     stroke-linecap="butt"
     stroke-linejoin="miter"
     stroke-dasharray="16, 0"
     points="458.841,655.435 458.841,650.428"
     id="polyline25352"
     transform="translate(-29.470707,-15.375)" />
  <polyline
     fill="none"
     stroke="#000000"
     stroke-width="0.714286"
     stroke-linecap="butt"
     stroke-linejoin="miter"
     stroke-dasharray="16, 0"
     points="509.879,655.435 509.879,650.428"
     id="polyline25354"
     transform="translate(-29.470707,-15.375)" />
  <polyline
     fill="none"
     stroke="#000000"
     stroke-width="0.714286"
     stroke-linecap="butt"
     stroke-linejoin="miter"
     stroke-dasharray="16, 0"
     points="560.917,655.435 560.917,650.428"
     id="polyline25356"
     transform="translate(-29.470707,-15.375)" />
  <polyline
     fill="none"
     stroke="#000000"
     stroke-width="0.714286"
     stroke-linecap="butt"
     stroke-linejoin="miter"
     stroke-dasharray="16, 0"
     points="611.955,655.435 611.955,650.428"
     id="polyline25358"
     transform="translate(-29.470707,-15.375)" />
  <polyline
     fill="none"
     stroke="#000000"
     stroke-width="0.714286"
     stroke-linecap="butt"
     stroke-linejoin="miter"
     stroke-dasharray="16, 0"
     points="662.993,655.435 662.993,650.428"
     id="polyline25360"
     transform="translate(-29.470707,-15.375)" />
  <polyline
     fill="none"
     stroke="#000000"
     stroke-width="0.714286"
     stroke-linecap="butt"
     stroke-linejoin="miter"
     stroke-dasharray="16, 0"
     points="713.031,655.435 713.031,650.428"
     id="polyline25362"
     transform="translate(-29.470707,-15.375)" />
  <polyline
     fill="none"
     stroke="#000000"
     stroke-width="0.714286"
     stroke-linecap="butt"
     stroke-linejoin="miter"
     stroke-dasharray="16, 0"
     points="764.069,655.435 764.069,650.428"
     id="polyline25364"
     transform="translate(-29.470707,-15.375)" />
  <polyline
     fill="none"
     stroke="#000000"
     stroke-width="0.714286"
     stroke-linecap="butt"
     stroke-linejoin="miter"
     stroke-dasharray="16, 0"
     points="815.106,655.435 815.106,650.428"
     id="polyline25366"
     transform="translate(-29.470707,-15.375)" />
  <polyline
     fill="none"
     stroke="#000000"
     stroke-width="0.714286"
     stroke-linecap="butt"
     stroke-linejoin="miter"
     stroke-dasharray="16, 0"
     points="866.145,655.435 866.145,650.428"
     id="polyline25368"
     transform="translate(-29.470707,-15.375)" />
  <polyline
     fill="none"
     stroke="#000000"
     stroke-width="0.714286"
     stroke-linecap="butt"
     stroke-linejoin="miter"
     stroke-dasharray="16, 0"
     points="917.182,655.435 917.182,650.428"
     id="polyline25370"
     transform="translate(-29.470707,-15.375)" />
  <polyline
     fill="none"
     stroke="#000000"
     stroke-width="0.714286"
     stroke-linecap="butt"
     stroke-linejoin="miter"
     stroke-dasharray="16, 0"
     points="968.22,655.435 968.22,650.428"
     id="polyline25372"
     transform="translate(-29.470707,-15.375)" />
  <polyline
     fill="none"
     stroke="#000000"
     stroke-width="0.714286"
     stroke-linecap="butt"
     stroke-linejoin="miter"
     stroke-dasharray="16, 0"
     points="1018.26,655.435 1018.26,650.428"
     id="polyline25374"
     transform="translate(-29.470707,-15.375)" />
  <polyline
     fill="none"
     stroke="#000000"
     stroke-width="0.714286"
     stroke-linecap="butt"
     stroke-linejoin="miter"
     stroke-dasharray="16, 0"
     points="1069.3,655.435 1069.3,650.428"
     id="polyline25376"
     transform="translate(-29.470707,-15.375)" />
  <polyline
     fill="none"
     stroke="#000000"
     stroke-width="0.714286"
     stroke-linecap="butt"
     stroke-linejoin="miter"
     stroke-dasharray="16, 0"
     points="1120.33,655.435 1120.33,650.428"
     id="polyline25378"
     transform="translate(-55.092292,-15.375)" />
  <text
     xml:space="preserve"
     id="text28926"
     style="font-style:normal;font-variant:normal;font-weight:normal;font-stretch:normal;font-size:24px;line-height:1.25;font-family:'Segoe UI';-inkscape-font-specification:'Segoe UI';white-space:pre;shape-inside:url(#rect28928);fill:#000000;fill-opacity:1;stroke:none"
     transform="translate(-47.136229,-142.24556)"><tspan
       x="81.904297"
       y="201.48529"
       id="tspan47642">Elapsed time [sec]</tspan></text>
  <text
     xml:space="preserve"
     id="text28926-6-4"
     style="font-style:normal;font-variant:normal;font-weight:normal;font-stretch:normal;font-size:24px;line-height:1.25;font-family:'Segoe UI';-inkscape-font-specification:'Segoe UI';white-space:pre;shape-inside:url(#rect28928-6-1);fill:#000000;fill-opacity:1;stroke:none"
     transform="translate(536.30574,203.96866)"><tspan
       x="81.904297"
       y="201.48529"
       id="tspan47646"><tspan
         style="font-weight:600;-inkscape-font-specification:'Segoe UI Semi-Bold'"
         id="tspan47644">b</tspan></tspan></text>
  <text
     xml:space="preserve"
     id="text28926-6-4-9"
     style="font-style:normal;font-variant:normal;font-weight:normal;font-stretch:normal;font-size:24px;line-height:1.25;font-family:'Segoe UI';-inkscape-font-specification:'Segoe UI';white-space:pre;shape-inside:url(#rect28928-6-1-4);fill:#000000;fill-opacity:1;stroke:none"
     transform="translate(495.89425,111.26649)"><tspan
       x="81.904297"
       y="201.48529"
       id="tspan47650"><tspan
         style="font-weight:600;-inkscape-font-specification:'Segoe UI Semi-Bold'"
         id="tspan47648">a</tspan></tspan></text>
  <text
     xml:space="preserve"
     id="text28926-8"
     style="font-style:normal;font-variant:normal;font-weight:normal;font-stretch:normal;font-size:24px;line-height:1.25;font-family:'Segoe UI';-inkscape-font-specification:'Segoe UI';white-space:pre;shape-inside:url(#rect28928-2);fill:#000000;fill-opacity:1;stroke:none"
     transform="translate(408.08108,492.67169)"><tspan
       x="81.904297"
       y="201.48529"
       id="tspan47652">Test cases</tspan></text>
  <path
     style="fill:none;stroke:#000000;stroke-width:3;stroke-linecap:round;stroke-linejoin:miter;stroke-miterlimit:4;stroke-dasharray:none;stroke-opacity:1"
     d="m 568.94882,444.33004 29.40908,-29.40908 h 60.72523"
     id="path44106" />
  <path
     style="fill:none;stroke:#000000;stroke-width:3;stroke-linecap:round;stroke-linejoin:miter;stroke-miterlimit:4;stroke-dasharray:none;stroke-opacity:1"
     d="m 526.49134,349.6288 29.40908,-29.40908 h 60.72523"
     id="path44106-7" />
</svg>
