22 -4.44089209850063e-16 18
22 2 20
22 0.00500176898114413 18.1415159087679
22 0.019994278411128 18.2823306626989
22 0.0449147132949652 18.4217281609933
22 0.0796440496903357 18.5590042068539
22 0.124009491398115 18.6934689441765
22 0.177786906652898 18.8244492942406
22 0.24070326481353 18.9512913923997
22 0.312439073053631 19.073363024772
22 0.392630813052123 19.1900560649307
22 0.480873377683758 19.3007889105949
22 0.576722507709643 19.4050089203199
22 0.679697228467769 19.5021948501877
22 0.789282286563538 19.5918592904974
22 0.904930586560289 19.6735511024562
22 1.02606562766982 19.7468578548694
22 1.15208394044293 19.8114082608313
22 1.28235752345993 19.8668746144155
22 1.41623628002118 19.9129752273655
22 1.55305045483761 19.9494768657853
22 1.69211307072123 19.9761971868297
22 1.83272236527572 19.9930071753952
22 1.9162902245403 19.9982517585889
20 -2 18
20.0050017689811 -1.85848409123218 18
20.0199942784111 -1.71766933730121 18
20.0449147132949 -1.57827183900683 18
20.0796440496903 -1.44099579314626 18
20.124009491398 -1.30653105582365 18
20.1777869066528 -1.17555070575959 18
20.2407032648134 -1.04870860760054 18
20.3124390730534 -0.926636975228325 18
20.3926308130519 -0.809943935069618 18
20.4808733776835 -0.699211089405391 18
20.5767225077093 -0.594991079680403 18
20.6796972284674 -0.497805149812668 18
20.7892822865631 -0.408140709502928 18
20.9049305865598 -0.326448897544126 18
21.0260656276692 -0.253142145130879 18
21.1520839404423 -0.188591739168954 18
21.2823575234592 -0.133125385584736 18
21.4162362800204 -0.087024772634705 18
21.5530504548368 -0.0505231342149068 18
21.6921130707204 -0.0238028131704273 18
21.8327223652748 -0.00699282460486503 18
21.9162902245398 -0.00174824141111989 18
20 2 22
21.8584840912322 2 20.0050017689811
21.7176693373012 2 20.0199942784111
21.5782718390068 2 20.0449147132949
21.4409957931462 2 20.0796440496903
21.3065310558236 2 20.124009491398
21.1755507057596 2 20.1777869066528
21.0487086076005 2 20.2407032648134
20.9266369752283 2 20.3124390730534
20.8099439350696 2 20.3926308130519
20.6992110894054 2 20.4808733776835
20.5949910796804 2 20.5767225077093
20.4978051498127 2 20.6796972284674
20.4081407095029 2 20.7892822865631
20.3264488975441 2 20.9049305865598
20.2531421451309 2 21.0260656276692
20.188591739169 2 21.1520839404423
20.1331253855847 2 21.2823575234592
20.0870247726347 2 21.4162362800204
20.0505231342149 2 21.5530504548368
20.0238028131704 2 21.6921130707204
20.0069928246049 2 21.8327223652748
20.0017482414111 2 21.9162902245398
18 -2 20
18.1415159087679 -2 19.9949982310188
18.282330662699 -2 19.9800057215888
18.4217281609935 -2 19.955085286705
18.5590042068541 -2 19.9203559503096
18.6934689441768 -2 19.8759905086018
18.824449294241 -2 19.822213093347
18.9512913924001 -2 19.7592967351863
19.0733630247724 -2 19.6875609269461
19.1900560649311 -2 19.6073691869476
19.3007889105954 -2 19.5191266223159
19.4050089203204 -2 19.4232774922899
19.5021948501881 -2 19.3203027715317
19.5918592904979 -2 19.2107177134359
19.6735511024566 -2 19.0950694134391
19.7468578548699 -2 18.9739343723294
19.8114082608317 -2 18.8479160595563
19.8668746144159 -2 18.7176424765392
19.9129752273658 -2 18.5837637199779
19.9494768657855 -2 18.4469495451614
19.9761971868299 -2 18.3078869292777
19.9930071753953 -2 18.1672776347231
19.9982517585889 -2 18.0837097754591
18 0 22
19.9949982310188 1.85848409123208 22
19.9800057215888 1.71766933730101 22
19.955085286705 1.57827183900654 22
19.9203559503096 1.44099579314587 22
19.8759905086018 1.30653105582318 22
19.822213093347 1.17555070575904 22
19.7592967351863 1.04870860759992 22
19.6875609269461 0.926636975227649 22
19.6073691869476 0.809943935068893 22
19.5191266223159 0.69921108940463 22
19.4232774922899 0.594991079679619 22
19.3203027715317 0.497805149811875 22
19.2107177134359 0.408140709502139 22
19.0950694134391 0.326448897543357 22
18.9739343723294 0.253142145130147 22
18.8479160595563 0.188591739168274 22
18.7176424765392 0.133125385584124 22
18.5837637199779 0.087024772634178 22
18.4469495451614 0.0505231342144809 22
18.3078869292777 0.0238028131701186 22
18.1672776347231 0.00699282460468901 22
18.0837097754591 0.00174824141107588 22
18 -0.00500176898114413 21.8584840912321
18 -0.019994278411128 21.7176693373011
18 -0.0449147132949652 21.5782718390067
18 -0.0796440496903357 21.4409957931461
18 -0.124009491398115 21.3065310558234
18 -0.177786906652898 21.1755507057593
18 -0.24070326481353 21.0487086076003
18 -0.312439073053631 20.926636975228
18 -0.392630813052123 20.8099439350693
18 -0.480873377683758 20.6992110894051
18 -0.576722507709643 20.5949910796801
18 -0.679697228467769 20.4978051498123
18 -0.789282286563538 20.4081407095026
18 -0.904930586560289 20.3264488975438
18 -1.02606562766982 20.2531421451306
18 -1.15208394044293 20.1885917391687
18 -1.28235752345993 20.1331253855845
18 -1.41623628002118 20.0870247726345
18 -1.55305045483761 20.0505231342147
18 -1.69211307072123 20.0238028131703
18 -1.83272236527572 20.0069928246048
18 -1.9162902245403 20.0017482414111
18.0841939581669 0.00125846058360846 21.9574582052826
18.1676798702477 0.0065851483766399 21.9970875506242
19.9953490692204 1.85813884343963 21.9849769547829
18.0926202144773 -0.00717932751008307 21.8075809326636
18.1732559220092 0.00100008312557717 21.8443195150343
18.3104897442748 0.0211936250452884 21.9036686405431
18.4474813140138 0.0499926367869719 21.958529718066
19.9500073632105 1.55251868598437 21.9585297180654
19.9558811607132 1.57747559443481 21.948854066672
20.0018008703737 1.85169693491123 21.8330872395737
18.1109843544361 -0.025556936538449 21.662346500831
18.1887258552991 -0.0144819893919685 21.6961488066067
18.3215425035258 0.0101314494155923 21.751014250935
18.4548908423981 0.0425769686813405 21.8021761425514
18.588063987632 0.0827233687970754 21.8493425826549
18.7197225799025 0.131045129364299 21.8915950980524
18.8487615915553 0.1877454987583 21.9282590854195
18.9741907725045 0.252883975502901 21.9588068751517
19.1900786796886 0.39260575137523 21.9973930820368
19.6073942486204 0.809921320312926 21.9973930820345
19.7471160244931 1.02580922749506 21.9588068751498
19.7596269992252 1.04837992460472 21.9537103531611
19.8689548706333 1.2802774200955 21.8915950980515
19.957423031315 1.54510915760096 21.80217614255
19.9639187977217 1.56944472868895 21.7931312015598
20.0181607967236 1.83534958006164 21.6858068224645
18.1432602748207 -0.0578401998365842 21.5025916167611
18.2178655155716 -0.0436288755700023 21.5332121330197
18.3458510727102 -0.014185835250352 21.5831757631132
18.475050489129 0.0224068733598145 21.6301291053077
18.6044415306937 0.0663374754671214 21.6734597255799
18.73284617274 0.117915710342451 21.7124099763443
18.8591899574172 0.177313429783502 21.7463398619823
18.9824750150171 0.244597539570829 21.7747145833749
19.1957992449289 0.38688444401987 21.8107055764811
19.3058367897833 0.475823565810703 21.8213969784135
19.4098128637858 0.571918393174985 21.8253912004683
19.5241764341862 0.694163210217398 21.8213969784123
19.6131155559763 0.80420075507284 21.8107055764791
19.7554024604255 1.0175249849832 21.7747145833732
19.7682646055733 1.03974474169998 21.7699735875726
19.8820842896539 1.26715382725897 21.7124099763428
19.9775931266354 1.52494951087131 21.6301291053057
19.9848096017815 1.54856429571688 21.6218150786407
20.0482581435208 1.80525941502297 21.523834501698
18.1834119635735 -0.0979891511799179 21.3575497029911
18.2552499225325 -0.0810115027369365 21.3853638397311
18.3789078154733 -0.0472441691571708 21.4309387756911
18.5042457826471 -0.00679374880884184 21.4739772216474
18.6300932977064 0.0406801369009148 21.5137134061229
18.7553932841659 0.0953637593325961 21.5495124132812
18.8791168040086 0.157382842079415 21.5807858023788
19.0002824922646 0.226787456822419 21.6070146272786
19.2110284251111 0.371654252312651 21.6403960332147
19.3203264907505 0.461333410531986 21.6503382254075
19.4240297282269 0.557701493191855 21.6540557220077
19.5386665894652 0.679673509249776 21.6503382254067
19.6283457476839 0.788971574890563 21.6403960332133
19.7732125431734 0.999717507737031 21.6070146272764
19.7864240078849 1.02158814412021 21.6026269877392
19.9046362406621 1.2446067158351 21.5495124132784
20.0067937488031 1.49575421735469 21.4739772216445
20.0146875294962 1.51869122225194 21.4663502499901
20.0864800947135 1.76703530258451 21.3768377876359
18.0000362311382 -0.188656694976862 21.1521495505071
18.2234877289015 -0.138057379960607 21.2397851885145
18.2930900967588 -0.118845492878354 21.265333214604
18.4132068314942 -0.0815394769071474 21.3073181036316
18.5353274011457 -0.0378737907396793 21.3470941803671
18.6582468638827 0.012526741569095 21.3838601380298
18.7809611184373 0.0697953595427058 21.4170360404578
18.9024735210969 0.134025399104282 21.4460689933894
19.0218243502203 0.205245064236135 21.470460676163
19.2303215701633 0.352361049412573 21.5015654270666
19.3389648177418 0.442695115491358 21.5108438117941
19.442425101959 0.539306124364103 21.5143148566921
19.5573048845057 0.661035182258342 21.5108438117931
19.6476389505836 0.769678429838279 21.5015654270647
19.7947549357585 0.978175649782169 21.47046067616
19.8082672982574 0.999745437752067 21.4663775185872
19.9302046404506 1.21903888156562 21.4170360404537
20.0378737907332 1.46467259885725 21.3470941803632
20.0463322185549 1.4870446210746 21.3400401002677
20.1249934726686 1.72851530543296 21.2574962901556
20.1794910167257 1.95366367422371 21.1709764399966
18.0525904165647 -0.24119513880093 21.0466788255334
18.2683929174186 -0.182951739419261 21.1265639121787
18.3358224054209 -0.161568569411434 21.1499100011498
18.452461185416 -0.120786441154844 21.1883693618859
18.5713943450731 -0.073934243126356 21.2249129220052
18.6914371485085 -0.0206589687449805 21.2587614390539
18.8116049240202 0.0391545768376113 21.2893559615267
18.9309235685231 0.105577390075775 21.3161667985773
19.0484560798432 0.178614827091365 21.3387174825482
19.2546696208894 0.328013901855289 21.3675094938357
19.3626399472984 0.419020501026127 21.3761059127543
19.4658494067129 0.515881864345409 21.3793228080066
19.5809794989705 0.637360052701803 21.3761059127527
19.6719860981399 0.745330379112278 21.3675094938329
19.8213851729017 0.951543920159831 21.3387174825438
19.8352002275716 0.972810939151002 21.3349408558675
19.9608454231546 1.18839507598412 21.2893559615215
20.0739342431191 1.42860565493099 21.2249129220002
20.0829512613499 1.45041888705344 21.2184255992501
20.1683784545684 1.68512062460676 21.142744343885
20.230374457102 1.90276527302314 21.0638278668674
18.098461646772 -0.287051852700843 20.9636859741959
18.3082491816347 -0.222797034915785 21.037475311901
18.3739551159071 -0.199691573080426 21.0590747855886
18.4878070407562 -0.156124107316897 21.0947094399028
18.604158391903 -0.106690887679198 21.1286351504838
18.7218723744931 -0.0510884560079066 21.1601227486713
18.8399745014084 0.0107892623960181 21.1886242847878
18.9575070608217 0.078997050060274 21.2136260386002
19.0735521710879 0.153521085456146 21.2346703676239
19.2778848756452 0.304799904614563 21.2615574427752
19.3852975072929 0.396363613248006 21.2695890066828
19.4882985613543 0.493432766576416 21.272594994296
19.6036363867482 0.614702492707691 21.2695890066806
19.6952000953797 0.722115124356923 21.2615574427714
19.8464789145357 0.926447828915606 21.2346703676185
19.8605420487526 0.947466639355073 21.2311451113039
19.9892107375954 1.16002549859666 21.1886242847816
20.1066908876712 1.39584160810175 21.128635150478
20.1161610031045 1.4172015696536 21.1226074681088
20.2070277270716 1.64646127228482 21.0524428319564
20.2749320540654 1.85819366399253 20.9795177872632
20.3005744503043 1.95256386876613 20.9446712325946
18.1575021719654 -0.346076297412875 20.8661871436022
18.3602851129899 -0.274817957598082 20.9328741096604
18.4239726178804 -0.24969518276057 20.9524275694022
18.5345237674264 -0.202829262702274 20.9847168763691
18.6477642673733 -0.150287424273496 21.0154899777211
18.7626507954171 -0.0918594446000248 21.0441122444199
18.8782343124422 -0.0274647389819591 21.0700619388808
18.9935840401606 0.0429245554414721 21.0928523797153
19.1078087112386 0.1192679452346 21.1120527524407
19.3098355599695 0.272850981457149 21.1366046756968
19.4165633168531 0.365098721993722 21.1439429340156
19.5193082457186 0.462423159043624 21.1466899221382
19.6349012780019 0.583436683147879 21.143942934013
19.7271490185363 0.69016444003343 21.1366046756923
19.8807320547562 0.892191288765832 21.1120527524342
19.8950989535588 0.912906150765994 21.1088353535468
20.0274647389722 1.12176568756345 21.0700619388735
20.1502874242643 1.35223573263222 21.0154899777143
20.1603062764792 1.37304658054459 21.0100187895846
20.2576491027804 1.59582562946777 20.9464221743456
20.3324420104749 1.80066748924302 20.8804832387896
20.3614219023109 1.89170073494633 20.8490208441045
17.9999910322759 -0.497767467502861 20.6796616450287
18.2305093350435 -0.419072590951169 20.7566351415458
18.4255061753308 -0.340024042034559 20.8154219098749
18.4869416755615 -0.312649393450362 20.8326913346663
18.5937678364927 -0.262060864526929 20.8612048235236
18.7034299368449 -0.205944387708091 20.888353016507
18.8150257835913 -0.144227337163845 20.9136408616517
18.9276570846552 -0.0768816599596364 20.9365984012077
19.0404398137604 -0.00392647879884106 20.9567876034516
19.1525214056709 0.074558954418431 20.9738170190071
19.3518335289006 0.230854946613068 20.995620000617
19.4577551078475 0.323907932252479 21.0021422592581
19.5601985826586 0.42153290553709 21.004584416791
19.6760920677429 0.542244892153758 21.0021422592558
19.7691450533802 0.648166471103151 20.9956200006126
19.9254410455718 0.847478594335008 20.9738170189998
19.940165624478 0.867835591418004 20.9709620890836
20.0768816599484 1.07234291535129 20.9365984011991
20.2059443876976 1.29657006316145 20.8883530164994
20.2165986442862 1.31674492057579 20.883526036067
20.3212943203572 1.5321654266208 20.8273868269402
20.4037503503401 1.72934707633745 20.7692196321631
20.436456131576 1.81665713507455 20.741535214538
17.9999982579328 -0.594964231535439 20.5766955789818
18.0720209516061 -0.569800491864211 20.6004526921568
18.294122656804 -0.482686640629547 20.668890052475
18.4828105800121 -0.397324753796502 20.7212751579699
18.5424088079157 -0.368111784235369 20.7366804047739
18.6461890607698 -0.314476874152303 20.7621045895885
18.752926010865 -0.255436274408813 20.7862877372375
18.8618231513314 -0.19102080859788 20.8088397550769
18.9720204875483 -0.121241521449583 20.8293297802612
19.0826774384731 -0.0461610250738638 20.8473644970315
19.1929779018626 0.0341049952892306 20.8625892984842
19.3900259171933 0.192663972870065 20.882098973906
19.4952735456833 0.28639024153654 20.8879387688668
19.5974648524739 0.384266698456148 20.8901257845387
19.7136097584589 0.504726454317801 20.8879387688645
19.8073360271233 0.609974082810458 20.8820989739016
19.9658950047009 0.807022098143929 20.8625892984766
19.9809172968165 0.827081278410226 20.8600360773438
20.1212415214378 1.02797951245884 20.829329780252
20.2554362743979 1.24707398914173 20.7862877372294
20.266610209339 1.26672897861231 20.7819876511305
20.3773213713952 1.47613391132612 20.7319485059591
20.4660018984844 1.66709540954824 20.6800930331059
20.5017128318522 1.75140201292406 20.6554556669465
20.5698004918633 1.92797904839376 20.6004526921565
18.0754156611468 -0.670382791463016 20.504478573141
18.1446622043222 -0.642444041057694 20.5254216080564
18.3587167690959 -0.547286543651069 20.5857025012576
18.5412416961059 -0.455760891238976 20.6318382639081
18.599027019755 -0.424733760481745 20.6454043253724
18.6998149511576 -0.368103720350369 20.6677920898325
18.8037204091863 -0.306229280949979 20.6891019337885
18.9100151193078 -0.239210677503222 20.709014331299
19.0178621908591 -0.167080940469416 20.7271217935044
19.1264590621211 -0.0899404503562171 20.7430684896186
19.2350255620601 -0.0079407179273312 20.7565358826824
19.4298570406994 0.15283404151006 20.7737992607957
19.5344420581002 0.247222378274549 20.7789677448094
19.6363851246121 0.345346481474985 20.7809034682478
19.7527776217208 0.465557941900573 20.7789677448067
19.8471659584832 0.570142959303857 20.7737992607908
20.0079407179172 0.764974437945983 20.7565358826744
20.0232534532381 0.784743119317522 20.7542770844202
20.1670809404579 0.982137809148268 20.7271217934951
20.3062292809392 1.19627959082054 20.6891019337799
20.317904158448 1.21543393880891 20.6853098338846
20.4345007254225 1.41895875557778 20.641237487359
20.5292836672987 1.60381967458924 20.5955689683921
20.5678935594708 1.68522658001094 20.5738710325483
20.6424440410572 1.85533779567815 20.5254216080557
18.0000132633297 -0.809935430116785 20.3926206153824
18.1505663669477 -0.745532698697706 20.4362955608213
18.2171421838913 -0.714922854636269 20.4545294726644
18.4235054746912 -0.612076032620804 20.5070120449529
18.6001903199293 -0.514712434930085 20.5472285622374
18.6562557709546 -0.4819654651827 20.5590510180405
18.7541840076553 -0.422474811779116 20.5785385105387
18.8553488551024 -0.357858264213156 20.5970679447715
18.9591156515908 -0.288311076766957 20.6144167774007
19.0646741237625 -0.213892293300436 20.6302037754564
19.1712625027754 -0.134743052742489 20.6441142644204
19.2781380238495 -0.0510522665235619 20.6558675473307
19.4708087871827 0.111882954407709 20.670941038183
19.574748303011 0.206916504207141 20.6754554694548
19.6764496706441 0.305281967279064 20.6771464169667
19.7930834957881 0.425251696989803 20.675455469452
19.8881170455854 0.529191212820625 20.6709410381779
20.0510522665134 0.721861976156444 20.6558675473227
20.0666482850129 0.741347375157744 20.6538958916201
20.2138922932889 0.935325876244742 20.6302037754471
20.3578582642024 1.14465114490449 20.5970679447625
20.3700197325184 1.16331913491655 20.593769231687
20.4922614868193 1.36120098281674 20.5554205477219
20.5928219537495 1.54028274137578 20.5156097615466
20.6341869046753 1.61893336855305 20.4967056144734
20.7149228546356 1.78285781610939 20.4545294726633
20.7773469907378 1.9218400828774 20.4157167099657
20.8039526123633 1.98530736144629 20.3970293829559
18.0657356474526 -0.875666430677008 20.3449321203357
18.2113171630477 -0.806288413594816 20.3835611673165
18.2757962897805 -0.773580447329182 20.3996671118026
18.4761244743712 -0.664696638222243 20.446027223219
18.6482086751435 -0.562733513096621 20.4815800562257
18.702918208751 -0.528630891869492 20.4920280742141
18.7985974516406 -0.466890890705551 20.5092349958617
18.8976128497437 -0.400123633338747 20.525583759444
18.999385412051 -0.328581642852013 20.5409102505058
19.1031348663883 -0.25235339932596 20.5548629210409
19.208133577277 -0.171614158721459 20.5671616448561
19.3136693901656 -0.0865834615446072 20.5775567372939
19.5046267483695 0.0780652268647511 20.5908934396221
19.6080541241534 0.173610827728725 20.5948888325104
19.7095637388205 0.272167911910658 20.5963854986648
19.8263891722664 0.39194587584741 20.5948888325076
19.9219347731283 0.49537325163385 20.590893439617
20.0865834615345 0.686330609840235 20.5775567372861
20.1024040221555 0.70559149400264 20.5758126833471
20.2523533993143 0.896865133618621 20.5548629210318
20.4001236333279 1.10238715026342 20.5255837594351
20.4126672026766 1.12067325788811 20.5226724621102
20.5393437780089 1.31412162562939 20.4888202443447
20.6444581171586 1.48864829732568 20.4536266865488
20.6879895804134 1.56513231996045 20.4369195054748
20.773580447328 1.72420371022067 20.3996671118011
20.8404590090452 1.85873475683512 20.3653721082765
20.8691862785373 1.92008196131159 20.3488365137216
18.0000827899162 -1.17566533690515 20.177903791392
18.0824237466853 -1.13116063907284 20.1970826272544
18.2340059183953 -1.04396878814559 20.2297186395349
18.3671818436234 -0.962181636473372 20.2557647375434
18.4265069605735 -0.92431638776289 20.2666420936064
18.6119660133645 -0.800552334723047 20.2979161426839
18.7724358329353 -0.686970357502749 20.3216864599498
18.8237133266451 -0.64943522830187 20.3286535124029
18.9138029898684 -0.582104596798639 20.3401920001574
19.0076134789751 -0.510130224321321 20.3512628395583
19.1044436577769 -0.433644278014736 20.3615772253384
19.2036934452838 -0.352915039513599 20.3709669378095
19.3047320426802 -0.268214589156307 20.3792500817444
19.4069255939186 -0.179840800105181 20.3862563215987
19.5936017575149 -0.0109100654275865 20.3952525293152
19.6957480999432 0.0859167580934285 20.3979492446223
19.7967780358564 0.184953608750247 20.398959625134
19.9140832419018 0.304251900057655 20.3979492446196
20.0109100654208 0.406398242488368 20.3952525293103
20.1798408000952 0.593074406087267 20.3862563215912
20.1962219222868 0.611774859848024 20.3850804941632
20.3529150395021 0.796306554723269 20.3709669378006
20.5101302243104 0.992386521032167 20.3512628395495
20.5236003777964 1.00974647192438 20.3492907178073
20.6612006246427 1.19227412845912 20.3265130204344
20.7778487471855 1.35527040133451 20.3030160525721
20.8267858538635 1.42635218424426 20.2917899381443
20.9243163877603 1.57349303942912 20.2666420936037
21.0021898852677 1.69703492519301 20.243494632835
21.0362332475343 1.75306702684773 20.2323498848839
21.1675336126972 1.98458158030101 20.1815555203834
18.0825175852999 -1.25810480539266 20.1413126767778
18.1610466402444 -1.20978996002415 20.1566264655829
18.3060535132615 -1.11602539866388 20.1825966613725
18.4340247102529 -1.02903463904707 20.2033670086284
18.4911985253454 -0.98901808909592 20.2120635030187
18.6704514253541 -0.859045681837202 20.2370435437612
18.8260625249883 -0.740601626685924 20.255883565232
18.8759065505391 -0.701632181873466 20.2613961682545
18.9636692087082 -0.631973769102225 20.2705745990246
19.0553187514521 -0.557838333845074 20.2794549364182
19.1500873332661 -0.479290168735121 20.2876786385751
19.2474573795091 -0.396680609174883 20.2951620797982
19.3468394665193 -0.310323164873421 20.3017654003597
19.447633194176 -0.22054916698101 20.3073521742096
19.6325138005096 -0.0498224058881854 20.3145277168433
19.7341223318165 0.0475423897720268 20.3166791091365
19.8349508482583 0.146780785542842 20.3174852261827
19.9524576102234 0.265877668184248 20.3166791091339
20.0498224058815 0.367486199493598 20.3145277168386
20.2205491669712 0.55236680582975 20.3073521742022
20.2371651916842 0.570832420119566 20.3064144774342
20.3966806091636 0.752542620498075 20.2951620797894
20.5578383338343 0.944681248555084 20.2794549364095
20.5716934498256 0.961656270368705 20.2778730245518
20.7138370619602 1.13964165787417 20.2597013170503
20.8353111262497 1.2978152915378 20.2410980965163
20.8865079745485 1.36663869883933 20.232163187376
20.989018089093 1.50880147465766 20.2120635030156
21.0714843166642 1.62775026315603 20.1935720307333
21.107760776059 1.68154868010392 20.1846914304934
21.2492535947709 1.90286661151983 20.1442345111456
17.9998104492938 -1.57811697217492 20.0447585973429
18.0146311162253 -1.56771713278445 20.047000452565
18.0800806258258 -1.52111516164223 20.0565568553346
18.232464689602 -1.408055945929 20.076489175919
18.3040850227943 -1.35283254379237 20.0847983567345
18.437312242978 -1.24728970164419 20.0988276893185
18.5559200161444 -1.15093881346161 20.1101084178727
18.6091972101787 -1.10702728359068 20.1148557975321
18.7772375520674 -0.965843886305047 20.1284689256777
18.9242539196978 -0.838800053406294 20.1385907418737
18.971574750978 -0.797305579715343 20.1415436789919
19.0551841221124 -0.723492300136442 20.1465099073233
19.1428862841696 -0.645410115168768 20.1513884120982
19.2339508060542 -0.56315702062755 20.1558558357596
19.3279467970343 -0.477172531331388 20.1599176206016
19.4243528750491 -0.387838357313897 20.1635030237587
19.5226296615013 -0.295546844973458 20.1665374833759
19.7042788438804 -0.121587944623139 20.1704362908964
19.804918830661 -0.0232543426949283 20.1716055581353
19.9053845304407 0.0763470846219783 20.1720437152842
20.0232543426906 0.195081169339627 20.1716055581329
20.1215879446168 0.295721156122472 20.170436290892
20.2955468449641 0.477370338504108 20.1665374833689
20.312585352637 0.495413563917081 20.1660281067008
20.4771725313206 0.672053202972525 20.1599176205931
20.6454101151581 0.857113715837256 20.1513884120896
20.6599683725287 0.87338548757368 20.1505194611328
20.8102855331772 1.04319891101497 20.1406345396285
20.9402708150624 1.19286704936614 20.1306595277242
20.9955093418045 1.25764977321915 20.1258222921535
21.1070272835874 1.39080278982472 20.1148557975284
21.1977913081041 1.50145037025124 20.1047772681498
21.2380771262192 1.5512381472757 20.0999614243542
21.3978916238869 1.75423266227195 20.0780795733068
21.5211151616432 1.91991937417332 20.0565568553352
18.148116278308 -1.72642146466008 20.0131474034017
18.1613947934426 -1.71448007341335 20.0138254636627
18.2202599665739 -1.66129561456213 20.0167056895117
18.3588504423863 -1.53444277597598 20.0226546040243
18.4247001290547 -1.47344775977603 20.0251145092326
18.5481764225999 -1.35815338249926 20.0292605912623
18.6589534272293 -1.25397359009648 20.0326043935505
18.7089387798948 -1.2067715113792 20.0340152587936
18.867536856833 -1.05614841337526 20.0380575329705
19.007512805175 -0.922062086960644 20.0410419738738
19.0527787778812 -0.878511765230692 20.0419114160784
19.1329399962383 -0.801249485719786 20.0433810379248
19.2172657893135 -0.719791475821356 20.0448354750288
19.3052310153254 -0.634438722057111 20.0461600152453
19.3964085705311 -0.54563540776566 20.0473637436097
19.4903269053517 -0.453813173716509 20.0484264559403
19.5864983107247 -0.359416030489754 20.049325990565
19.7654425175968 -0.182751842141399 20.0504819204366
19.8652713061404 -0.0836069249011054 20.0508286257842
19.9654330568316 0.0162985496266872 20.0509585505013
20.083606924897 0.134728693860215 20.0508286257819
20.1827518421354 0.234557482405846 20.0504819204325
20.3594160304808 0.413501689280306 20.0493259905584
20.3768079915667 0.431191502197905 20.0491749831219
20.5456354077553 0.603591429475305 20.0473637436017
20.7197914758109 0.782734210693169 20.0448354750206
20.7349510512568 0.798404562513788 20.0445764319588
20.892124443703 0.961362448103163 20.0416435460141
21.0290531816331 1.10408979543858 20.0387052404284
21.087651275329 1.16551293502652 20.0372735391814
21.2067715113758 1.29106122010879 20.0340152587897
21.3045239427987 1.39471794411699 20.0310224145651
21.3481532758742 1.44116158185857 20.0295960367026
21.5231744517682 1.62895073766721 20.0231261051794
21.6612956145636 1.77974003342583 20.0167056895116
21.780200934088 1.9119376404536 20.0099650503903
18.1747251354852 -1.75303024119851 20.0075647918761
18.1877204918806 -1.7408057347457 20.0079556921344
18.2453823195328 -1.68641806079805 20.0096157434956
18.3814843368603 -1.55707673198449 20.0130422032261
18.4463040707203 -1.49505167475282 20.0144582826863
18.5680441977626 -1.37802106162506 20.016844761833
18.6774216055849 -1.272441804443 20.0187698601188
18.7268166099818 -1.2246494758974 20.0195822721235
18.8837230579517 -1.07233496139564 20.0219097818823
19.0224490477905 -0.93699854187549 20.023627361006
19.0673508733902 -0.893084003049175 20.0241276856778
19.1468970501662 -0.81520662191473 20.0249736833962
19.230614778427 -0.733140589043687 20.0258113690551
19.3180258221578 -0.647233628987095 20.026573949453
19.408699711725 -0.557926622820654 20.0272669526247
19.5021733898812 -0.465659710838649 20.0278787770538
19.5979684157029 -0.370886171355072 20.028396661467
19.7764289612759 -0.193738300846502 20.0290621653276
19.8761126820817 -0.094448308023961 20.0292617755191
19.9762200716124 0.00551153426629514 20.0293365778168
20.0944483080199 0.1238873179189 20.0292617755169
20.1937383008406 0.223571038726713 20.0290621653235
20.3708861713462 0.402031584302015 20.0283966614605
20.3883413191125 0.419658213272051 20.028309722432
20.5579266228103 0.591300288281344 20.0272669526167
20.7331405890333 0.769385221579664 20.025811369047
20.7484084589944 0.784947270953502 20.0256621735303
20.9068088794933 0.946678175161605 20.0239735309528
21.0449685281491 1.08817479234373 20.0222826167631
21.1041659983254 1.14899854400158 20.0214584397621
21.224649475894 1.27318339002179 20.0195822721197
21.3236541386446 1.37558769935688 20.0178590113536
21.3678805204032 1.42143424611955 20.0170378602257
21.5456110058552 1.60651422914476 20.0133136556235
21.6864180607995 1.75461768046703 20.0096157434953
21.8081378277533 1.88400041173292 20.0057297892338
18.2735785353395 -1.8518837216913 19.9868525965977
18.2855199265864 -1.8386052065568 19.9861745363367
18.338704385438 -1.77974003342581 19.983294310488
18.4655572240253 -1.64114955761456 19.9773453959761
18.5265522402258 -1.57529987094688 19.9748854907682
18.6418466175041 -1.45182357740334 19.9707394087399
18.7460264099088 -1.34104657277592 19.9673956064535
18.7932284886271 -1.29106122011143 19.9659847412114
18.9438515866343 -1.13246314317633 19.9619424670376
19.0779379130515 -0.992487194837063 19.9589580261366
19.1214882347823 -0.94722122213177 19.9580885839328
19.1987505142948 -0.867060003776231 19.9566189620878
19.2802085241948 -0.782734210702531 19.9551645249851
19.3655612779601 -0.694768984691722 19.9538399847697
19.4543645922522 -0.603591429486729 19.9526362564058
19.5461868263018 -0.509673094666549 19.9515735440756
19.6405839695285 -0.41350168929355 19.950674009451
19.8172481578754 -0.234557482419885 19.949518079578
19.916393075114 -0.134728693874704 19.9491713742288
20.0162985496398 -0.0345669431814151 19.9490414495098
20.1347286938707 0.0836069248865229 19.9491713742267
20.2345574824142 0.182751842127181 19.9495180795741
20.413501689285 0.359416030476204 19.9506740094448
20.4311915022023 0.376807991562392 19.950825016881
20.6035914294767 0.545635407753893 19.9526362563982
20.7827342106924 0.719791475811719 19.9551645249773
20.7984045625129 0.734951051257704 19.9554235680389
20.9613624481014 0.892124443704763 19.9583564539827
21.1040897954373 1.02905318163443 19.9612947595686
21.1655129350254 1.08765127533008 19.9627264608157
21.291061220108 1.20677151137663 19.9659847412076
21.3947179441166 1.30452394279915 19.9689775854325
21.4411615818584 1.34815327587434 19.9704039632953
21.6289507376685 1.52317445176677 19.9768738948195
21.7797400334273 1.66129561456194 19.9832943104872
21.9119376404538 1.78020093408777 19.9900349496073
18.4470624049204 -2.00014856303725 19.9495896291409
18.4930194408127 -1.93405384806308 19.9393790213177
18.6047013421762 -1.78029240175324 19.9180501996767
18.6593395475899 -1.70808696350977 19.909147852415
18.7638901898616 -1.57386756771455 19.8941128141715
18.8594485884607 -1.45446703586262 19.8820286398552
18.9030285841157 -1.40085813776226 19.8769450924472
19.043259468419 -1.23186498814287 19.8623661735475
19.1695835891614 -1.08412923922609 19.8515148602266
19.2108674144383 -1.03659790312474 19.8483484241538
19.28433044348 -0.952638404250939 19.8430271187549
19.3620744268385 -0.864597970230458 19.8378056233149
19.4440138435559 -0.77321982762237 19.8330201614719
19.5297128455317 -0.678938409175375 19.8286689274085
19.6187951056624 -0.58228046621622 19.8248281148573
19.7108734808881 -0.483790581384619 19.8215775624874
19.8845586229257 -0.301867689199354 19.8174012059496
19.9828101415246 -0.201145637167274 19.8161487222818
20.0823808081053 -0.100649191722666 19.8156793842055
20.2011456371636 0.0171898584760174 19.8161487222798
20.301867689194 0.115441377076813 19.817401205946
20.4837905813766 0.289126519116492 19.8215775624816
20.5018695741966 0.306129253030141 19.8221232088146
20.6789384091659 0.470287154474254 19.8286689274015
20.8645979702209 0.637925573167771 19.8378056233076
20.8809300036595 0.652423581764067 19.8387356763835
21.0514362744924 0.802047787942018 19.8493231930795
21.2018148351989 0.931322241197597 19.8600186656169
21.266938531985 0.986219772221954 19.8652015954252
21.4008581377591 1.09697141588796 19.8769450924439
21.5122111693768 1.18703031889199 19.8877385660444
21.562337966869 1.2269772112911 19.892898005698
21.7668781330456 1.38524597256352 19.9163466400874
21.9340538480642 1.50698055918711 19.9393790213167
18.8688393609281 -1.91757625331574 19.8029173727456
18.9560312118562 -1.76599408160614 19.7702813604656
19.0378183635301 -1.63281815637956 19.7442352624583
19.0756836122417 -1.57349303943045 19.7333579063962
19.1994476652851 -1.38803398664299 19.7020838573219
19.3130296425081 -1.22756416707512 19.6783135400588
19.3505647717098 -1.17628667336614 19.6713464876066
19.4178954032145 -1.0861970101444 19.6598079998535
19.4898697756936 -0.9923865210395 19.648737160454
19.5663557220015 -0.895556342238906 19.638422774675
19.6470849605036 -0.796306554732696 19.6290330622046
19.7317854108615 -0.695267957336872 19.6207499182703
19.8201591999126 -0.59307440609861 19.6137436784161
19.9890899345888 -0.406398242500901 19.6047474706983
20.0859167581082 -0.304251900071023 19.6020507553897
20.184953608763 -0.203221964155744 19.6010403748761
20.3042519000677 -0.0859167581077083 19.6020507553881
20.4063982424961 0.0109100654134249 19.6047474706953
20.5930744060914 0.179840800091472 19.613743678411
20.6117748598518 0.196221922283401 19.6149195058387
20.7963065547243 0.352915039501674 19.6290330621985
20.9923865210311 0.510130224311852 19.6487371604478
21.0097464719232 0.523600377797929 19.65070928219
21.1922741284575 0.66120062464455 19.6734869795624
21.3552704013335 0.777848747186638 19.6969839474252
21.4263521842435 0.826785853864351 19.7082100618532
21.5734930394287 0.924316387760754 19.7333579063942
21.6970349251926 1.00218988526816 19.756505367163
21.7530670268472 1.03623324753478 19.7676501151142
21.9845815803004 1.16753361269778 19.8184444796147
18.8836183835348 -1.93235365662602 19.7952005864163
18.9695698097213 -1.77953047710468 19.7613064141556
19.0503728971347 -1.64537041118945 19.7342625781747
19.0878315108179 -1.58563876589028 19.7229730149906
19.2104214161508 -1.39900626353019 19.6905086671678
19.323080096848 -1.2376137563258 19.6658020377213
19.3603424977311 -1.18606365680876 19.6585584021777
19.4272315668919 -1.09553255468104 19.6465722156972
19.498797869251 -1.00131407361921 19.6350877835509
19.574893320296 -0.904093523495726 19.6243775183642
19.6552665268927 -0.804487815488736 19.6146268654649
19.7396533662473 -0.703135700299739 19.6060257963007
19.8277622537221 -0.600677321353302 19.5987510185972
19.9963533593287 -0.41366161623179 19.589410532607
20.0930784878951 -0.311413607114021 19.5866107353798
20.1920772448536 -0.210345598469201 19.585561747421
20.3114136071107 -0.0930784878945915 19.5866107353781
20.4136616162271 0.00364664067341158 19.589410532604
20.6006773213461 0.172237746281941 19.5987510185922
20.6194221963513 0.188574435200291 19.5999718886771
20.8044878154804 0.344733473112509 19.6146268654588
21.0013140736109 0.501202130754328 19.6350877835448
21.0187466831328 0.514599608536298 19.6371335647951
21.202134622412 0.651339354423748 19.6607836162104
21.3660473776122 0.767070439338149 19.6852105822926
21.4375569900905 0.815579406151897 19.6968708003125
21.5856387658887 0.912168489184362 19.7229730149888
21.7100488254981 0.989173686594357 19.7470007212367
21.7665033434788 1.0227947014515 19.7585737108
19.045646727241 -1.85559289276051 19.7100034883174
19.1208772368391 -1.7158609267394 19.6773093328855
19.156028332912 -1.65382297627928 19.6636805640373
19.2719560244812 -1.46053335986042 19.6244623122232
19.3793828488566 -1.29391183784876 19.5944499808074
19.4150990354962 -1.24081593434462 19.5856382285597
19.4794809030634 -1.1477781766641 19.5711099443619
19.5487267004533 -1.05123998175445 19.557273621943
19.6226062664481 -0.95180426245318 19.5443169336554
19.7009603372972 -0.850180037979832 19.5325193328659
19.7835694848236 -0.747050747982809 19.5221161508938
19.8701774985244 -0.643091898175995 19.5133199332786
20.0368453630577 -0.454153402711872 19.5020299282687
20.1329948521173 -0.351329881451489 19.4986466494124
20.2317780200988 -0.250046366952148 19.4973791568408
20.3513298814483 -0.132994852116918 19.4986466494109
20.4541534027074 -0.0368453630557926 19.5020299282659
20.6430918981692 0.129822501479189 19.5133199332739
20.6620884098417 0.145907488894383 19.5147959503998
20.850180037972 0.299039662707497 19.5325193328602
21.0512399817467 0.451273299551555 19.5572736219375
21.0690855349424 0.464257673681677 19.559738092442
21.2573605785256 0.596109027130296 19.5883439266844
21.4264674673311 0.706643626707721 19.6180409388281
21.5004025253098 0.75272533489243 19.6321622376211
21.6538229762783 0.843971667089521 19.663680564036
21.7831556924651 0.916052271211654 19.6927008035886
21.8420002217239 0.947283244417856 19.7066973381072
19.2681258071611 -1.86309190129992 19.5515688132036
19.298255933643 -1.79603657910967 19.5328483105021
19.3997234655073 -1.58829394356338 19.478966784454
19.4960438110467 -1.41056540928708 19.4376925048302
19.5284835913517 -1.35419271394721 19.4255586290512
19.5874618921559 -1.25575222879183 19.4055516811154
19.6515850107839 -1.15409422133658 19.3865218961342
19.7206776124795 -1.04987295992373 19.3687121975706
19.794684589495 -0.943902771924663 19.3525077349388
19.873472217647 -0.836952842501652 19.3382306865475
19.9568584576914 -0.729772805505463 19.3261687063387
20.1194044783544 -0.536712825039029 19.310700721394
20.2143217749778 -0.432657018840673 19.3060684484822
20.3126437444319 -0.330912110934626 19.3043333975779
20.4326570188378 -0.214321774977677 19.3060684484809
20.5367128250351 -0.119404478352799 19.3107007213916
20.7297728054994 0.0431415423116193 19.3261687063348
20.7493092250188 0.0586865371005727 19.3281920803687
20.9439027719178 0.205315410508973 19.352507734934
21.15409422133 0.348414989219923 19.3865218961295
21.1728497880074 0.36048883660877 19.3899094574239
21.3717440113438 0.481717895467578 19.4292849366184
21.5518581794742 0.581246344290566 19.470142034144
21.6310022291456 0.622118050907047 19.4895463774184
21.7960365791091 0.701744066358115 19.5328483105015
21.936035511425 0.763150977382294 19.5726928429159
19.4434067725549 -1.94118559759985 19.3854082186142
19.5290126548122 -1.71757587397626 19.3154418414366
19.6132338107976 -1.52774784620222 19.2619001189403
19.6421131343277 -1.4678162222372 19.2461565793555
19.6951959858214 -1.36348423765883 19.2201726383546
19.7537098738908 -1.25622067622898 19.1954554219896
19.8176402717723 -1.14683850363181 19.172411567453
19.8869817277929 -1.03620331737966 19.1514776542609
19.9616791935955 -0.925163281207137 19.1330546715972
20.0416236474403 -0.81454117442903 19.1175039458073
20.1997729263336 -0.617083281836719 19.0975790157549
20.2933770737907 -0.511713417983726 19.0916154117913
20.3912078888678 -0.409476349029635 19.089382083125
20.5117134179811 -0.29337707379106 19.0916154117904
20.6170832818335 -0.19977292633265 19.0975790157531
20.8145411744241 -0.0416236474380645 19.1175039458042
20.8346541827389 -0.0266551680364957 19.1201117075061
21.036203317374 0.113018272209566 19.1514776542574
21.2562206762243 0.2462901261113 19.1954554219869
21.2759690502309 0.257370670419044 19.1998502037167
21.486461360211 0.366993958369094 19.250992400391
21.6785487579177 0.45454786847043 19.3039901779649
21.7633955517904 0.489718469255025 19.3291754076454
21.9411855976012 0.55659322744426 19.3854082186154
19.5809274090521 -1.7694906649586 19.2433648584555
19.6599759579706 -1.57449382467434 19.1845780901288
19.6873506065556 -1.51305832444477 19.1673086653382
19.7379391354808 -1.40623216351535 19.1387951764822
19.7940556123018 -1.29657006316472 19.1116469835
19.8557726628474 -1.18497421641942 19.0863591383568
19.9231183400525 -1.07234291535617 19.0634015988019
19.9960735212142 -0.959560186251848 19.0432123965586
20.0745589544319 -0.847478594341997 19.0261829810033
20.2308549466255 -0.64816647111174 19.0043799993924
20.3239079322635 -0.542244892163464 18.9978577407502
20.4215329055464 -0.439801417350578 18.995415583216
20.542244892161 -0.323907932263982 18.9978577407494
20.6481664711087 -0.230854946624892 19.0043799993908
20.8474785943374 -0.0745589544302001 19.0261829810004
20.86783559142 -0.0598343755237594 19.0290379109164
21.0723429153509 0.0768816599494797 19.0634015987987
21.2965700631605 0.205944387699976 19.1116469834975
21.3167449205747 0.216598644288616 19.1164739639299
21.5321654266199 0.321294320359039 19.172613173057
21.7293470763386 0.403750350340029 19.2307803678362
21.8166571350764 0.436456131575269 19.2584647854622
22.000008967727 0.497767467499937 19.3203383549731
19.6539237025897 -1.84249782803642 19.1338128563999
19.7251820424061 -1.63971488701391 19.0671258903438
19.7503048172442 -1.57602738212424 19.0475724306028
19.797170737304 -1.46547623258011 19.0152831236371
19.8497125757348 -1.35223573263515 18.9845100222864
19.9081405554093 -1.23734920459227 18.9558877555884
19.972535261028 -1.12176568756744 18.929938061128
20.0429245554523 -1.00641595984964 18.9071476202942
20.1192679452462 -0.892191288772233 18.8879472475696
20.272850981468 -0.690164440041018 18.8633953243132
20.3650987220031 -0.583436683156179 18.8560570659933
20.4624231590514 -0.480691754289117 18.8533100778692
20.5834366831539 -0.365098722003879 18.8560570659927
20.6901644400382 -0.27285098146802 18.863395324312
20.892191288768 -0.119267945245531 18.8879472475674
20.9129061507679 -0.104901046442645 18.8911646464545
21.1217656875626 0.0274647389735572 18.9299380611252
21.3522357326308 0.150287424267091 18.9845100222837
21.3730465805432 0.160306276481951 18.9899812104133
21.5958256294673 0.257649102781708 19.0535778256532
21.800667489244 0.332442010474811 19.119516761211
21.8917007349477 0.361421902310502 19.1509791558966
19.7129481473005 -1.90153835322901 19.0363140258054
19.7772029650871 -1.69175081836769 18.9625246881022
19.8003084269231 -1.62604488409601 18.9409252144153
19.8438758926879 -1.51219295924857 18.9052905601022
19.8933091123273 -1.39584160810386 18.8713648495224
19.9489115439995 -1.27812762551473 18.8398772513356
20.0107892624041 -1.16002549859963 18.8113757152193
20.0789970500691 -1.04249293918676 18.7863739614076
20.1535210854656 -0.92644782892109 18.7653296323847
20.3047999046233 -0.722115124363639 18.7384425572335
20.3963636132556 -0.614702492715004 18.730410993325
20.4934327665829 -0.511701438652264 18.7274050057106
20.614702492713 -0.396363613256834 18.7304109933246
20.7221151243613 -0.304799904624094 18.7384425572328
20.9264478289177 -0.153521085465997 18.7653296323834
20.9474666393568 -0.13945795124891 18.7688548886977
21.1600254985955 -0.0107892624034365 18.8113757152172
21.3958416080996 0.106690887674223 18.8713648495197
21.4172015696514 0.116161003107644 18.8773925318887
21.6464612722834 0.207027727073866 18.9475571680414
21.8581936639927 0.274932054066214 19.0204822127367
21.9525638687666 0.300574450304871 19.0553287674057
19.7588048611996 -1.9474095834355 18.9533211744656
19.8170482605826 -1.73160708258285 18.8734360878219
19.838431430591 -1.66417759458124 18.8500899988515
19.8792135588489 -1.54753881458771 18.8116306381164
19.9260657568788 -1.42860565493243 18.7750870779981
19.9793410312612 -1.30856285149786 18.7412385609502
20.0391545768445 -1.18839507598645 18.7106440384777
20.1055773900833 -1.0690764314841 18.6838332014276
20.1786148270992 -0.951543920164537 18.6612825174573
20.3280139018624 -0.745330379118398 18.63249050617
20.4190205010324 -0.637360052708593 18.6238940872509
20.515881864351 -0.53415059329303 18.6206771919979
20.6373600527067 -0.419020501034033 18.6238940872508
20.7453303791166 -0.328013901863692 18.6324905061699
20.951543920162 -0.178614827100405 18.6612825174569
20.9728109391529 -0.16479977243035 18.665059144133
21.1883950759831 -0.0391545768450277 18.7106440384765
21.4286056549287 0.0739342431217072 18.775087077996
21.450418887051 0.0829512613526745 18.781574400746
21.6851206246045 0.168378454571208 18.8572556561107
21.902765273023 0.230374457103067 18.9361721331307
21.9999957243457 0.253157469379446 18.9739178340549
19.8619426200394 -1.77651227109839 18.7602148114843
19.8811545071225 -1.7069099032419 18.7346667853955
19.9184605230951 -1.58679316850798 18.692681896369
19.9621262092639 -1.46467259885775 18.6529058196344
20.0125267415737 -1.34175313612149 18.6161398619725
20.069795359548 -1.21903888156717 18.582963959545
20.1340253991101 -1.09752647890829 18.5539310066138
20.2052450642419 -0.978175649785808 18.5295393238405
20.3523610494176 -0.769678429843407 18.4984345729373
20.442695115496 -0.661035182264243 18.4891561882097
20.5393061243685 -0.55757489804593 18.4856851433114
20.6610351822625 -0.442695115498007 18.4891561882099
20.7696784298421 -0.352361049419462 18.4984345729377
20.9781756497842 -0.20524506424398 18.5295393238411
20.9997454377538 -0.191732701745023 18.5336224814136
21.2190388815648 -0.0697953595501344 18.5829639595451
21.4646725988551 0.037873790734892 18.6529058196337
21.4870446210722 0.046332218556846 18.6599598997289
21.7285153054305 0.12499347267133 18.7425037098403
21.9536636742235 0.179491016726405 18.8290235600017
19.9087452464623 -1.82332336522822 18.6204838620969
19.9253067036618 -1.75106901415866 18.5922475440588
19.9584192918891 -1.62675585160489 18.546008211698
19.9982791652747 -1.50082679649415 18.5023704996864
20.0452121385271 -1.37443821043756 18.4620854410963
20.099419376676 -1.2486618313094 18.4258029697842
20.1610335565067 -1.1245334888341 18.3941192719392
20.2301082796035 -1.00303802829014 18.3675566164244
20.374570289306 -0.791887503137548 18.3337656711146
20.4641325509119 -0.682472604903863 18.3237050589796
20.5604573815722 -0.578726156831102 18.3199437188969
20.6824726049022 -0.464132550914081 18.32370505898
20.7918875031364 -0.374570289308155 18.3337656711154
21.0030380282889 -0.230108279606219 18.3675566164254
21.0249631489409 -0.216951321798882 18.3719993938399
21.2486618313078 -0.0994193766792955 18.4258029697852
21.5008267964925 0.00172083472249484 18.5023704996871
21.5238676808949 0.00951081151522706 18.5101027810014
21.7734806982229 0.0800355009878489 18.6009018153256
19.9421598001621 -1.85673972517825 18.4974083832376
19.9563711244298 -1.78213448442858 18.46678786698
19.9858141647517 -1.65414892729193 18.4168242368888
20.0224068733634 -1.5249495108738 18.369870894696
20.0663374754704 -1.39555846930824 18.3265402744231
20.1179157103455 -1.26715382726118 18.2875900236579
20.1773134297868 -1.14081004258478 18.2536601380206
20.2445975395744 -1.01752498498677 18.2252854166291
20.3868844440234 -0.804200755076983 18.1892944235238
20.4758235658139 -0.694163210221935 18.1786030215909
20.5719183931779 -0.590187136218012 18.1746087995355
20.6941632102202 -0.475823565816136 18.1786030215915
20.8042007550757 -0.386884444025781 18.1892944235248
21.0175249849852 -0.244597539577552 18.2252854166302
21.0397447417019 -0.231735394429849 18.2300264124306
21.2671538272595 -0.117915710348915 18.2875900236589
21.524949510872 -0.0224068733662672 18.369870894697
21.5485642957177 -0.015190398220198 18.3781849213621
21.8052594150263 0.0482581435162025 18.4761654983071
19.9646222654771 -1.87919861822565 18.3933652704802
19.9768026203496 -1.80256232958589 18.360684293281
20.0031107824859 -1.67144046204545 18.3075387580715
20.0369898012486 -1.53952566984943 18.2578314760277
20.0784354734886 -1.40765079910169 18.2119816938951
20.1278665172499 -1.27710047834738 18.1708536702546
20.1854795013142 -1.14897331637505 18.1351148320015
20.2513401903681 -1.02426587060778 18.1052988525238
20.3919215028646 -0.80923715656447 18.0675825754765
20.4803768945245 -0.698716233195607 18.0564020636095
20.576293733455 -0.594562452003161 18.0522279467313
20.6987162331938 -0.480376894526923 18.0564020636102
20.809237156563 -0.391921502867296 18.0675825754776
21.0242658706061 -0.251340190371565 18.105298852525
21.0467186462773 -0.238711226771195 18.1102758542906
21.2771004783453 -0.127866517253044 18.1708536702553
21.5395256698467 -0.0369898012505753 18.2578314760281
21.5636135863497 -0.0302463203043791 18.2666252086936
21.8263028532267 0.0272111404861103 18.3706864557843
19.9689793941589 -1.88355428880062 18.3697181620731
19.9806918222305 -1.80645013534555 18.336562501422
20.0062817709658 -1.67460995959204 18.2826880458152
20.0395504639574 -1.54208473592534 18.232361431132
20.0804414523869 -1.4096555741003 18.1859495049851
20.1293977182917 -1.2786308945054 18.1443401409726
20.1866193232485 -1.15011268145415 18.1082045632442
20.2521698635753 -1.02509530147255 18.0780743685141
20.3923816746981 -0.809697261178459 18.0399841788828
20.4807326511673 -0.69907196091291 18.0286981381927
20.576611117233 -0.594879833511913 18.0244852649169
20.6990719609111 -0.480732651169814 18.0286981381934
20.809697261177 -0.392381674700876 18.039984178884
21.0250953014708 -0.252169863578868 18.0780743685153
21.0475987379088 -0.239591591971741 18.0831027096469
21.2786308945032 -0.129397718294776 18.1443401409732
21.5420847359223 -0.0395504639591198 18.2323614311322
21.5662783146501 -0.0329126579616517 18.2412623305154
21.8303324350527 0.0231801529191359 18.3467085160163
17.9987872765247 -0.0611059823902932 21.5084416913551
17.9991184784795 -0.435843124661938 20.7536590520548
17.9991146243264 -0.846203299099714 20.3663779996093
17.9990705862829 -0.964571532119132 20.2888552742216
17.9989650373044 -1.48364594459613 20.0677659636418
18.75973852917 -2.00081481003717 19.8498900364682
19.0132544567925 -2.0009342524436 19.7243698346773
19.4545200857443 -2.00089105331525 19.3727195420442
19.8400092158642 -2.00090271128129 18.7836600811601
19.8908583893792 -2.00097498288997 18.6516517544327
19.9323567949177 -2.00117110840342 18.5165056381461
20.1007559990043 -1.37269120313974 17.9988727842443
20.1499039797585 -1.24004629870247 17.99895308845
19.6483888334939 0.867369232323097 22.0009223390819
19.564170884374 0.753656652605628 22.0009112264004
19.8992440009948 1.37269120313826 22.0011272157563
20.0358307340656 2.00136400998225 21.6212299636695
20.4520605835412 2.0008840424272 20.7335678108774
21.3729552667433 2.00084631461869 20.1010114671933
21.6466734060542 2.0013280531821 20.0311379210278
22.0013016165527 1.62131258492564 19.9641243921164
22.001212723477 0.0611059823854277 18.4915583086489
22.0010028595341 0.100865788491778 18.6272132897381
22.0009098038054 0.275665797688099 19.013243826897